%!PS-Adobe-3.0 EPSF-3.0
%%Creator: MATLAB, The MathWorks, Inc. Version 7.11.0.584 (R2010b). Operating System: Darwin 11.0.0 Darwin Kernel Version 11.0.0: Sat Jun 18 12:56:35 PDT 2011; root:xnu-1699.22.73~1/RELEASE_X86_64 x86_64.
%%Title: /Users/kerbero/Dropbox/Congresos/cisti 12/t-ftsp/images/CMR200T.eps
%%CreationDate: 02/23/2012  12:24:04
%%DocumentNeededFonts: Helvetica
%%+ Times-Roman
%%DocumentProcessColors: Cyan Magenta Yellow Black
%%LanguageLevel: 2
%%Pages: 1
%%BoundingBox:  -214   186   810   655
%%EndComments

%%BeginProlog
% MathWorks dictionary
/MathWorks 160 dict begin
% definition operators
/bdef {bind def} bind def
/ldef {load def} bind def
/xdef {exch def} bdef
/xstore {exch store} bdef
% operator abbreviations
/c  /clip ldef
/cc /concat ldef
/cp /closepath ldef
/gr /grestore ldef
/gs /gsave ldef
/mt /moveto ldef
/np /newpath ldef
/cm /currentmatrix ldef
/sm /setmatrix ldef
/rm /rmoveto ldef
/rl /rlineto ldef
/s {show newpath} bdef
/sc {setcmykcolor} bdef
/sr /setrgbcolor ldef
/sg /setgray ldef
/w /setlinewidth ldef
/j /setlinejoin ldef
/cap /setlinecap ldef
/rc {rectclip} bdef
/rf {rectfill} bdef
% page state control
/pgsv () def
/bpage {/pgsv save def} bdef
/epage {pgsv restore} bdef
/bplot /gsave ldef
/eplot {stroke grestore} bdef
% orientation switch
/portraitMode 0 def /landscapeMode 1 def /rotateMode 2 def
% coordinate system mappings
/dpi2point 0 def
% font control
/FontSize 0 def
/FMS {/FontSize xstore findfont [FontSize 0 0 FontSize neg 0 0]
  makefont setfont} bdef
/reencode {exch dup where {pop load} {pop StandardEncoding} ifelse
  exch dup 3 1 roll findfont dup length dict begin
  { 1 index /FID ne {def}{pop pop} ifelse } forall
  /Encoding exch def currentdict end definefont pop} bdef
/isroman {findfont /CharStrings get /Agrave known} bdef
/FMSR {3 1 roll 1 index dup isroman {reencode} {pop pop} ifelse
  exch FMS} bdef
/csm {1 dpi2point div -1 dpi2point div scale neg translate
 dup landscapeMode eq {pop -90 rotate}
  {rotateMode eq {90 rotate} if} ifelse} bdef
% line types: solid, dotted, dashed, dotdash
/SO { [] 0 setdash } bdef
/DO { [.5 dpi2point mul 4 dpi2point mul] 0 setdash } bdef
/DA { [6 dpi2point mul] 0 setdash } bdef
/DD { [.5 dpi2point mul 4 dpi2point mul 6 dpi2point mul 4
  dpi2point mul] 0 setdash } bdef
% macros for lines and objects
/L {lineto stroke} bdef
/MP {3 1 roll moveto 1 sub {rlineto} repeat} bdef
/AP {{rlineto} repeat} bdef
/PDlw -1 def
/W {/PDlw currentlinewidth def setlinewidth} def
/PP {closepath eofill} bdef
/DP {closepath stroke} bdef
/MR {4 -2 roll moveto dup  0 exch rlineto exch 0 rlineto
  neg 0 exch rlineto closepath} bdef
/FR {MR stroke} bdef
/PR {MR fill} bdef
/L1i {{currentfile picstr readhexstring pop} image} bdef
/tMatrix matrix def
/MakeOval {newpath tMatrix currentmatrix pop translate scale
0 0 1 0 360 arc tMatrix setmatrix} bdef
/FO {MakeOval stroke} bdef
/PO {MakeOval fill} bdef
/PD {currentlinewidth 2 div 0 360 arc fill
   PDlw -1 eq not {PDlw w /PDlw -1 def} if} def
/FA {newpath tMatrix currentmatrix pop translate scale
  0 0 1 5 -2 roll arc tMatrix setmatrix stroke} bdef
/PA {newpath tMatrix currentmatrix pop	translate 0 0 moveto scale
  0 0 1 5 -2 roll arc closepath tMatrix setmatrix fill} bdef
/FAn {newpath tMatrix currentmatrix pop translate scale
  0 0 1 5 -2 roll arcn tMatrix setmatrix stroke} bdef
/PAn {newpath tMatrix currentmatrix pop translate 0 0 moveto scale
  0 0 1 5 -2 roll arcn closepath tMatrix setmatrix fill} bdef
/vradius 0 def /hradius 0 def /lry 0 def
/lrx 0 def /uly 0 def /ulx 0 def /rad 0 def
/MRR {/vradius xdef /hradius xdef /lry xdef /lrx xdef /uly xdef
  /ulx xdef newpath tMatrix currentmatrix pop ulx hradius add uly
  vradius add translate hradius vradius scale 0 0 1 180 270 arc 
  tMatrix setmatrix lrx hradius sub uly vradius add translate
  hradius vradius scale 0 0 1 270 360 arc tMatrix setmatrix
  lrx hradius sub lry vradius sub translate hradius vradius scale
  0 0 1 0 90 arc tMatrix setmatrix ulx hradius add lry vradius sub
  translate hradius vradius scale 0 0 1 90 180 arc tMatrix setmatrix
  closepath} bdef
/FRR {MRR stroke } bdef
/PRR {MRR fill } bdef
/MlrRR {/lry xdef /lrx xdef /uly xdef /ulx xdef /rad lry uly sub 2 div def
  newpath tMatrix currentmatrix pop ulx rad add uly rad add translate
  rad rad scale 0 0 1 90 270 arc tMatrix setmatrix lrx rad sub lry rad
  sub translate rad rad scale 0 0 1 270 90 arc tMatrix setmatrix
  closepath} bdef
/FlrRR {MlrRR stroke } bdef
/PlrRR {MlrRR fill } bdef
/MtbRR {/lry xdef /lrx xdef /uly xdef /ulx xdef /rad lrx ulx sub 2 div def
  newpath tMatrix currentmatrix pop ulx rad add uly rad add translate
  rad rad scale 0 0 1 180 360 arc tMatrix setmatrix lrx rad sub lry rad
  sub translate rad rad scale 0 0 1 0 180 arc tMatrix setmatrix
  closepath} bdef
/FtbRR {MtbRR stroke } bdef
/PtbRR {MtbRR fill } bdef
/stri 6 array def /dtri 6 array def
/smat 6 array def /dmat 6 array def
/tmat1 6 array def /tmat2 6 array def /dif 3 array def
/asub {/ind2 exch def /ind1 exch def dup dup
  ind1 get exch ind2 get sub exch } bdef
/tri_to_matrix {
  2 0 asub 3 1 asub 4 0 asub 5 1 asub
  dup 0 get exch 1 get 7 -1 roll astore } bdef
/compute_transform {
  dmat dtri tri_to_matrix tmat1 invertmatrix 
  smat stri tri_to_matrix tmat2 concatmatrix } bdef
/ds {stri astore pop} bdef
/dt {dtri astore pop} bdef
/db {2 copy /cols xdef /rows xdef mul dup 3 mul string
  currentfile 
  3 index 0 eq {/ASCIIHexDecode filter}
  {/ASCII85Decode filter 3 index 2 eq {/RunLengthDecode filter} if }
  ifelse exch readstring pop
  dup 0 3 index getinterval /rbmap xdef
  dup 2 index dup getinterval /gbmap xdef
  1 index dup 2 mul exch getinterval /bbmap xdef pop pop}bdef
/it {gs np dtri aload pop moveto lineto lineto cp c
  cols rows 8 compute_transform 
  rbmap gbmap bbmap true 3 colorimage gr}bdef
/il {newpath moveto lineto stroke}bdef
currentdict end def
%%EndProlog

%%BeginSetup
MathWorks begin

0 cap

end
%%EndSetup

%%Page: 1 1
%%BeginPageSetup
%%PageBoundingBox:  -214   186   810   655
MathWorks begin
bpage
%%EndPageSetup

%%BeginObject: obj1
bplot

/dpi2point 12 def
portraitMode -2568 7860 csm

    0     0 12289  5628 rc
86 dict begin %Colortable dictionary
/c0 { 0.000000 0.000000 0.000000 sr} bdef
/c1 { 1.000000 1.000000 1.000000 sr} bdef
/c2 { 0.900000 0.000000 0.000000 sr} bdef
/c3 { 0.000000 0.820000 0.000000 sr} bdef
/c4 { 0.000000 0.000000 0.800000 sr} bdef
/c5 { 0.910000 0.820000 0.320000 sr} bdef
/c6 { 1.000000 0.260000 0.820000 sr} bdef
/c7 { 0.000000 0.820000 0.820000 sr} bdef
c0
1 j
1 sg
   0    0 12290 5629 rf
6 w
0 4398 9524 0 0 -4398 1598 4958 4 MP
PP
-9524 0 0 4398 9524 0 0 -4398 1598 4958 5 MP stroke
4 w
DO
0 sg
1598 4958 mt 1598  560 L
1598  560 mt 1598  560 L
2391 4958 mt 2391  560 L
2391  560 mt 2391  560 L
3185 4958 mt 3185  560 L
3185  560 mt 3185  560 L
3979 4958 mt 3979  560 L
3979  560 mt 3979  560 L
4772 4958 mt 4772  560 L
4772  560 mt 4772  560 L
5566 4958 mt 5566  560 L
5566  560 mt 5566  560 L
6360 4958 mt 6360  560 L
6360  560 mt 6360  560 L
7153 4958 mt 7153  560 L
7153  560 mt 7153  560 L
7947 4958 mt 7947  560 L
7947  560 mt 7947  560 L
8741 4958 mt 8741  560 L
8741  560 mt 8741  560 L
9534 4958 mt 9534  560 L
9534  560 mt 9534  560 L
10328 4958 mt 10328  560 L
10328  560 mt 10328  560 L
11122 4958 mt 11122  560 L
11122  560 mt 11122  560 L
1598 4958 mt 11122 4958 L
11122 4958 mt 11122 4958 L
1598 4078 mt 11122 4078 L
11122 4078 mt 11122 4078 L
1598 3198 mt 11122 3198 L
11122 3198 mt 11122 3198 L
1598 2319 mt 11122 2319 L
11122 2319 mt 11122 2319 L
1598 1439 mt 11122 1439 L
11122 1439 mt 11122 1439 L
1598  560 mt 11122  560 L
11122  560 mt 11122  560 L
SO
6 w
1598 4958 mt 11122 4958 L
1598  560 mt 11122  560 L
1598 4958 mt 1598  560 L
11122 4958 mt 11122  560 L
1598 4958 mt 11122 4958 L
1598 4958 mt 1598  560 L
1598 4958 mt 1598 4862 L
1598  560 mt 1598  655 L
%%IncludeResource: font Times-Roman
/Times-Roman /ISOLatin1Encoding 288 FMSR

1292 5250 mt 
(-10) s
2391 4958 mt 2391 4862 L
2391  560 mt 2391  655 L
2157 5250 mt 
(-5) s
3185 4958 mt 3185 4862 L
3185  560 mt 3185  655 L
3113 5250 mt 
(0) s
3979 4958 mt 3979 4862 L
3979  560 mt 3979  655 L
3907 5250 mt 
(5) s
4772 4958 mt 4772 4862 L
4772  560 mt 4772  655 L
4628 5250 mt 
(10) s
5566 4958 mt 5566 4862 L
5566  560 mt 5566  655 L
5422 5250 mt 
(15) s
6360 4958 mt 6360 4862 L
6360  560 mt 6360  655 L
6216 5250 mt 
(20) s
7153 4958 mt 7153 4862 L
7153  560 mt 7153  655 L
7009 5250 mt 
(25) s
7947 4958 mt 7947 4862 L
7947  560 mt 7947  655 L
7803 5250 mt 
(30) s
8741 4958 mt 8741 4862 L
8741  560 mt 8741  655 L
8597 5250 mt 
(35) s
9534 4958 mt 9534 4862 L
9534  560 mt 9534  655 L
9390 5250 mt 
(40) s
10328 4958 mt 10328 4862 L
10328  560 mt 10328  655 L
10184 5250 mt 
(45) s
11122 4958 mt 11122 4862 L
11122  560 mt 11122  655 L
10978 5250 mt 
(50) s
1598 4958 mt 1693 4958 L
11122 4958 mt 11026 4958 L
 771 5061 mt 
(32.766) s
1598 4078 mt 1693 4078 L
11122 4078 mt 11026 4078 L
 555 4181 mt 
(32.766,5) s
1598 3198 mt 1693 3198 L
11122 3198 mt 11026 3198 L
 771 3301 mt 
(32.767) s
1598 2319 mt 1693 2319 L
11122 2319 mt 11026 2319 L
 555 2422 mt 
(32.767,5) s
1598 1439 mt 1693 1439 L
11122 1439 mt 11026 1439 L
 771 1542 mt 
(32.768) s
1598  560 mt 1693  560 L
11122  560 mt 11026  560 L
 555  663 mt 
(32.768,5) s
1598 4958 mt 11122 4958 L
1598  560 mt 11122  560 L
1598 4958 mt 1598  560 L
11122 4958 mt 11122  560 L
gs 1598 560 9525 4399 rc
72 w
/c8 { 0.000000 1.000000 0.000000 sr} bdef
c8
159 96 159 92 159 88 158 85 159 80 159 76 159 73 158 68 
159 65 159 61 159 57 158 53 159 49 159 45 158 41 159 37 
159 33 159 30 158 25 159 22 159 18 159 13 158 10 159 6 
159 2 159 -2 158 -6 159 -10 159 -13 158 -18 159 -22 159 -25 
159 -30 158 -33 159 -37 159 -41 159 -45 158 -49 159 -53 159 -57 
159 -61 158 -65 159 -68 159 -73 158 -76 159 -80 159 -85 159 -88 
158 -92 159 -96 159 -100 159 -104 158 -108 159 -111 159 -116 2391 3203 56 MP stroke
gr

72 w
c8
  36   36 2391 3203 FO
  36   36 2550 3087 FO
  36   36 2709 2976 FO
  36   36 2867 2868 FO
  36   36 3026 2764 FO
  36   36 3185 2664 FO
  36   36 3344 2568 FO
  36   36 3502 2476 FO
  36   36 3661 2388 FO
  36   36 3820 2303 FO
  36   36 3979 2223 FO
  36   36 4137 2147 FO
  36   36 4296 2074 FO
  36   36 4455 2006 FO
  36   36 4613 1941 FO
  36   36 4772 1880 FO
  36   36 4931 1823 FO
  36   36 5090 1770 FO
  36   36 5248 1721 FO
  36   36 5407 1676 FO
  36   36 5566 1635 FO
  36   36 5725 1598 FO
  36   36 5883 1565 FO
  36   36 6042 1535 FO
  36   36 6201 1510 FO
  36   36 6360 1488 FO
  36   36 6518 1470 FO
  36   36 6677 1457 FO
  36   36 6836 1447 FO
  36   36 6994 1441 FO
  36   36 7153 1439 FO
  36   36 7312 1441 FO
  36   36 7471 1447 FO
  36   36 7629 1457 FO
  36   36 7788 1470 FO
  36   36 7947 1488 FO
  36   36 8106 1510 FO
  36   36 8264 1535 FO
  36   36 8423 1565 FO
  36   36 8582 1598 FO
  36   36 8741 1635 FO
  36   36 8899 1676 FO
  36   36 9058 1721 FO
  36   36 9217 1770 FO
  36   36 9375 1823 FO
  36   36 9534 1880 FO
  36   36 9693 1941 FO
  36   36 9852 2006 FO
  36   36 10010 2074 FO
  36   36 10169 2147 FO
  36   36 10328 2223 FO
  36   36 10487 2303 FO
  36   36 10645 2388 FO
  36   36 10804 2476 FO
  36   36 10963 2568 FO
  36   36 11122 2664 FO
gs 1598 560 9525 4399 rc
48 w
/c9 { 0.000000 0.000000 1.000000 sr} bdef
c9
159 79 159 76 159 73 158 69 159 66 159 63 159 60 158 56 
159 54 159 50 159 47 158 43 159 40 159 38 158 33 159 31 
159 28 159 24 158 21 159 18 159 14 159 11 158 8 159 5 
159 2 159 -2 158 -5 159 -8 159 -11 158 -14 159 -18 159 -21 
159 -24 158 -28 159 -31 159 -33 159 -38 158 -40 159 -43 159 -47 
159 -50 158 -54 159 -56 159 -60 158 -63 159 -66 159 -69 159 -73 
158 -76 159 -79 159 -82 159 -86 158 -89 159 -92 159 -95 2391 2892 56 MP stroke
gr

48 w
c9
2366 2867 mt 2416 2917 L
2416 2867 mt 2366 2917 L
2525 2772 mt 2575 2822 L
2575 2772 mt 2525 2822 L
2684 2680 mt 2734 2730 L
2734 2680 mt 2684 2730 L
2842 2591 mt 2892 2641 L
2892 2591 mt 2842 2641 L
3001 2505 mt 3051 2555 L
3051 2505 mt 3001 2555 L
3160 2423 mt 3210 2473 L
3210 2423 mt 3160 2473 L
3319 2344 mt 3369 2394 L
3369 2344 mt 3319 2394 L
3477 2268 mt 3527 2318 L
3527 2268 mt 3477 2318 L
3636 2195 mt 3686 2245 L
3686 2195 mt 3636 2245 L
3795 2126 mt 3845 2176 L
3845 2126 mt 3795 2176 L
3954 2060 mt 4004 2110 L
4004 2060 mt 3954 2110 L
4112 1997 mt 4162 2047 L
4162 1997 mt 4112 2047 L
4271 1937 mt 4321 1987 L
4321 1937 mt 4271 1987 L
4430 1881 mt 4480 1931 L
4480 1881 mt 4430 1931 L
4588 1827 mt 4638 1877 L
4638 1827 mt 4588 1877 L
4747 1777 mt 4797 1827 L
4797 1777 mt 4747 1827 L
4906 1730 mt 4956 1780 L
4956 1730 mt 4906 1780 L
5065 1687 mt 5115 1737 L
5115 1687 mt 5065 1737 L
5223 1647 mt 5273 1697 L
5273 1647 mt 5223 1697 L
5382 1609 mt 5432 1659 L
5432 1609 mt 5382 1659 L
5541 1576 mt 5591 1626 L
5591 1576 mt 5541 1626 L
5700 1545 mt 5750 1595 L
5750 1545 mt 5700 1595 L
5858 1517 mt 5908 1567 L
5908 1517 mt 5858 1567 L
6017 1493 mt 6067 1543 L
6067 1493 mt 6017 1543 L
6176 1472 mt 6226 1522 L
6226 1472 mt 6176 1522 L
6335 1454 mt 6385 1504 L
6385 1454 mt 6335 1504 L
6493 1440 mt 6543 1490 L
6543 1440 mt 6493 1490 L
6652 1429 mt 6702 1479 L
6702 1429 mt 6652 1479 L
6811 1421 mt 6861 1471 L
6861 1421 mt 6811 1471 L
6969 1416 mt 7019 1466 L
7019 1416 mt 6969 1466 L
7128 1414 mt 7178 1464 L
7178 1414 mt 7128 1464 L
7287 1416 mt 7337 1466 L
7337 1416 mt 7287 1466 L
7446 1421 mt 7496 1471 L
7496 1421 mt 7446 1471 L
7604 1429 mt 7654 1479 L
7654 1429 mt 7604 1479 L
7763 1440 mt 7813 1490 L
7813 1440 mt 7763 1490 L
7922 1454 mt 7972 1504 L
7972 1454 mt 7922 1504 L
8081 1472 mt 8131 1522 L
8131 1472 mt 8081 1522 L
8239 1493 mt 8289 1543 L
8289 1493 mt 8239 1543 L
8398 1517 mt 8448 1567 L
8448 1517 mt 8398 1567 L
8557 1545 mt 8607 1595 L
8607 1545 mt 8557 1595 L
8716 1576 mt 8766 1626 L
8766 1576 mt 8716 1626 L
8874 1609 mt 8924 1659 L
8924 1609 mt 8874 1659 L
9033 1647 mt 9083 1697 L
9083 1647 mt 9033 1697 L
9192 1687 mt 9242 1737 L
9242 1687 mt 9192 1737 L
9350 1730 mt 9400 1780 L
9400 1730 mt 9350 1780 L
9509 1777 mt 9559 1827 L
9559 1777 mt 9509 1827 L
9668 1827 mt 9718 1877 L
9718 1827 mt 9668 1877 L
9827 1881 mt 9877 1931 L
9877 1881 mt 9827 1931 L
9985 1937 mt 10035 1987 L
10035 1937 mt 9985 1987 L
10144 1997 mt 10194 2047 L
10194 1997 mt 10144 2047 L
10303 2060 mt 10353 2110 L
10353 2060 mt 10303 2110 L
10462 2126 mt 10512 2176 L
10512 2126 mt 10462 2176 L
10620 2195 mt 10670 2245 L
10670 2195 mt 10620 2245 L
10779 2268 mt 10829 2318 L
10829 2268 mt 10779 2318 L
10938 2344 mt 10988 2394 L
10988 2344 mt 10938 2394 L
11097 2423 mt 11147 2473 L
11147 2423 mt 11097 2473 L
gs 1598 560 9525 4399 rc
/c10 { 1.000000 0.000000 0.000000 sr} bdef
c10
159 113 159 108 159 104 158 99 159 95 159 89 159 86 158 81 
159 76 159 71 159 67 158 62 159 58 159 53 158 48 159 44 
159 39 159 35 158 30 159 25 159 21 159 16 158 12 159 7 
159 2 159 -2 158 -7 159 -12 159 -16 158 -21 159 -25 159 -30 
159 -35 158 -39 159 -44 159 -48 159 -53 158 -58 159 -62 159 -67 
159 -71 158 -76 159 -81 159 -86 158 -89 159 -95 159 -99 159 -104 
158 -108 159 -113 159 -118 159 -122 158 -127 159 -131 159 -136 2391 3514 56 MP stroke
gr

c10
0 j
0 -58 -58 0 0 58 58 0 2362 3485 5 MP
DP
0 -58 -58 0 0 58 58 0 2521 3349 5 MP
DP
0 -58 -58 0 0 58 58 0 2680 3218 5 MP
DP
0 -58 -58 0 0 58 58 0 2838 3091 5 MP
DP
0 -58 -58 0 0 58 58 0 2997 2969 5 MP
DP
0 -58 -58 0 0 58 58 0 3156 2851 5 MP
DP
0 -58 -58 0 0 58 58 0 3315 2738 5 MP
DP
0 -58 -58 0 0 58 58 0 3473 2630 5 MP
DP
0 -58 -58 0 0 58 58 0 3632 2526 5 MP
DP
0 -58 -58 0 0 58 58 0 3791 2427 5 MP
DP
0 -58 -58 0 0 58 58 0 3950 2332 5 MP
DP
0 -58 -58 0 0 58 58 0 4108 2243 5 MP
DP
0 -58 -58 0 0 58 58 0 4267 2157 5 MP
DP
0 -58 -58 0 0 58 58 0 4426 2076 5 MP
DP
0 -58 -58 0 0 58 58 0 4584 2000 5 MP
DP
0 -58 -58 0 0 58 58 0 4743 1929 5 MP
DP
0 -58 -58 0 0 58 58 0 4902 1862 5 MP
DP
0 -58 -58 0 0 58 58 0 5061 1800 5 MP
DP
0 -58 -58 0 0 58 58 0 5219 1742 5 MP
DP
0 -58 -58 0 0 58 58 0 5378 1689 5 MP
DP
0 -58 -58 0 0 58 58 0 5537 1641 5 MP
DP
0 -58 -58 0 0 58 58 0 5696 1597 5 MP
DP
0 -58 -58 0 0 58 58 0 5854 1558 5 MP
DP
0 -58 -58 0 0 58 58 0 6013 1523 5 MP
DP
0 -58 -58 0 0 58 58 0 6172 1493 5 MP
DP
0 -58 -58 0 0 58 58 0 6331 1468 5 MP
DP
0 -58 -58 0 0 58 58 0 6489 1447 5 MP
DP
0 -58 -58 0 0 58 58 0 6648 1431 5 MP
DP
0 -58 -58 0 0 58 58 0 6807 1419 5 MP
DP
0 -58 -58 0 0 58 58 0 6965 1412 5 MP
DP
0 -58 -58 0 0 58 58 0 7124 1410 5 MP
DP
0 -58 -58 0 0 58 58 0 7283 1412 5 MP
DP
0 -58 -58 0 0 58 58 0 7442 1419 5 MP
DP
0 -58 -58 0 0 58 58 0 7600 1431 5 MP
DP
0 -58 -58 0 0 58 58 0 7759 1447 5 MP
DP
0 -58 -58 0 0 58 58 0 7918 1468 5 MP
DP
0 -58 -58 0 0 58 58 0 8077 1493 5 MP
DP
0 -58 -58 0 0 58 58 0 8235 1523 5 MP
DP
0 -58 -58 0 0 58 58 0 8394 1558 5 MP
DP
0 -58 -58 0 0 58 58 0 8553 1597 5 MP
DP
0 -58 -58 0 0 58 58 0 8712 1641 5 MP
DP
0 -58 -58 0 0 58 58 0 8870 1689 5 MP
DP
0 -58 -58 0 0 58 58 0 9029 1742 5 MP
DP
0 -58 -58 0 0 58 58 0 9188 1800 5 MP
DP
0 -58 -58 0 0 58 58 0 9346 1862 5 MP
DP
0 -58 -58 0 0 58 58 0 9505 1929 5 MP
DP
0 -58 -58 0 0 58 58 0 9664 2000 5 MP
DP
0 -58 -58 0 0 58 58 0 9823 2076 5 MP
DP
0 -58 -58 0 0 58 58 0 9981 2157 5 MP
DP
0 -58 -58 0 0 58 58 0 10140 2243 5 MP
DP
0 -58 -58 0 0 58 58 0 10299 2332 5 MP
DP
0 -58 -58 0 0 58 58 0 10458 2427 5 MP
DP
0 -58 -58 0 0 58 58 0 10616 2526 5 MP
DP
0 -58 -58 0 0 58 58 0 10775 2630 5 MP
DP
0 -58 -58 0 0 58 58 0 10934 2738 5 MP
DP
0 -58 -58 0 0 58 58 0 11093 2851 5 MP
DP
gs 1598 560 9525 4399 rc
gr

0 sg
%%IncludeResource: font Times-Roman
/Times-Roman /ISOLatin1Encoding 360 FMSR

5111 5548 mt 
(Temperatura \(\272C\)) s
 363 3363 mt  -90 rotate
(Frec. \(Hz\)) s
90 rotate
4674  323 mt 
(Frecuencias CMR200T) s
%%IncludeResource: font Helvetica
/Helvetica /ISOLatin1Encoding 120 FMSR

1514 5210 mt 
( ) s
11039  811 mt 
( ) s
6 w
1 sg
0 1270 3254 0 0 -1270 7835 4682 4 MP
PP
-3254 0 0 1270 3254 0 0 -1270 7835 4682 5 MP stroke
4 w
DO
SO
6 w
0 sg
7835 4682 mt 11089 4682 L
7835 3412 mt 11089 3412 L
7835 4682 mt 7835 3412 L
11089 4682 mt 11089 3412 L
7835 4682 mt 11089 4682 L
7835 4682 mt 7835 3412 L
7835 4682 mt 11089 4682 L
7835 3412 mt 11089 3412 L
7835 4682 mt 7835 3412 L
11089 4682 mt 11089 3412 L
%%IncludeResource: font Times-Roman
/Times-Roman /ISOLatin1Encoding 288 FMSR

8324 3736 mt 
( \32beta = 0.034) s
gs 7835 3412 3255 1271 rc
72 w
c8
376 0 7910 3637 2 MP stroke
gs 7952 3491 293 293 rc
  36   36 8098 3637 FO
gr

gr

72 w
c8
0 sg
8324 4146 mt 
(\32 beta = 0.034 + 0.006) s
gs 7835 3412 3255 1271 rc
48 w
c9
376 0 7910 4047 2 MP stroke
gs 7976 3925 245 245 rc
8073 4022 mt 8123 4072 L
8123 4022 mt 8073 4072 L
gr

gr

48 w
c9
0 sg
8324 4555 mt 
(\32 beta = 0.034 - 0.006) s
gs 7835 3412 3255 1271 rc
c10
376 0 7910 4456 2 MP stroke
gs 7976 4334 245 245 rc
0 -58 -58 0 0 58 58 0 8069 4427 5 MP
DP
gr

6 w
gr

6 w
c10

end %%Color Dict

eplot
%%EndObject

epage
end

showpage

%%Trailer
%%EOF
