\relax 
\providecommand\hyper@newdestlabel[2]{}
\catcode `"\active 
\catcode `<\active 
\catcode `>\active 
\@nameuse{es@quoting}
\AC@reset@newl@bel
\providecommand\HyperFirstAtBeginDocument{\AtBeginDocument}
\HyperFirstAtBeginDocument{\ifx\hyper@anchor\@undefined
\global\let\oldcontentsline\contentsline
\gdef\contentsline#1#2#3#4{\oldcontentsline{#1}{#2}{#3}}
\global\let\oldnewlabel\newlabel
\gdef\newlabel#1#2{\newlabelxx{#1}#2}
\gdef\newlabelxx#1#2#3#4#5#6{\oldnewlabel{#1}{{#2}{#3}}}
\AtEndDocument{\ifx\hyper@anchor\@undefined
\let\contentsline\oldcontentsline
\let\newlabel\oldnewlabel
\fi}
\fi}
\global\let\hyper@last\relax 
\gdef\HyperFirstAtBeginDocument#1{#1}
\providecommand\HyField@AuxAddToFields[1]{}
\providecommand\HyField@AuxAddToCoFields[2]{}
\select@language{english}
\@writefile{toc}{\select@language{english}}
\@writefile{lof}{\select@language{english}}
\@writefile{lot}{\select@language{english}}
\select@language{english}
\@writefile{toc}{\select@language{english}}
\@writefile{lof}{\select@language{english}}
\@writefile{lot}{\select@language{english}}
\providecommand\mph@setcol[2]{}
\@writefile{toc}{\vspace {-\cftbeforepartskip }}
\@writefile{lof}{\deactivateaddvspace  }
\@writefile{lot}{\deactivateaddvspace  }
\select@language{spanish}
\@writefile{toc}{\select@language{spanish}}
\@writefile{lof}{\select@language{spanish}}
\@writefile{lot}{\select@language{spanish}}
\mph@setcol{ii:i}{\mph@nr}
\@input{FrontBackmatter/SignedTitlepage.aux}
\@input{FrontBackmatter/Titleback.aux}
\@input{FrontBackmatter/Vistobueno.aux}
\mph@setcol{ii:vi}{\mph@nr}
\@input{FrontBackmatter/Dedication.aux}
\mph@setcol{ii:viii}{\mph@nr}
\@input{FrontBackmatter/Acknowledgments1.aux}
\mph@setcol{ii:x}{\mph@nr}
\@input{FrontBackmatter/Contents.aux}
\@writefile{toc}{\contentsline {part}{i\hspace  {1em}\spacedlowsmallcaps  {Introducci\'on}}{1}{part.1}}
\mph@setcol{ii:1}{\mph@nr}
\mph@setcol{ii:2}{\mph@nr}
\@input{Chapters/1Introduccion.aux}
\newlabel{part:introduccion}{{i}{3}{Visto Bueno}{part.1}{}}
\mph@setcol{ii:6}{\mph@nr}
\@input{Chapters/2DefinicionProblema.aux}
\@input{Chapters/3Objetivos1.aux}
\mph@setcol{ii:16}{\mph@nr}
\@input{Chapters/4Antecedentes1.aux}
\mph@setcol{ii:36}{\mph@nr}
\@input{Chapters/5Restricciones.aux}
\@input{Chapters/6Recursos.aux}
\@writefile{toc}{\contentsline {part}{ii\hspace  {1em}\spacedlowsmallcaps  {An\'alisis del Sistema}}{47}{part.2}}
\mph@setcol{ii:47}{\mph@nr}
\mph@setcol{ii:48}{\mph@nr}
\@input{Chapters/7Especificacion.aux}
\newlabel{part:analisis}{{ii}{49}{Recursos Software}{part.2}{}}
\@input{Chapters/8AnalisisFuncional.aux}
\@writefile{toc}{\contentsline {part}{iii\hspace  {1em}\spacedlowsmallcaps  {Dise\~no de la Interfaz}}{67}{part.3}}
\mph@setcol{ii:67}{\mph@nr}
\mph@setcol{ii:68}{\mph@nr}
\@input{Chapters/9Disenio.aux}
\newlabel{part:disenio}{{iii}{69}{Diagrama de Secuencia 7: Modificar red}{part.3}{}}
\mph@setcol{ii:84}{\mph@nr}
\@input{Chapters/10DisenioInterfaz.aux}
\mph@setcol{ii:96}{\mph@nr}
\@writefile{toc}{\contentsline {part}{iv\hspace  {1em}\spacedlowsmallcaps  {Desarrollo de Pruebas}}{97}{part.4}}
\mph@setcol{ii:97}{\mph@nr}
\mph@setcol{ii:98}{\mph@nr}
\@input{Chapters/11PruebasUnidad.aux}
\newlabel{part:pruebas}{{iv}{99}{Exportar a formato .CSV}{part.4}{}}
\mph@setcol{ii:110}{\mph@nr}
\@input{Chapters/12Resultados.aux}
\@writefile{toc}{\contentsline {part}{v\hspace  {1em}\spacedlowsmallcaps  {Conclusiones y Futuras Mejoras}}{181}{part.5}}
\mph@setcol{ii:181}{\mph@nr}
\mph@setcol{ii:182}{\mph@nr}
\@input{Chapters/13Conclusiones1.aux}
\newlabel{part:conclusiones}{{v}{183}{Comparación de la Tercera Configuración}{part.5}{}}
\@writefile{toc}{\contentsline {part}{vi\hspace  {1em}\spacedlowsmallcaps  {Anexos}}{189}{part.6}}
\mph@setcol{ii:189}{\mph@nr}
\mph@setcol{ii:190}{\mph@nr}
\@input{Chapters/AnexoB1.aux}
\newlabel{part:anexos}{{vi}{191}{Futuras Mejoras}{part.6}{}}
\mph@setcol{ii:198}{\mph@nr}
\@input{Chapters/AnexoC1.aux}
\@writefile{toc}{\contentsline {part}{vii\hspace  {1em}\spacedlowsmallcaps  {Bibliograf\IeC {\'\i }a}}{205}{part.7}}
\mph@setcol{ii:205}{\mph@nr}
\mph@setcol{ii:206}{\mph@nr}
\@input{FrontBackmatter/Bibliography.aux}
\providecommand\NAT@force@numbers{}\NAT@force@numbers
\global\mtcsecondpartfalse
\mph@setcol{ii:211}{\mph@nr}
\gdef\mph@lastpage{212}
\csname mph@do@warn\endcsname
