\select@language {english}
\select@language {english}
\deactivateaddvspace 
\select@language {spanish}
\addvspace {10\p@ }
\contentsline {xchapter}{\spacedlowsmallcaps {Introducci\'on}}{3}{chapter.1}
\addvspace {10\p@ }
\contentsline {xchapter}{\spacedlowsmallcaps {Definici\'on del Problema}}{7}{chapter.2}
\addvspace {10\p@ }
\contentsline {xchapter}{\spacedlowsmallcaps {Objetivos}}{13}{chapter.3}
\addvspace {10\p@ }
\contentsline {xchapter}{\spacedlowsmallcaps {Antecedentes}}{17}{chapter.4}
\addvspace {10\p@ }
\contentsline {xchapter}{\spacedlowsmallcaps {Restricciones}}{37}{chapter.5}
\addvspace {10\p@ }
\contentsline {xchapter}{\spacedlowsmallcaps {Recursos}}{43}{chapter.6}
\addvspace {10\p@ }
\contentsline {xchapter}{\spacedlowsmallcaps {Especificaci\'on de Requisitos}}{49}{chapter.7}
\contentsline {table}{\numberline {\relax 7.1}{\ignorespaces Modelo para Casos de Uso\relax }}{53}{table.7.1}
\contentsline {table}{\numberline {\relax 7.2}{\ignorespaces Caso de uso 1: Selecci\'on de protocolo de comunicaci\'on\relax }}{55}{table.7.2}
\contentsline {table}{\numberline {\relax 7.3}{\ignorespaces Caso de uso 2: Selecci\'on de puertos de entrada y salida\relax }}{55}{table.7.3}
\contentsline {table}{\numberline {\relax 7.4}{\ignorespaces Caso de uso 3: Conexi\'on del sistema\relax }}{56}{table.7.4}
\contentsline {table}{\numberline {\relax 7.5}{\ignorespaces Caso de uso 4: A\~nadir nueva red\relax }}{56}{table.7.5}
\contentsline {table}{\numberline {\relax 7.6}{\ignorespaces Caso de uso 5: Gestionar una red existente\relax }}{57}{table.7.6}
\contentsline {table}{\numberline {\relax 7.7}{\ignorespaces Caso de uso 6: Guardar gr\'afica como imagen\relax }}{57}{table.7.7}
\contentsline {table}{\numberline {\relax 7.8}{\ignorespaces Caso de uso 7: Exportar fichero CSV de estad\IeC {\'\i }sticas\relax }}{58}{table.7.8}
\addvspace {10\p@ }
\contentsline {xchapter}{\spacedlowsmallcaps {An\'alisis Funcional}}{59}{chapter.8}
\addvspace {10\p@ }
\contentsline {xchapter}{\spacedlowsmallcaps {Dise\~no Procedimental}}{69}{chapter.9}
\addvspace {10\p@ }
\contentsline {xchapter}{\spacedlowsmallcaps {Dise\~no de la Interfaz de Usuario}}{85}{chapter.10}
\addvspace {10\p@ }
\contentsline {xchapter}{\spacedlowsmallcaps {Pruebas del Sistema}}{99}{chapter.11}
\contentsline {table}{\numberline {\relax 11.1}{\ignorespaces Caso de prueba 1: Selecci\'on de protocolo de comunicaci\'on\relax }}{102}{table.11.1}
\contentsline {table}{\numberline {\relax 11.2}{\ignorespaces Caso de prueba 2: Selecci\'on de puertos de entrada y salida\relax }}{103}{table.11.2}
\contentsline {table}{\numberline {\relax 11.3}{\ignorespaces Caso de prueba 3: Conexi\'on del sistema\relax }}{103}{table.11.3}
\contentsline {table}{\numberline {\relax 11.4}{\ignorespaces Caso de prueba 4: A\~nadir nueva red\relax }}{104}{table.11.4}
\contentsline {table}{\numberline {\relax 11.5}{\ignorespaces Caso de prueba 5: Gestionar una red existente\relax }}{104}{table.11.5}
\contentsline {table}{\numberline {\relax 11.6}{\ignorespaces Caso de prueba 6: Guardar gr\'afica como imagen\relax }}{105}{table.11.6}
\contentsline {table}{\numberline {\relax 11.7}{\ignorespaces Caso de prueba 7: Exportar fichero CSV de estad\IeC {\'\i }sticas\relax }}{105}{table.11.7}
\addvspace {10\p@ }
\contentsline {xchapter}{\spacedlowsmallcaps {Resultados}}{111}{chapter.12}
\addvspace {10\p@ }
\contentsline {xchapter}{\spacedlowsmallcaps {Conclusiones}}{183}{chapter.13}
\addvspace {10\p@ }
\contentsline {xchapter}{\spacedlowsmallcaps {Anexo A}}{191}{chapter.14}
\addvspace {10\p@ }
\contentsline {xchapter}{\spacedlowsmallcaps {Anexo B}}{199}{chapter.15}
\select@language {english}
\select@language {english}
\select@language {english}
\select@language {english}
\select@language {english}
\select@language {english}
\select@language {english}
\select@language {english}
\select@language {english}
\select@language {english}
\select@language {english}
\select@language {english}
\select@language {english}
\select@language {english}
\select@language {english}
\select@language {english}
\select@language {english}
\select@language {english}
\select@language {english}
\select@language {english}
\select@language {english}
\select@language {spanish}
