\select@language {english}
\select@language {english}
\deactivateaddvspace 
\select@language {spanish}
\addvspace {10\p@ }
\contentsline {xchapter}{\spacedlowsmallcaps {Manual de C\'odigo}}{1}{chapter.1}
