Network Name,Received Packets,Sended Packets,Lost Received Packets,Lost Sended Packets,Percent of Total Received Packets,Percent of Total Sended Packets,Percent of Total Lost Received Packets,Percent of Total Lost Sended Packets
Network 0,75156,12927,24844,62229,"6,88","7,03","24,84","82,8"
Network 1,74670,12758,25330,61912,"6,83","6,94","25,33","82,91"
Network 2,74418,12696,25582,61722,"6,81","6,91","25,58","82,94"
Network 3,74164,12778,25836,61386,"6,79","6,95","25,84","82,77"
Network 4,73773,12624,26227,61149,"6,75","6,87","26,23","82,89"
Network 5,73449,12447,26551,61002,"6,72","6,77","26,55","83,05"
Network 6,73183,12397,26817,60786,"6,7","6,74","26,82","83,06"
Network 7,72850,12106,27150,60744,"6,67","6,58","27,15","83,38"
Network 8,72561,12098,27439,60463,"6,64","6,58","27,44","83,33"
Network 9,72269,12007,27731,60262,"6,61","6,53","27,73","83,39"
Network 10,71901,12019,28099,59882,"6,58","6,54","28,1","83,28"
Network 11,71569,11871,28431,59698,"6,55","6,46","28,43","83,41"
Network 12,71138,11753,28862,59385,"6,51","6,39","28,86","83,48"
Network 13,71108,11663,28892,59445,"6,51","6,34","28,89","83,6"
Network 14,70646,11716,29354,58930,"6,46","6,37","29,35","83,42"
Network Name,Received Packets,Sended Packets,Lost Received Packets,Lost Sended Packets,Percent of Total Received Packets,Percent of Total Sended Packets,Percent of Total Lost Received Packets,Percent of Total Lost Sended Packets
Network 0,1000,1000,0,0,"0,24","1,94",0,0
Network 1,999,999,1,0,"0,24","1,94","0,1",0
Network 2,1000,1000,0,0,"0,24","1,94",0,0
Network 3,999,999,1,0,"0,24","1,94","0,1",0
Network 4,999,999,1,0,"0,24","1,94","0,1",0
Network Name,Received Packets,Sended Packets,Lost Received Packets,Lost Sended Packets,Percent of Total Received Packets,Percent of Total Sended Packets,Percent of Total Lost Received Packets,Percent of Total Lost Sended Packets
Network 0,37849,6404,62151,31445,"6,9","7,04","62,15","83,08"
Network 1,37681,6364,62319,31317,"6,86","6,99","62,32","83,11"
Network 2,37310,6296,62690,31014,"6,8","6,92","62,69","83,13"
Network 3,37255,6284,62745,30971,"6,79","6,91","62,74","83,13"
Network 4,37069,6118,62931,30951,"6,75","6,72","62,93","83,5"
Network 5,36851,6152,63149,30699,"6,71","6,76","63,15","83,31"
Network 6,36786,6137,63214,30649,"6,7","6,75","63,21","83,32"
Network 7,36600,6223,63400,30377,"6,67","6,84","63,4",83
Network 8,36415,6048,63585,30367,"6,63","6,65","63,59","83,39"
Network 9,36304,5935,63696,30369,"6,61","6,52","63,7","83,65"
Network 10,36072,5868,63928,30204,"6,57","6,45","63,93","83,73"
Network 11,35953,5956,64047,29997,"6,55","6,55","64,05","83,43"
Network 12,35849,5751,64151,30098,"6,53","6,32","64,15","83,96"
Network 13,35563,5713,64437,29850,"6,48","6,28","64,44","83,94"
Network 14,35360,5731,64640,29629,"6,44","6,3","64,64","83,79"
Network Name,Received Packets,Sended Packets,Lost Received Packets,Lost Sended Packets,Percent of Total Received Packets,Percent of Total Sended Packets,Percent of Total Lost Received Packets,Percent of Total Lost Sended Packets
Network 0,1000,1000,0,0,"0,24","1,94",0,0
Network 1,999,999,1,0,"0,24","1,94","0,1",0
Network 2,1000,1000,0,0,"0,24","1,94",0,0
Network 3,999,999,1,0,"0,24","1,94","0,1",0
Network 4,999,999,1,0,"0,24","1,94","0,1",0
Network Name,Received Packets,Sended Packets,Lost Received Packets,Lost Sended Packets,Percent of Total Received Packets,Percent of Total Sended Packets,Percent of Total Lost Received Packets,Percent of Total Lost Sended Packets
Network 0,41127,4850,58873,36277,"6,75","6,83","58,87","88,21"
Network 1,41130,5013,58870,36117,"6,75","7,06","58,87","87,81"
Network 2,40846,4854,59154,35992,"6,71","6,84","59,15","88,12"
Network 3,41171,4915,58829,36256,"6,76","6,93","58,83","88,06"
Network 4,40967,4863,59033,36104,"6,73","6,85","59,03","88,13"
Network 5,41244,4864,58756,36380,"6,77","6,85","58,76","88,21"
Network 6,41211,4863,58789,36348,"6,77","6,85","58,79","88,2"
Network 7,40957,4813,59043,36144,"6,73","6,78","59,04","88,25"
Network 8,40815,4751,59185,36064,"6,7","6,69","59,19","88,36"
Network 9,40799,4653,59201,36146,"6,7","6,56","59,2","88,6"
Network 10,40281,4714,59719,35567,"6,61","6,64","59,72","88,3"
Network 11,39914,4519,60086,35395,"6,55","6,37","60,09","88,68"
Network 12,40038,4560,59962,35478,"6,57","6,43","59,96","88,61"
Network 13,39345,4444,60655,34901,"6,46","6,26","60,66","88,71"
Network 14,39099,4291,60901,34808,"6,42","6,05","60,9","89,03"
Network Name,Received Packets,Sended Packets,Lost Received Packets,Lost Sended Packets,Percent of Total Received Packets,Percent of Total Sended Packets,Percent of Total Lost Received Packets,Percent of Total Lost Sended Packets
Network 0,1000,1000,0,0,"0,24","1,94",0,0
Network 1,999,999,1,0,"0,24","1,94","0,1",0
Network 2,1000,1000,0,0,"0,24","1,94",0,0
Network 3,999,999,1,0,"0,24","1,94","0,1",0
Network 4,999,999,1,0,"0,24","1,94","0,1",0
Network Name,Received Packets,Sended Packets,Lost Received Packets,Lost Sended Packets,Percent of Total Received Packets,Percent of Total Sended Packets,Percent of Total Lost Received Packets,Percent of Total Lost Sended Packets
Network 0,86899,28327,13101,58572,"6,74","8,61","13,1","67,4"
Network 1,86782,27435,13218,59347,"6,73","8,33","13,22","68,39"
Network 2,86340,26495,13660,59845,"6,7","8,05","13,66","69,31"
Network 3,86060,25592,13940,60468,"6,68","7,77","13,94","70,26"
Network 4,85931,24666,14069,61265,"6,67","7,49","14,07","71,3"
Network 5,86070,23773,13930,62297,"6,68","7,22","13,93","72,38"
Network 6,85685,22861,14315,62824,"6,65","6,94","14,31","73,32"
Network 7,85823,21967,14177,63856,"6,66","6,67","14,18","74,4"
Network 8,85531,21055,14469,64476,"6,63","6,4","14,47","75,38"
Network 9,85900,20139,14100,65761,"6,66","6,12","14,1","76,56"
Network 10,85583,19214,14417,66369,"6,64","5,84","14,42","77,55"
Network 11,85629,18296,14371,67333,"6,64","5,56","14,37","78,63"
Network 12,85712,17383,14288,68329,"6,65","5,28","14,29","79,72"
Network 13,85660,16458,14340,69202,"6,64",5,"14,34","80,79"
Network 14,85631,15531,14369,70100,"6,64","4,72","14,37","81,86"
,1289236,,,,,,,
