\relax 
\providecommand\hyper@newdestlabel[2]{}
\@writefile{@@@}{\chapterbegin }
\@writefile{@@@}{\chapterbegin }
\mph@setcol{ii:ix}{\mph@nr}
\@setckpt{FrontBackmatter/Abstract}{
\setcounter{page}{10}
\setcounter{equation}{0}
\setcounter{enumi}{0}
\setcounter{enumii}{0}
\setcounter{enumiii}{0}
\setcounter{enumiv}{0}
\setcounter{footnote}{0}
\setcounter{mpfootnote}{0}
\setcounter{part}{0}
\setcounter{chapter}{0}
\setcounter{section}{0}
\setcounter{subsection}{0}
\setcounter{subsubsection}{0}
\setcounter{paragraph}{0}
\setcounter{subparagraph}{0}
\setcounter{figure}{0}
\setcounter{table}{0}
\setcounter{NAT@ctr}{0}
\setcounter{btxromaniannumeral}{0}
\setcounter{cp@cntr}{0}
\setcounter{SC@C}{0}
\setcounter{r@tfl@t}{0}
\setcounter{DefaultLines}{2}
\setcounter{L@lines}{0}
\setcounter{ContinuedFloat}{0}
\setcounter{mtc}{0}
\setcounter{minitocdepth}{2}
\setcounter{ptc}{0}
\setcounter{parttocdepth}{2}
\setcounter{parentequation}{0}
\setcounter{dummy}{2}
\setcounter{KVtest}{0}
\setcounter{subfigure}{0}
\setcounter{subfigure@save}{0}
\setcounter{lofdepth}{1}
\setcounter{subtable}{0}
\setcounter{subtable@save}{0}
\setcounter{lotdepth}{1}
\setcounter{lstnumber}{1}
\setcounter{Item}{0}
\setcounter{bookmark@seq@number}{4}
\setcounter{AM@survey}{0}
\setcounter{IncluyeCapitulo}{0}
\setcounter{minilofdepth}{2}
\setcounter{minilotdepth}{2}
\setcounter{partlofdepth}{2}
\setcounter{partlotdepth}{2}
\setcounter{sectlofdepth}{2}
\setcounter{sectlotdepth}{2}
\setcounter{lstlisting}{0}
\setcounter{section@level}{0}
}
