\relax 
\bibstyle{babplain-fl}
\bibdata{bibliografia}
\bibcite{tinyos_communication}{{1}{}{{}}{{}}}
\bibcite{protothreads_contiki}{{2}{}{{}}{{}}}
\bibcite{rpl}{{3}{}{{}}{{}}}
\bibcite{so_survey}{{4}{}{{}}{{}}}
\bibcite{ieee_802_15_url}{{5}{}{{}}{{}}}
\bibcite{boukerche_parameters_sync}{{6}{}{{}}{{}}}
\bibcite{agah_security_2006}{{7}{}{{}}{{}}}
\bibcite{time_sync_energy_PHD_ageev}{{8}{}{{}}{{}}}
\bibcite{zigbee_alliance}{{9}{}{{}}{{}}}
\bibcite{apicharttrisorn_EGTSP}{{10}{}{{}}{{}}}
\bibcite{berelson_communication}{{11}{}{{}}{{}}}
\bibcite{intanagonwiwat_directed_diffusion_2000}{{12}{}{{}}{{}}}
\bibcite{caprile_equisbi}{{13}{}{{}}{{}}}
\@writefile{toc}{\vspace {\beforebibskip }}
\@writefile{toc}{\contentsline {chapter}{\spacedlowsmallcaps  {Bibliograf\IeC {\'\i }a}}{85}{dummy.6}}
\newlabel{app:bibliography}{{6}{85}{\texorpdfstring {\spacedlowsmallcaps {Hardware en WSN}}{Hardware en WSN}\relax }{dummy.6}{}}
\@writefile{@@@}{\chapterbegin }
\select@language{english}
\@writefile{toc}{\select@language{english}}
\@writefile{lof}{\select@language{english}}
\@writefile{lot}{\select@language{english}}
\select@language{english}
\@writefile{toc}{\select@language{english}}
\@writefile{lof}{\select@language{english}}
\@writefile{lot}{\select@language{english}}
\mph@setcol{ii:85}{\mph@nr}
\bibcite{castillo_a2tftsp}{{14}{}{{}}{{}}}
\bibcite{laquila_wsn}{{15}{}{{}}{{}}}
\bibcite{chang_energy_conserving_2000}{{16}{}{{}}{{}}}
\bibcite{chilukuri_treefp}{{17}{}{{}}{{}}}
\bibcite{coleri_traffic}{{18}{}{{}}{{}}}
\bibcite{IHS_consulting_numberofdevicesinternet}{{19}{}{{}}{{}}}
\bibcite{cooprider_memory_tinyos}{{20}{}{{}}{{}}}
\bibcite{deng_security}{{21}{}{{}}{{}}}
\bibcite{building_monitoring}{{22}{}{{}}{{}}}
\bibcite{contiki}{{23}{}{{}}{{}}}
\bibcite{elson_RBS}{{24}{}{{}}{{}}}
\mph@setcol{ii:86}{\mph@nr}
\bibcite{estrin_connectingphysical_2002}{{25}{}{{}}{{}}}
\bibcite{nanork}{{26}{}{{}}{{}}}
\bibcite{survey_so}{{27}{}{{}}{{}}}
\bibcite{timestamp_PHY}{{28}{}{{}}{{}}}
\bibcite{franceschinis_traffic}{{29}{}{{}}{{}}}
\bibcite{ganeriwal_TPSN}{{30}{}{{}}{{}}}
\bibcite{ganesan_mobile_computing_2002}{{31}{}{{}}{{}}}
\bibcite{problem_solving_wsn_book}{{32}{}{{}}{{}}}
\bibcite{gay_nesc}{{33}{}{{}}{{}}}
\bibcite{goldsmith_energy_constrained_2002}{{34}{}{{}}{{}}}
\bibcite{berkeley_mote}{{35}{}{{}}{{}}}
\bibcite{howitt_2003}{{36}{}{{}}{{}}}
\mph@setcol{ii:87}{\mph@nr}
\bibcite{jovanov_wireless_telemetry_2000}{{37}{}{{}}{{}}}
\bibcite{jovanov_real-time_2008}{{38}{}{{}}{{}}}
\bibcite{jovanov_survey_2008}{{39}{}{{}}{{}}}
\bibcite{vehicle_safe_WSN}{{40}{}{{}}{{}}}
\bibcite{khalil_2007}{{41}{}{{}}{{}}}
\bibcite{kouba_tec_report_IEEE802.15.4}{{42}{}{{}}{{}}}
\bibcite{tinyos}{{43}{}{{}}{{}}}
\bibcite{licklider_mancomputer_symbiosis}{{44}{}{{}}{{}}}
\bibcite{lindsey_pegasis_2002}{{45}{}{{}}{{}}}
\bibcite{lipphardt_GRP_2007}{{46}{}{{}}{{}}}
\bibcite{martinez_qos_2007b}{{47}{}{{}}{{}}}
\mph@setcol{ii:88}{\mph@nr}
\bibcite{martinez_qos_2007a}{{48}{}{{}}{{}}}
\bibcite{martinez_qos_2008}{{49}{}{{}}{{}}}
\bibcite{maroti_FTSP}{{50}{}{{}}{{}}}
\bibcite{sadagopan_acquire_2003}{{51}{}{{}}{{}}}
\bibcite{pakzad_structural}{{52}{}{{}}{{}}}
\bibcite{perkins_2003}{{53}{}{{}}{{}}}
\bibcite{ping_delay}{{54}{}{{}}{{}}}
\bibcite{basic_loop_detection}{{55}{}{{}}{{}}}
\bibcite{qian_clapping_synchronization}{{56}{}{{}}{{}}}
\bibcite{rodriguez_museum}{{57}{}{{}}{{}}}
\bibcite{sazonov_structure}{{58}{}{{}}{{}}}
\bibcite{shi_tdma_2010}{{59}{}{{}}{{}}}
\mph@setcol{ii:89}{\mph@nr}
\bibcite{sichitiu_sync}{{60}{}{{}}{{}}}
\bibcite{sivrikaya_survey_2004}{{61}{}{{}}{{}}}
\bibcite{sommer_GCS}{{62}{}{{}}{{}}}
\bibcite{sugihara_sync}{{63}{}{{}}{{}}}
\bibcite{tanenbaum_computer_networks}{{64}{}{{}}{{}}}
\bibcite{Tanenbaum_networks}{{65}{}{{}}{{}}}
\bibcite{contikiRPL}{{66}{}{{}}{{}}}
\bibcite{darpa}{{67}{}{{}}{{}}}
\bibcite{vig_quartz}{{68}{}{{}}{{}}}
\bibcite{xu_structural}{{69}{}{{}}{{}}}
\bibcite{ye_energy_efficient_mac_2002}{{70}{}{{}}{{}}}
\bibcite{yoon_TS}{{71}{}{{}}{{}}}
\mph@setcol{ii:90}{\mph@nr}
\select@language{english}
\@writefile{toc}{\select@language{english}}
\@writefile{lof}{\select@language{english}}
\@writefile{lot}{\select@language{english}}
\select@language{spanish}
\@writefile{toc}{\select@language{spanish}}
\@writefile{lof}{\select@language{spanish}}
\@writefile{lot}{\select@language{spanish}}
\mph@setcol{ii:91}{\mph@nr}
\@setckpt{FrontBackmatter/Bibliography}{
\setcounter{page}{92}
\setcounter{equation}{0}
\setcounter{enumi}{3}
\setcounter{enumii}{0}
\setcounter{enumiii}{0}
\setcounter{enumiv}{0}
\setcounter{footnote}{0}
\setcounter{mpfootnote}{0}
\setcounter{part}{6}
\setcounter{chapter}{0}
\setcounter{section}{0}
\setcounter{subsection}{3}
\setcounter{subsubsection}{0}
\setcounter{paragraph}{0}
\setcounter{subparagraph}{0}
\setcounter{figure}{0}
\setcounter{table}{0}
\setcounter{NAT@ctr}{71}
\setcounter{cp@cntr}{0}
\setcounter{SC@C}{28}
\setcounter{r@tfl@t}{0}
\setcounter{DefaultLines}{2}
\setcounter{L@lines}{3}
\setcounter{ContinuedFloat}{0}
\setcounter{mtc}{5}
\setcounter{minitocdepth}{2}
\setcounter{ptc}{0}
\setcounter{parttocdepth}{2}
\setcounter{parentequation}{0}
\setcounter{dummy}{6}
\setcounter{KVtest}{0}
\setcounter{subfigure}{0}
\setcounter{subfigure@save}{0}
\setcounter{lofdepth}{1}
\setcounter{subtable}{0}
\setcounter{subtable@save}{0}
\setcounter{lotdepth}{1}
\setcounter{lstnumber}{1}
\setcounter{Item}{23}
\setcounter{bookmark@seq@number}{72}
\setcounter{IncluyeCapitulo}{0}
\setcounter{minilofdepth}{2}
\setcounter{minilotdepth}{2}
\setcounter{partlofdepth}{2}
\setcounter{partlotdepth}{2}
\setcounter{sectlofdepth}{2}
\setcounter{sectlotdepth}{2}
\setcounter{lstlisting}{0}
\setcounter{section@level}{0}
}
