This is BibTeX, Version 0.99c (TeX Live 2009)
The top-level auxiliary file: Bibliography.aux
The style file: babplain-fl.bst
I couldn't open database file bibliografia.bib
---line 3 of file Bibliography.aux
 : \bibdata{bibliografia
 :                      }
I'm skipping whatever remains of this command
I found no \citation commands---while reading file Bibliography.aux
I found no database files---while reading file Bibliography.aux
You've used 0 entries,
            2793 wiz_defined-function locations,
            632 strings with 5898 characters,
and the built_in function-call counts, 44 in all, are:
= -- 0
> -- 0
< -- 0
+ -- 0
- -- 0
* -- 2
:= -- 9
add.period$ -- 0
call.type$ -- 0
change.case$ -- 0
chr.to.int$ -- 0
cite$ -- 0
duplicate$ -- 0
empty$ -- 1
format.name$ -- 0
if$ -- 1
int.to.chr$ -- 0
int.to.str$ -- 0
missing$ -- 0
newline$ -- 15
num.names$ -- 0
pop$ -- 0
preamble$ -- 1
purify$ -- 0
quote$ -- 0
skip$ -- 1
stack$ -- 0
substring$ -- 0
swap$ -- 0
text.length$ -- 0
text.prefix$ -- 0
top$ -- 0
type$ -- 0
warning$ -- 0
while$ -- 0
width$ -- 0
write$ -- 14
(There were 3 error messages)
