\relax 
\@writefile{@@@}{\chapterbegin }
\mph@setcol{ii:vii}{\mph@nr}
\@writefile{@@@}{\chapterbegin }
\@writefile{@@@}{\chapterbegin }
\@writefile{@@@}{\chapterbegin }
\newacro{ADVS}[\AC@hyperlink{ADVS}{ADVS}]{Activities of Daily Vision Scale}
\newacro{CAO}[\AC@hyperlink{CAO}{CAO}]{Consejo Argentino de Oftalmolog\IeC {\'\i }a}
\newacro{CCD}[\AC@hyperlink{CCD}{CCD}]{Charge--Coupled Device}
\newacro{CCV--07--MUDES}[\AC@hyperlink{CCV--07--MUDES}{CCV--07--MUDES}]{Cuestionario de Calidad Visual--07 con capacidad residual Menor de Una D\'ecima en la Escala de Snellen}
\newacro{DGLIP--Conv}[\AC@hyperlink{DGLIP--Conv}{DGLIP--Conv}]{Direct General LIP--Convolution}
\newacro{FALV}[\AC@hyperlink{FALV}{FALV}]{Questionnaire for Functional Assessment of Low Vision}
\newacro{FGLIP--Conv}[\AC@hyperlink{FGLIP--Conv}{FGLIP--Conv}]{Fast General LIP--Convolution}
\newacro{GANIP}[\AC@hyperlink{GANIP}{GANIP}]{General Adaptive Neighborhood Image Processing}
\newacro{ICC}[\AC@hyperlink{ICC}{ICC}]{Intraclass Correlation Coefficient}
\newacro{LIP}[\AC@hyperlink{LIP}{LIP}]{Logarithmic Image Processing}
\newacro{LoG}[\AC@hyperlink{LoG}{LoG}]{Laplacian of Gaussian}
\newacro{LRIP}[\AC@hyperlink{LRIP}{LRIP}]{Log--ratio Image Processing}
\newacro{LVF}[\AC@hyperlink{LVF}{LVF}]{Lowe's Visual Function}
\newacro{MHIP}[\AC@hyperlink{MHIP}{MHIP}]{Multiplicative Homomorphic Image Processing}
\newacro{MOS}[\AC@hyperlink{MOS}{MOS}]{Mean Opinion Score}
\newacro{MSE}[\AC@hyperlink{MSE}{MSE}]{Mean Squared Error}
\newacro{NEI}[\AC@hyperlink{NEI}{NEI}]{National Eye Institute}
\newacro{NEI--VFQ}[\AC@hyperlink{NEI--VFQ}{NEI--VFQ}]{National Eye Institute's Visual Functioning Questionnaire}
\newacro{OMS}[\AC@hyperlink{OMS}{OMS}]{Organizaci\'on Mundial de la Salud}
\mph@setcol{ii:viii}{\mph@nr}
\newacro{ONCE}[\AC@hyperlink{ONCE}{ONCE}]{Organizaci\'on Nacional de Ciegos Espa\~noles}
\newacro{PCA}[\AC@hyperlink{PCA}{PCA}]{Principal Component Analysis}
\newacro{PIXEL}[\AC@hyperlink{PIXEL}{PIXEL}]{PI(X)cture ELement}
\newacro{PSNR}[\AC@hyperlink{PSNR}{PSNR}]{Peak Signal--to--Noise Ratio}
\newacro{RAE}[\AC@hyperlink{RAE}{RAE}]{Real Academia Espa\~nola de la lengua}
\newacro{Rand--FPVI}[\AC@hyperlink{Rand--FPVI}{Rand--FPVI}]{Rand Questionnaire to assess Functional Problems of the Visually Impaired}
\newacro{UIT}[\AC@hyperlink{UIT}{UIT}]{Uni\'on Internacional de Telecomunicaciones}
\newacro{UIT--T}[\AC@hyperlink{UIT--T}{UIT--T}]{Uni\'on Internacional de Telecomunicaciones, secci\'on normalizaci\'on de Telecomunicaciones}
\newacro{VAQ}[\AC@hyperlink{VAQ}{VAQ}]{Visual Activities Questionnaire}
\newacro{VCM1}[\AC@hyperlink{VCM1}{VCM1}]{Vision quality--of--life Core Measure 1}
\newacro{VFI}[\AC@hyperlink{VFI}{VFI}]{Visual Function Index}
\newacro{VF--PRP}[\AC@hyperlink{VF--PRP}{VF--PRP}]{Visual Function after Pan--Retinal Photocoagulation}
\newacro{VF--QOL}[\AC@hyperlink{VF--QOL}{VF--QOL}]{Visual Function--related Quality of Life}
\newacro{VF--14}[\AC@hyperlink{VF--14}{VF--14}]{Visual Functioning index with 14--item}
\newacro{VPQ}[\AC@hyperlink{VPQ}{VPQ}]{Visual Performance Questionnaire}
\newacro{VSI}[\AC@hyperlink{VSI}{VSI}]{Visual Status Inventory}
\mph@setcol{ii:ix}{\mph@nr}
\mph@setcol{ii:x}{\mph@nr}
\@setckpt{FrontBackmatter/Contents}{
\setcounter{page}{11}
\setcounter{equation}{0}
\setcounter{enumi}{0}
\setcounter{enumii}{0}
\setcounter{enumiii}{0}
\setcounter{enumiv}{0}
\setcounter{footnote}{0}
\setcounter{mpfootnote}{0}
\setcounter{part}{0}
\setcounter{chapter}{0}
\setcounter{section}{0}
\setcounter{subsection}{0}
\setcounter{subsubsection}{0}
\setcounter{paragraph}{0}
\setcounter{subparagraph}{0}
\setcounter{figure}{0}
\setcounter{table}{0}
\setcounter{NAT@ctr}{0}
\setcounter{cp@cntr}{0}
\setcounter{SC@C}{0}
\setcounter{r@tfl@t}{0}
\setcounter{DefaultLines}{2}
\setcounter{L@lines}{0}
\setcounter{ContinuedFloat}{0}
\setcounter{mtc}{0}
\setcounter{minitocdepth}{2}
\setcounter{ptc}{0}
\setcounter{parttocdepth}{2}
\setcounter{parentequation}{0}
\setcounter{dummy}{5}
\setcounter{KVtest}{0}
\setcounter{subfigure}{0}
\setcounter{subfigure@save}{0}
\setcounter{lofdepth}{1}
\setcounter{subtable}{0}
\setcounter{subtable@save}{0}
\setcounter{lotdepth}{1}
\setcounter{lstnumber}{1}
\setcounter{Item}{0}
\setcounter{bookmark@seq@number}{7}
\setcounter{IncluyeCapitulo}{3}
\setcounter{minilofdepth}{2}
\setcounter{minilotdepth}{2}
\setcounter{partlofdepth}{2}
\setcounter{partlotdepth}{2}
\setcounter{sectlofdepth}{2}
\setcounter{sectlotdepth}{2}
\setcounter{lstlisting}{0}
\setcounter{section@level}{0}
}
