\relax 
\@writefile{@@@}{\chapterbegin }
\mph@setcol{ii:93}{\mph@nr}
\@setckpt{FrontBackmatter/Declaration}{
\setcounter{page}{94}
\setcounter{equation}{0}
\setcounter{enumi}{3}
\setcounter{enumii}{0}
\setcounter{enumiii}{0}
\setcounter{enumiv}{0}
\setcounter{footnote}{0}
\setcounter{mpfootnote}{0}
\setcounter{part}{6}
\setcounter{chapter}{0}
\setcounter{section}{0}
\setcounter{subsection}{3}
\setcounter{subsubsection}{0}
\setcounter{paragraph}{0}
\setcounter{subparagraph}{0}
\setcounter{figure}{0}
\setcounter{table}{0}
\setcounter{NAT@ctr}{71}
\setcounter{cp@cntr}{0}
\setcounter{SC@C}{28}
\setcounter{r@tfl@t}{0}
\setcounter{DefaultLines}{2}
\setcounter{L@lines}{3}
\setcounter{ContinuedFloat}{0}
\setcounter{mtc}{5}
\setcounter{minitocdepth}{2}
\setcounter{ptc}{0}
\setcounter{parttocdepth}{2}
\setcounter{parentequation}{0}
\setcounter{dummy}{7}
\setcounter{KVtest}{0}
\setcounter{subfigure}{0}
\setcounter{subfigure@save}{0}
\setcounter{lofdepth}{1}
\setcounter{subtable}{0}
\setcounter{subtable@save}{0}
\setcounter{lotdepth}{1}
\setcounter{lstnumber}{1}
\setcounter{Item}{23}
\setcounter{bookmark@seq@number}{73}
\setcounter{IncluyeCapitulo}{0}
\setcounter{minilofdepth}{2}
\setcounter{minilotdepth}{2}
\setcounter{partlofdepth}{2}
\setcounter{partlotdepth}{2}
\setcounter{sectlofdepth}{2}
\setcounter{sectlotdepth}{2}
\setcounter{lstlisting}{0}
\setcounter{section@level}{0}
}
