\relax 
\providecommand\hyper@newdestlabel[2]{}
\@writefile{toc}{\contentsline {chapter}{\numberline {12}\spacedlowsmallcaps  {Resultados}}{111}{chapter.12}}
\@writefile{lof}{\addvspace {10\p@ }}
\@writefile{lot}{\addvspace {10\p@ }}
\@writefile{lol}{\addvspace {10\p@ }}
\def\mph@nr{12}
\@writefile{lof}{\contentsline {xchapter}{\spacedlowsmallcaps  {Resultados}}{111}{chapter.12}}
\@writefile{lot}{\contentsline {xchapter}{\spacedlowsmallcaps  {Resultados}}{111}{chapter.12}}
\newlabel{chap:resultados}{{12}{111}{\texorpdfstring {\spacedlowsmallcaps {Resultados}}{Resultados}}{chapter.12}{}}
\mph@setcol{ii:111}{\mph@nr}
\@writefile{toc}{\contentsline {section}{\numberline {12.1}Resultados de las Pruebas de B\'usqueda de Valores \'Optimos}{112}{section.12.1}}
\@writefile{toc}{\contentsline {subsection}{\numberline {12.1.1}Pruebas sobre la Versi\'on con Round Robin}{112}{subsection.12.1.1}}
\@writefile{toc}{\contentsline {subsubsection}{TimeBetweenPackets = 0.05 y TimeToDespatchQueue = 0.05}{112}{subsection.12.1.1}}
\newlabel{SC@68}{{\caption@xref {??}{ on input line 22}}{112}{TimeBetweenPackets = 0.05 y TimeToDespatchQueue = 0.05}{subsection.12.1.1}{}}
\@writefile{lof}{\contentsline {figure}{\numberline {\relax 12.1}{\ignorespaces TBP = 0.05 y TTDQ = 0.05\relax }}{112}{figure.12.1}}
\newlabel{fig:grafica1RR}{{\relax 12.1}{112}{TBP = 0.05 y TTDQ = 0.05\relax }{figure.12.1}{}}
\mph@setcol{ii:112}{\mph@nr}
\@writefile{toc}{\contentsline {subsubsection}{TimeBetweenPackets = 0.025 y TimeToDespatchQueue = 0.05}{113}{figure.12.1}}
\newlabel{SC@69}{{\caption@xref {??}{ on input line 33}}{113}{TimeBetweenPackets = 0.025 y TimeToDespatchQueue = 0.05}{figure.12.1}{}}
\@writefile{lof}{\contentsline {figure}{\numberline {\relax 12.2}{\ignorespaces TBP = 0.025 y TTDQ = 0.05\relax }}{113}{figure.12.2}}
\newlabel{fig:grafica2RR}{{\relax 12.2}{113}{TBP = 0.025 y TTDQ = 0.05\relax }{figure.12.2}{}}
\@writefile{toc}{\contentsline {subsubsection}{TimeBetweenPackets = 0.01 y TimeToDespatchQueue = 0.05}{113}{figure.12.2}}
\newlabel{SC@70}{{\caption@xref {??}{ on input line 43}}{113}{TimeBetweenPackets = 0.01 y TimeToDespatchQueue = 0.05}{figure.12.2}{}}
\@writefile{lof}{\contentsline {figure}{\numberline {\relax 12.3}{\ignorespaces TBP = 0.01 y TTDQ = 0.05\relax }}{113}{figure.12.3}}
\newlabel{fig:grafica3RR}{{\relax 12.3}{113}{TBP = 0.01 y TTDQ = 0.05\relax }{figure.12.3}{}}
\mph@setcol{ii:113}{\mph@nr}
\@writefile{toc}{\contentsline {subsubsection}{TimeBetweenPackets = 0.005 y TimeToDespatchQueue = 0.05}{114}{figure.12.3}}
\newlabel{SC@71}{{\caption@xref {??}{ on input line 53}}{114}{TimeBetweenPackets = 0.005 y TimeToDespatchQueue = 0.05}{figure.12.3}{}}
\@writefile{lof}{\contentsline {figure}{\numberline {\relax 12.4}{\ignorespaces TBP = 0.005 y TTDQ = 0.05\relax }}{114}{figure.12.4}}
\newlabel{fig:grafica4RR}{{\relax 12.4}{114}{TBP = 0.005 y TTDQ = 0.05\relax }{figure.12.4}{}}
\@writefile{toc}{\contentsline {subsubsection}{TimeBetweenPackets = 0.0025 y TimeToDespatchQueue = 0.05}{114}{figure.12.4}}
\newlabel{SC@72}{{\caption@xref {??}{ on input line 63}}{114}{TimeBetweenPackets = 0.0025 y TimeToDespatchQueue = 0.05}{figure.12.4}{}}
\@writefile{lof}{\contentsline {figure}{\numberline {\relax 12.5}{\ignorespaces TBP = 0.0025 y TTDQ = 0.05\relax }}{114}{figure.12.5}}
\newlabel{fig:grafica5RR}{{\relax 12.5}{114}{TBP = 0.0025 y TTDQ = 0.05\relax }{figure.12.5}{}}
\mph@setcol{ii:114}{\mph@nr}
\@writefile{toc}{\contentsline {subsubsection}{TimeBetweenPackets = 0.001 y TimeToDespatchQueue = 0.05}{115}{figure.12.5}}
\newlabel{SC@73}{{\caption@xref {??}{ on input line 73}}{115}{TimeBetweenPackets = 0.001 y TimeToDespatchQueue = 0.05}{figure.12.5}{}}
\@writefile{lof}{\contentsline {figure}{\numberline {\relax 12.6}{\ignorespaces TBP = 0.001 y TTDQ = 0.05\relax }}{115}{figure.12.6}}
\newlabel{fig:grafica6RR}{{\relax 12.6}{115}{TBP = 0.001 y TTDQ = 0.05\relax }{figure.12.6}{}}
\@writefile{toc}{\contentsline {subsubsection}{TimeBetweenPackets = 0.05 y TimeToDespatchQueue = 0.025}{115}{figure.12.6}}
\newlabel{SC@74}{{\caption@xref {??}{ on input line 83}}{115}{TimeBetweenPackets = 0.05 y TimeToDespatchQueue = 0.025}{figure.12.6}{}}
\@writefile{lof}{\contentsline {figure}{\numberline {\relax 12.7}{\ignorespaces TBP = 0.05 y TTDQ = 0.025\relax }}{115}{figure.12.7}}
\newlabel{fig:grafica7RR}{{\relax 12.7}{115}{TBP = 0.05 y TTDQ = 0.025\relax }{figure.12.7}{}}
\mph@setcol{ii:115}{\mph@nr}
\@writefile{toc}{\contentsline {subsubsection}{TimeBetweenPackets = 0.025 y TimeToDespatchQueue = 0.025}{116}{figure.12.7}}
\newlabel{SC@75}{{\caption@xref {??}{ on input line 93}}{116}{TimeBetweenPackets = 0.025 y TimeToDespatchQueue = 0.025}{figure.12.7}{}}
\@writefile{lof}{\contentsline {figure}{\numberline {\relax 12.8}{\ignorespaces TBP = 0.025 y TTDQ = 0.025\relax }}{116}{figure.12.8}}
\newlabel{fig:grafica8RR}{{\relax 12.8}{116}{TBP = 0.025 y TTDQ = 0.025\relax }{figure.12.8}{}}
\@writefile{toc}{\contentsline {subsubsection}{TimeBetweenPackets = 0.01 y TimeToDespatchQueue = 0.025}{116}{figure.12.8}}
\newlabel{SC@76}{{\caption@xref {??}{ on input line 104}}{116}{TimeBetweenPackets = 0.01 y TimeToDespatchQueue = 0.025}{figure.12.8}{}}
\@writefile{lof}{\contentsline {figure}{\numberline {\relax 12.9}{\ignorespaces TBP = 0.01 y TTDQ = 0.025\relax }}{116}{figure.12.9}}
\newlabel{fig:grafica9RR}{{\relax 12.9}{116}{TBP = 0.01 y TTDQ = 0.025\relax }{figure.12.9}{}}
\mph@setcol{ii:116}{\mph@nr}
\@writefile{toc}{\contentsline {subsubsection}{TimeBetweenPackets = 0.005 y TimeToDespatchQueue = 0.025}{117}{figure.12.9}}
\newlabel{SC@77}{{\caption@xref {??}{ on input line 114}}{117}{TimeBetweenPackets = 0.005 y TimeToDespatchQueue = 0.025}{figure.12.9}{}}
\@writefile{lof}{\contentsline {figure}{\numberline {\relax 12.10}{\ignorespaces TBP = 0.005 y TTDQ = 0.025\relax }}{117}{figure.12.10}}
\newlabel{fig:grafica10RR}{{\relax 12.10}{117}{TBP = 0.005 y TTDQ = 0.025\relax }{figure.12.10}{}}
\@writefile{toc}{\contentsline {subsubsection}{TimeBetweenPackets = 0.0025 y TimeToDespatchQueue = 0.025}{117}{figure.12.10}}
\newlabel{SC@78}{{\caption@xref {??}{ on input line 124}}{117}{TimeBetweenPackets = 0.0025 y TimeToDespatchQueue = 0.025}{figure.12.10}{}}
\@writefile{lof}{\contentsline {figure}{\numberline {\relax 12.11}{\ignorespaces TBP = 0.0025 y TTDQ = 0.025\relax }}{117}{figure.12.11}}
\newlabel{fig:grafica11RR}{{\relax 12.11}{117}{TBP = 0.0025 y TTDQ = 0.025\relax }{figure.12.11}{}}
\mph@setcol{ii:117}{\mph@nr}
\@writefile{toc}{\contentsline {subsubsection}{TimeBetweenPackets = 0.001 y TimeToDespatchQueue = 0.025}{118}{figure.12.11}}
\newlabel{SC@79}{{\caption@xref {??}{ on input line 135}}{118}{TimeBetweenPackets = 0.001 y TimeToDespatchQueue = 0.025}{figure.12.11}{}}
\@writefile{lof}{\contentsline {figure}{\numberline {\relax 12.12}{\ignorespaces TBP = 0.001 y TTDQ = 0.025\relax }}{118}{figure.12.12}}
\newlabel{fig:grafica12RR}{{\relax 12.12}{118}{TBP = 0.001 y TTDQ = 0.025\relax }{figure.12.12}{}}
\@writefile{toc}{\contentsline {subsubsection}{TimeBetweenPackets = 0.05 y TimeToDespatchQueue = 0.01}{118}{figure.12.12}}
\newlabel{SC@80}{{\caption@xref {??}{ on input line 146}}{118}{TimeBetweenPackets = 0.05 y TimeToDespatchQueue = 0.01}{figure.12.12}{}}
\@writefile{lof}{\contentsline {figure}{\numberline {\relax 12.13}{\ignorespaces TBP = 0.05 y TTDQ = 0.01\relax }}{118}{figure.12.13}}
\newlabel{fig:grafica13RR}{{\relax 12.13}{118}{TBP = 0.05 y TTDQ = 0.01\relax }{figure.12.13}{}}
\mph@setcol{ii:118}{\mph@nr}
\@writefile{toc}{\contentsline {subsubsection}{TimeBetweenPackets = 0.025 y TimeToDespatchQueue = 0.01}{119}{figure.12.13}}
\newlabel{SC@81}{{\caption@xref {??}{ on input line 157}}{119}{TimeBetweenPackets = 0.025 y TimeToDespatchQueue = 0.01}{figure.12.13}{}}
\@writefile{lof}{\contentsline {figure}{\numberline {\relax 12.14}{\ignorespaces TBP = 0.025 y TTDQ = 0.01\relax }}{119}{figure.12.14}}
\newlabel{fig:grafica14RR}{{\relax 12.14}{119}{TBP = 0.025 y TTDQ = 0.01\relax }{figure.12.14}{}}
\@writefile{toc}{\contentsline {subsubsection}{TimeBetweenPackets = 0.01 y TimeToDespatchQueue = 0.01}{119}{figure.12.14}}
\newlabel{SC@82}{{\caption@xref {??}{ on input line 168}}{119}{TimeBetweenPackets = 0.01 y TimeToDespatchQueue = 0.01}{figure.12.14}{}}
\@writefile{lof}{\contentsline {figure}{\numberline {\relax 12.15}{\ignorespaces TBP = 0.01 y TTDQ = 0.01\relax }}{119}{figure.12.15}}
\newlabel{fig:grafica15RR}{{\relax 12.15}{119}{TBP = 0.01 y TTDQ = 0.01\relax }{figure.12.15}{}}
\@writefile{toc}{\contentsline {subsubsection}{TimeBetweenPackets = 0.005 y TimeToDespatchQueue = 0.01}{119}{figure.12.15}}
\mph@setcol{ii:119}{\mph@nr}
\newlabel{SC@83}{{\caption@xref {??}{ on input line 178}}{120}{TimeBetweenPackets = 0.005 y TimeToDespatchQueue = 0.01}{figure.12.15}{}}
\@writefile{lof}{\contentsline {figure}{\numberline {\relax 12.16}{\ignorespaces TBP = 0.005 y TTDQ = 0.01\relax }}{120}{figure.12.16}}
\newlabel{fig:grafica16RR}{{\relax 12.16}{120}{TBP = 0.005 y TTDQ = 0.01\relax }{figure.12.16}{}}
\@writefile{toc}{\contentsline {subsubsection}{TimeBetweenPackets = 0.0025 y TimeToDespatchQueue = 0.01}{120}{figure.12.16}}
\newlabel{SC@84}{{\caption@xref {??}{ on input line 188}}{120}{TimeBetweenPackets = 0.0025 y TimeToDespatchQueue = 0.01}{figure.12.16}{}}
\@writefile{lof}{\contentsline {figure}{\numberline {\relax 12.17}{\ignorespaces TBP = 0.0025 y TTDQ = 0.01\relax }}{120}{figure.12.17}}
\newlabel{fig:grafica17RR}{{\relax 12.17}{120}{TBP = 0.0025 y TTDQ = 0.01\relax }{figure.12.17}{}}
\@writefile{toc}{\contentsline {subsubsection}{TimeBetweenPackets = 0.001 y TimeToDespatchQueue = 0.01}{120}{figure.12.17}}
\mph@setcol{ii:120}{\mph@nr}
\newlabel{SC@85}{{\caption@xref {??}{ on input line 199}}{121}{TimeBetweenPackets = 0.001 y TimeToDespatchQueue = 0.01}{figure.12.17}{}}
\@writefile{lof}{\contentsline {figure}{\numberline {\relax 12.18}{\ignorespaces TBP = 0.001 y TTDQ = 0.01\relax }}{121}{figure.12.18}}
\newlabel{fig:grafica18RR}{{\relax 12.18}{121}{TBP = 0.001 y TTDQ = 0.01\relax }{figure.12.18}{}}
\@writefile{toc}{\contentsline {subsubsection}{TimeBetweenPackets = 0.05 y TimeToDespatchQueue = 0.005}{121}{figure.12.18}}
\newlabel{SC@86}{{\caption@xref {??}{ on input line 209}}{121}{TimeBetweenPackets = 0.05 y TimeToDespatchQueue = 0.005}{figure.12.18}{}}
\@writefile{lof}{\contentsline {figure}{\numberline {\relax 12.19}{\ignorespaces TBP = 0.05 y TTDQ = 0.005\relax }}{121}{figure.12.19}}
\newlabel{fig:grafica19RR}{{\relax 12.19}{121}{TBP = 0.05 y TTDQ = 0.005\relax }{figure.12.19}{}}
\@writefile{toc}{\contentsline {subsubsection}{TimeBetweenPackets = 0.025 y TimeToDespatchQueue = 0.005}{121}{figure.12.19}}
\mph@setcol{ii:121}{\mph@nr}
\newlabel{SC@87}{{\caption@xref {??}{ on input line 220}}{122}{TimeBetweenPackets = 0.025 y TimeToDespatchQueue = 0.005}{figure.12.19}{}}
\@writefile{lof}{\contentsline {figure}{\numberline {\relax 12.20}{\ignorespaces TBP = 0.025 y TTDQ = 0.005\relax }}{122}{figure.12.20}}
\newlabel{fig:grafica20RR}{{\relax 12.20}{122}{TBP = 0.025 y TTDQ = 0.005\relax }{figure.12.20}{}}
\@writefile{toc}{\contentsline {subsubsection}{TimeBetweenPackets = 0.01 y TimeToDespatchQueue = 0.005}{122}{figure.12.20}}
\newlabel{SC@88}{{\caption@xref {??}{ on input line 230}}{122}{TimeBetweenPackets = 0.01 y TimeToDespatchQueue = 0.005}{figure.12.20}{}}
\@writefile{lof}{\contentsline {figure}{\numberline {\relax 12.21}{\ignorespaces TBP = 0.01 y TTDQ = 0.005\relax }}{122}{figure.12.21}}
\newlabel{fig:grafica21RR}{{\relax 12.21}{122}{TBP = 0.01 y TTDQ = 0.005\relax }{figure.12.21}{}}
\@writefile{toc}{\contentsline {subsubsection}{TimeBetweenPackets = 0.005 y TimeToDespatchQueue = 0.005}{122}{figure.12.21}}
\mph@setcol{ii:122}{\mph@nr}
\newlabel{SC@89}{{\caption@xref {??}{ on input line 240}}{123}{TimeBetweenPackets = 0.005 y TimeToDespatchQueue = 0.005}{figure.12.21}{}}
\@writefile{lof}{\contentsline {figure}{\numberline {\relax 12.22}{\ignorespaces TBP = 0.005 y TTDQ = 0.005\relax }}{123}{figure.12.22}}
\newlabel{fig:grafica22RR}{{\relax 12.22}{123}{TBP = 0.005 y TTDQ = 0.005\relax }{figure.12.22}{}}
\@writefile{toc}{\contentsline {subsubsection}{TimeBetweenPackets = 0.0025 y TimeToDespatchQueue = 0.005}{123}{figure.12.22}}
\newlabel{SC@90}{{\caption@xref {??}{ on input line 250}}{123}{TimeBetweenPackets = 0.0025 y TimeToDespatchQueue = 0.005}{figure.12.22}{}}
\@writefile{lof}{\contentsline {figure}{\numberline {\relax 12.23}{\ignorespaces TBP = 0.0025 y TTDQ = 0.005\relax }}{123}{figure.12.23}}
\newlabel{fig:grafica23RR}{{\relax 12.23}{123}{TBP = 0.0025 y TTDQ = 0.005\relax }{figure.12.23}{}}
\@writefile{toc}{\contentsline {subsubsection}{TimeBetweenPackets = 0.001 y TimeToDespatchQueue = 0.005}{123}{figure.12.23}}
\mph@setcol{ii:123}{\mph@nr}
\newlabel{SC@91}{{\caption@xref {??}{ on input line 261}}{124}{TimeBetweenPackets = 0.001 y TimeToDespatchQueue = 0.005}{figure.12.23}{}}
\@writefile{lof}{\contentsline {figure}{\numberline {\relax 12.24}{\ignorespaces TBP = 0.001 y TTDQ = 0.005\relax }}{124}{figure.12.24}}
\newlabel{fig:grafica24RR}{{\relax 12.24}{124}{TBP = 0.001 y TTDQ = 0.005\relax }{figure.12.24}{}}
\@writefile{toc}{\contentsline {subsubsection}{TimeBetweenPackets = 0.05 y TimeToDespatchQueue = 0.0025}{124}{figure.12.24}}
\newlabel{SC@92}{{\caption@xref {??}{ on input line 271}}{124}{TimeBetweenPackets = 0.05 y TimeToDespatchQueue = 0.0025}{figure.12.24}{}}
\@writefile{lof}{\contentsline {figure}{\numberline {\relax 12.25}{\ignorespaces TBP = 0.05 y TTDQ = 0.0025\relax }}{124}{figure.12.25}}
\newlabel{fig:grafica25RR}{{\relax 12.25}{124}{TBP = 0.05 y TTDQ = 0.0025\relax }{figure.12.25}{}}
\@writefile{toc}{\contentsline {subsubsection}{TimeBetweenPackets = 0.025 y TimeToDespatchQueue = 0.0025}{124}{figure.12.25}}
\mph@setcol{ii:124}{\mph@nr}
\newlabel{SC@93}{{\caption@xref {??}{ on input line 282}}{125}{TimeBetweenPackets = 0.025 y TimeToDespatchQueue = 0.0025}{figure.12.25}{}}
\@writefile{lof}{\contentsline {figure}{\numberline {\relax 12.26}{\ignorespaces TBP = 0.025 y TTDQ = 0.0025\relax }}{125}{figure.12.26}}
\newlabel{fig:grafica26RR}{{\relax 12.26}{125}{TBP = 0.025 y TTDQ = 0.0025\relax }{figure.12.26}{}}
\@writefile{toc}{\contentsline {subsubsection}{TimeBetweenPackets = 0.01 y TimeToDespatchQueue = 0.0025}{125}{figure.12.26}}
\newlabel{SC@94}{{\caption@xref {??}{ on input line 292}}{125}{TimeBetweenPackets = 0.01 y TimeToDespatchQueue = 0.0025}{figure.12.26}{}}
\@writefile{lof}{\contentsline {figure}{\numberline {\relax 12.27}{\ignorespaces TBP = 0.01 y TTDQ = 0.0025\relax }}{125}{figure.12.27}}
\newlabel{fig:grafica27RR}{{\relax 12.27}{125}{TBP = 0.01 y TTDQ = 0.0025\relax }{figure.12.27}{}}
\@writefile{toc}{\contentsline {subsubsection}{TimeBetweenPackets = 0.005 y TimeToDespatchQueue = 0.0025}{125}{figure.12.27}}
\mph@setcol{ii:125}{\mph@nr}
\newlabel{SC@95}{{\caption@xref {??}{ on input line 302}}{126}{TimeBetweenPackets = 0.005 y TimeToDespatchQueue = 0.0025}{figure.12.27}{}}
\@writefile{lof}{\contentsline {figure}{\numberline {\relax 12.28}{\ignorespaces TBP = 0.005 y TTDQ = 0.0025\relax }}{126}{figure.12.28}}
\newlabel{fig:grafica28RR}{{\relax 12.28}{126}{TBP = 0.005 y TTDQ = 0.0025\relax }{figure.12.28}{}}
\@writefile{toc}{\contentsline {subsubsection}{TimeBetweenPackets = 0.0025 y TimeToDespatchQueue = 0.0025}{126}{figure.12.28}}
\newlabel{SC@96}{{\caption@xref {??}{ on input line 312}}{126}{TimeBetweenPackets = 0.0025 y TimeToDespatchQueue = 0.0025}{figure.12.28}{}}
\@writefile{lof}{\contentsline {figure}{\numberline {\relax 12.29}{\ignorespaces TBP = 0.0025 y TTDQ = 0.0025\relax }}{126}{figure.12.29}}
\newlabel{fig:grafica29RR}{{\relax 12.29}{126}{TBP = 0.0025 y TTDQ = 0.0025\relax }{figure.12.29}{}}
\@writefile{toc}{\contentsline {subsubsection}{TimeBetweenPackets = 0.001 y TimeToDespatchQueue = 0.0025}{126}{figure.12.29}}
\mph@setcol{ii:126}{\mph@nr}
\newlabel{SC@97}{{\caption@xref {??}{ on input line 322}}{127}{TimeBetweenPackets = 0.001 y TimeToDespatchQueue = 0.0025}{figure.12.29}{}}
\@writefile{lof}{\contentsline {figure}{\numberline {\relax 12.30}{\ignorespaces TBP = 0.001 y TTDQ = 0.0025\relax }}{127}{figure.12.30}}
\newlabel{fig:grafica30RR}{{\relax 12.30}{127}{TBP = 0.001 y TTDQ = 0.0025\relax }{figure.12.30}{}}
\@writefile{toc}{\contentsline {subsection}{\numberline {12.1.2}Conclusi\'on de las pruebas para Round Robin}{127}{subsection.12.1.2}}
\@writefile{toc}{\contentsline {subsection}{\numberline {12.1.3}Pruebas sobre la Versi\'on con TDMA}{127}{subsection.12.1.3}}
\mph@setcol{ii:127}{\mph@nr}
\@writefile{toc}{\contentsline {subsubsection}{TimeBetweenPackets = 0.05 y TimeToDespatchQueue = 0.05}{128}{subsection.12.1.3}}
\newlabel{SC@98}{{\caption@xref {??}{ on input line 346}}{128}{TimeBetweenPackets = 0.05 y TimeToDespatchQueue = 0.05}{subsection.12.1.3}{}}
\@writefile{lof}{\contentsline {figure}{\numberline {\relax 12.31}{\ignorespaces TBP = 0.05 y TTDQ = 0.05\relax }}{128}{figure.12.31}}
\newlabel{fig:grafica1TDMA}{{\relax 12.31}{128}{TBP = 0.05 y TTDQ = 0.05\relax }{figure.12.31}{}}
\@writefile{toc}{\contentsline {subsubsection}{TimeBetweenPackets = 0.025 y TimeToDespatchQueue = 0.05}{128}{figure.12.31}}
\newlabel{SC@99}{{\caption@xref {??}{ on input line 358}}{128}{TimeBetweenPackets = 0.025 y TimeToDespatchQueue = 0.05}{figure.12.31}{}}
\@writefile{lof}{\contentsline {figure}{\numberline {\relax 12.32}{\ignorespaces TBP = 0.025 y TTDQ = 0.05\relax }}{128}{figure.12.32}}
\newlabel{fig:grafica2TDMA}{{\relax 12.32}{128}{TBP = 0.025 y TTDQ = 0.05\relax }{figure.12.32}{}}
\mph@setcol{ii:128}{\mph@nr}
\@writefile{toc}{\contentsline {subsubsection}{TimeBetweenPackets = 0.01 y TimeToDespatchQueue = 0.05}{129}{figure.12.32}}
\newlabel{SC@100}{{\caption@xref {??}{ on input line 367}}{129}{TimeBetweenPackets = 0.01 y TimeToDespatchQueue = 0.05}{figure.12.32}{}}
\@writefile{lof}{\contentsline {figure}{\numberline {\relax 12.33}{\ignorespaces TBP = 0.01 y TTDQ = 0.05\relax }}{129}{figure.12.33}}
\newlabel{fig:grafica3TDMA}{{\relax 12.33}{129}{TBP = 0.01 y TTDQ = 0.05\relax }{figure.12.33}{}}
\@writefile{toc}{\contentsline {subsubsection}{TimeBetweenPackets = 0.005 y TimeToDespatchQueue = 0.05}{129}{figure.12.33}}
\newlabel{SC@101}{{\caption@xref {??}{ on input line 377}}{129}{TimeBetweenPackets = 0.005 y TimeToDespatchQueue = 0.05}{figure.12.33}{}}
\@writefile{lof}{\contentsline {figure}{\numberline {\relax 12.34}{\ignorespaces TBP = 0.005 y TTDQ = 0.05\relax }}{129}{figure.12.34}}
\newlabel{fig:grafica4TDMA}{{\relax 12.34}{129}{TBP = 0.005 y TTDQ = 0.05\relax }{figure.12.34}{}}
\mph@setcol{ii:129}{\mph@nr}
\@writefile{toc}{\contentsline {subsubsection}{TimeBetweenPackets = 0.0025 y TimeToDespatchQueue = 0.05}{130}{figure.12.34}}
\newlabel{SC@102}{{\caption@xref {??}{ on input line 388}}{130}{TimeBetweenPackets = 0.0025 y TimeToDespatchQueue = 0.05}{figure.12.34}{}}
\@writefile{lof}{\contentsline {figure}{\numberline {\relax 12.35}{\ignorespaces TBP = 0.0025 y TTDQ = 0.05\relax }}{130}{figure.12.35}}
\newlabel{fig:grafica5TDMA}{{\relax 12.35}{130}{TBP = 0.0025 y TTDQ = 0.05\relax }{figure.12.35}{}}
\@writefile{toc}{\contentsline {subsubsection}{TimeBetweenPackets = 0.001 y TimeToDespatchQueue = 0.05}{130}{figure.12.35}}
\newlabel{SC@103}{{\caption@xref {??}{ on input line 400}}{130}{TimeBetweenPackets = 0.001 y TimeToDespatchQueue = 0.05}{figure.12.35}{}}
\@writefile{lof}{\contentsline {figure}{\numberline {\relax 12.36}{\ignorespaces TBP = 0.001 y TTDQ = 0.05\relax }}{130}{figure.12.36}}
\newlabel{fig:grafica6TDMA}{{\relax 12.36}{130}{TBP = 0.001 y TTDQ = 0.05\relax }{figure.12.36}{}}
\@writefile{toc}{\contentsline {subsubsection}{TimeBetweenPackets = 0.05 y TimeToDespatchQueue = 0.025}{130}{figure.12.36}}
\mph@setcol{ii:130}{\mph@nr}
\newlabel{SC@104}{{\caption@xref {??}{ on input line 411}}{131}{TimeBetweenPackets = 0.05 y TimeToDespatchQueue = 0.025}{figure.12.36}{}}
\@writefile{lof}{\contentsline {figure}{\numberline {\relax 12.37}{\ignorespaces TBP = 0.05 y TTDQ = 0.025\relax }}{131}{figure.12.37}}
\newlabel{fig:grafica7TDMA}{{\relax 12.37}{131}{TBP = 0.05 y TTDQ = 0.025\relax }{figure.12.37}{}}
\@writefile{toc}{\contentsline {subsubsection}{TimeBetweenPackets = 0.025 y TimeToDespatchQueue = 0.025}{131}{figure.12.37}}
\newlabel{SC@105}{{\caption@xref {??}{ on input line 421}}{131}{TimeBetweenPackets = 0.025 y TimeToDespatchQueue = 0.025}{figure.12.37}{}}
\@writefile{lof}{\contentsline {figure}{\numberline {\relax 12.38}{\ignorespaces TBP = 0.025 y TTDQ = 0.025\relax }}{131}{figure.12.38}}
\newlabel{fig:grafica8TDMA}{{\relax 12.38}{131}{TBP = 0.025 y TTDQ = 0.025\relax }{figure.12.38}{}}
\@writefile{toc}{\contentsline {subsubsection}{TimeBetweenPackets = 0.01 y TimeToDespatchQueue = 0.025}{131}{figure.12.38}}
\mph@setcol{ii:131}{\mph@nr}
\newlabel{SC@106}{{\caption@xref {??}{ on input line 431}}{132}{TimeBetweenPackets = 0.01 y TimeToDespatchQueue = 0.025}{figure.12.38}{}}
\@writefile{lof}{\contentsline {figure}{\numberline {\relax 12.39}{\ignorespaces TBP = 0.01 y TTDQ = 0.025\relax }}{132}{figure.12.39}}
\newlabel{fig:grafica9TDMA}{{\relax 12.39}{132}{TBP = 0.01 y TTDQ = 0.025\relax }{figure.12.39}{}}
\@writefile{toc}{\contentsline {subsubsection}{TimeBetweenPackets = 0.005 y TimeToDespatchQueue = 0.025}{132}{figure.12.39}}
\newlabel{SC@107}{{\caption@xref {??}{ on input line 441}}{132}{TimeBetweenPackets = 0.005 y TimeToDespatchQueue = 0.025}{figure.12.39}{}}
\@writefile{lof}{\contentsline {figure}{\numberline {\relax 12.40}{\ignorespaces TBP = 0.005 y TTDQ = 0.025\relax }}{132}{figure.12.40}}
\newlabel{fig:grafica10TDMA}{{\relax 12.40}{132}{TBP = 0.005 y TTDQ = 0.025\relax }{figure.12.40}{}}
\mph@setcol{ii:132}{\mph@nr}
\@writefile{toc}{\contentsline {subsubsection}{TimeBetweenPackets = 0.0025 y TimeToDespatchQueue = 0.025}{133}{figure.12.40}}
\newlabel{SC@108}{{\caption@xref {??}{ on input line 451}}{133}{TimeBetweenPackets = 0.0025 y TimeToDespatchQueue = 0.025}{figure.12.40}{}}
\@writefile{lof}{\contentsline {figure}{\numberline {\relax 12.41}{\ignorespaces TBP = 0.0025 y TTDQ = 0.025\relax }}{133}{figure.12.41}}
\newlabel{fig:grafica11TDMA}{{\relax 12.41}{133}{TBP = 0.0025 y TTDQ = 0.025\relax }{figure.12.41}{}}
\@writefile{toc}{\contentsline {subsubsection}{TimeBetweenPackets = 0.001 y TimeToDespatchQueue = 0.025}{133}{figure.12.41}}
\newlabel{SC@109}{{\caption@xref {??}{ on input line 463}}{133}{TimeBetweenPackets = 0.001 y TimeToDespatchQueue = 0.025}{figure.12.41}{}}
\@writefile{lof}{\contentsline {figure}{\numberline {\relax 12.42}{\ignorespaces TBP = 0.001 y TTDQ = 0.025\relax }}{133}{figure.12.42}}
\newlabel{fig:grafica12TDMA}{{\relax 12.42}{133}{TBP = 0.001 y TTDQ = 0.025\relax }{figure.12.42}{}}
\@writefile{toc}{\contentsline {subsubsection}{TimeBetweenPackets = 0.05 y TimeToDespatchQueue = 0.01}{133}{figure.12.42}}
\mph@setcol{ii:133}{\mph@nr}
\newlabel{SC@110}{{\caption@xref {??}{ on input line 474}}{134}{TimeBetweenPackets = 0.05 y TimeToDespatchQueue = 0.01}{figure.12.42}{}}
\@writefile{lof}{\contentsline {figure}{\numberline {\relax 12.43}{\ignorespaces TBP = 0.05 y TTDQ = 0.01\relax }}{134}{figure.12.43}}
\newlabel{fig:grafica13TDMA}{{\relax 12.43}{134}{TBP = 0.05 y TTDQ = 0.01\relax }{figure.12.43}{}}
\@writefile{toc}{\contentsline {subsubsection}{TimeBetweenPackets = 0.025 y TimeToDespatchQueue = 0.01}{134}{figure.12.43}}
\newlabel{SC@111}{{\caption@xref {??}{ on input line 484}}{134}{TimeBetweenPackets = 0.025 y TimeToDespatchQueue = 0.01}{figure.12.43}{}}
\@writefile{lof}{\contentsline {figure}{\numberline {\relax 12.44}{\ignorespaces TBP = 0.025 y TTDQ = 0.01\relax }}{134}{figure.12.44}}
\newlabel{fig:grafica14TDMA}{{\relax 12.44}{134}{TBP = 0.025 y TTDQ = 0.01\relax }{figure.12.44}{}}
\@writefile{toc}{\contentsline {subsubsection}{TimeBetweenPackets = 0.01 y TimeToDespatchQueue = 0.01}{134}{figure.12.44}}
\mph@setcol{ii:134}{\mph@nr}
\newlabel{SC@112}{{\caption@xref {??}{ on input line 495}}{135}{TimeBetweenPackets = 0.01 y TimeToDespatchQueue = 0.01}{figure.12.44}{}}
\@writefile{lof}{\contentsline {figure}{\numberline {\relax 12.45}{\ignorespaces TBP = 0.01 y TTDQ = 0.01\relax }}{135}{figure.12.45}}
\newlabel{fig:grafica15TDMA}{{\relax 12.45}{135}{TBP = 0.01 y TTDQ = 0.01\relax }{figure.12.45}{}}
\@writefile{toc}{\contentsline {subsubsection}{TimeBetweenPackets = 0.005 y TimeToDespatchQueue = 0.01}{135}{figure.12.45}}
\newlabel{SC@113}{{\caption@xref {??}{ on input line 505}}{135}{TimeBetweenPackets = 0.005 y TimeToDespatchQueue = 0.01}{figure.12.45}{}}
\@writefile{lof}{\contentsline {figure}{\numberline {\relax 12.46}{\ignorespaces TBP = 0.005 y TTDQ = 0.01\relax }}{135}{figure.12.46}}
\newlabel{fig:grafica16TDMA}{{\relax 12.46}{135}{TBP = 0.005 y TTDQ = 0.01\relax }{figure.12.46}{}}
\@writefile{toc}{\contentsline {subsubsection}{TimeBetweenPackets = 0.0025 y TimeToDespatchQueue = 0.01}{135}{figure.12.46}}
\mph@setcol{ii:135}{\mph@nr}
\newlabel{SC@114}{{\caption@xref {??}{ on input line 515}}{136}{TimeBetweenPackets = 0.0025 y TimeToDespatchQueue = 0.01}{figure.12.46}{}}
\@writefile{lof}{\contentsline {figure}{\numberline {\relax 12.47}{\ignorespaces TBP = 0.0025 y TTDQ = 0.01\relax }}{136}{figure.12.47}}
\newlabel{fig:grafica17TDMA}{{\relax 12.47}{136}{TBP = 0.0025 y TTDQ = 0.01\relax }{figure.12.47}{}}
\@writefile{toc}{\contentsline {subsubsection}{TimeBetweenPackets = 0.001 y TimeToDespatchQueue = 0.01}{136}{figure.12.47}}
\newlabel{SC@115}{{\caption@xref {??}{ on input line 525}}{136}{TimeBetweenPackets = 0.001 y TimeToDespatchQueue = 0.01}{figure.12.47}{}}
\@writefile{lof}{\contentsline {figure}{\numberline {\relax 12.48}{\ignorespaces TBP = 0.001 y TTDQ = 0.01\relax }}{136}{figure.12.48}}
\newlabel{fig:grafica18TDMA}{{\relax 12.48}{136}{TBP = 0.001 y TTDQ = 0.01\relax }{figure.12.48}{}}
\@writefile{toc}{\contentsline {subsubsection}{TimeBetweenPackets = 0.05 y TimeToDespatchQueue = 0.005}{136}{figure.12.48}}
\mph@setcol{ii:136}{\mph@nr}
\newlabel{SC@116}{{\caption@xref {??}{ on input line 535}}{137}{TimeBetweenPackets = 0.05 y TimeToDespatchQueue = 0.005}{figure.12.48}{}}
\@writefile{lof}{\contentsline {figure}{\numberline {\relax 12.49}{\ignorespaces TBP = 0.05 y TTDQ = 0.005\relax }}{137}{figure.12.49}}
\newlabel{fig:grafica19TDMA}{{\relax 12.49}{137}{TBP = 0.05 y TTDQ = 0.005\relax }{figure.12.49}{}}
\@writefile{toc}{\contentsline {subsubsection}{TimeBetweenPackets = 0.025 y TimeToDespatchQueue = 0.005}{137}{figure.12.49}}
\newlabel{SC@117}{{\caption@xref {??}{ on input line 547}}{137}{TimeBetweenPackets = 0.025 y TimeToDespatchQueue = 0.005}{figure.12.49}{}}
\@writefile{lof}{\contentsline {figure}{\numberline {\relax 12.50}{\ignorespaces TBP = 0.025 y TTDQ = 0.005\relax }}{137}{figure.12.50}}
\newlabel{fig:grafica20TDMA}{{\relax 12.50}{137}{TBP = 0.025 y TTDQ = 0.005\relax }{figure.12.50}{}}
\@writefile{toc}{\contentsline {subsubsection}{TimeBetweenPackets = 0.01 y TimeToDespatchQueue = 0.005}{137}{figure.12.50}}
\mph@setcol{ii:137}{\mph@nr}
\newlabel{SC@118}{{\caption@xref {??}{ on input line 558}}{138}{TimeBetweenPackets = 0.01 y TimeToDespatchQueue = 0.005}{figure.12.50}{}}
\@writefile{lof}{\contentsline {figure}{\numberline {\relax 12.51}{\ignorespaces TBP = 0.01 y TTDQ = 0.005\relax }}{138}{figure.12.51}}
\newlabel{fig:grafica21TDMA}{{\relax 12.51}{138}{TBP = 0.01 y TTDQ = 0.005\relax }{figure.12.51}{}}
\@writefile{toc}{\contentsline {subsubsection}{TimeBetweenPackets = 0.005 y TimeToDespatchQueue = 0.005}{138}{figure.12.51}}
\newlabel{SC@119}{{\caption@xref {??}{ on input line 568}}{138}{TimeBetweenPackets = 0.005 y TimeToDespatchQueue = 0.005}{figure.12.51}{}}
\@writefile{lof}{\contentsline {figure}{\numberline {\relax 12.52}{\ignorespaces TBP = 0.005 y TTDP = 0.005\relax }}{138}{figure.12.52}}
\newlabel{fig:grafica22TDMA}{{\relax 12.52}{138}{TBP = 0.005 y TTDP = 0.005\relax }{figure.12.52}{}}
\@writefile{toc}{\contentsline {subsubsection}{TimeBetweenPackets = 0.0025 y TimeToDespatchQueue = 0.005}{138}{figure.12.52}}
\mph@setcol{ii:138}{\mph@nr}
\newlabel{SC@120}{{\caption@xref {??}{ on input line 578}}{139}{TimeBetweenPackets = 0.0025 y TimeToDespatchQueue = 0.005}{figure.12.52}{}}
\@writefile{lof}{\contentsline {figure}{\numberline {\relax 12.53}{\ignorespaces TDP = 0.0025 y TTDQ = 0.005\relax }}{139}{figure.12.53}}
\newlabel{fig:grafica23TDMA}{{\relax 12.53}{139}{TDP = 0.0025 y TTDQ = 0.005\relax }{figure.12.53}{}}
\@writefile{toc}{\contentsline {subsubsection}{TimeBetweenPackets = 0.001 y TimeToDespatchQueue = 0.005}{139}{figure.12.53}}
\newlabel{SC@121}{{\caption@xref {??}{ on input line 588}}{139}{TimeBetweenPackets = 0.001 y TimeToDespatchQueue = 0.005}{figure.12.53}{}}
\@writefile{lof}{\contentsline {figure}{\numberline {\relax 12.54}{\ignorespaces TBP = 0.001 y TTDQ = 0.005\relax }}{139}{figure.12.54}}
\newlabel{fig:grafica24TDMA}{{\relax 12.54}{139}{TBP = 0.001 y TTDQ = 0.005\relax }{figure.12.54}{}}
\@writefile{toc}{\contentsline {subsubsection}{TimeBetweenPackets = 0.05 y TimeToDespatchQueue = 0.0025}{139}{figure.12.54}}
\mph@setcol{ii:139}{\mph@nr}
\newlabel{SC@122}{{\caption@xref {??}{ on input line 598}}{140}{TimeBetweenPackets = 0.05 y TimeToDespatchQueue = 0.0025}{figure.12.54}{}}
\@writefile{lof}{\contentsline {figure}{\numberline {\relax 12.55}{\ignorespaces TBP = 0.05 y TTDQ = 0.0025\relax }}{140}{figure.12.55}}
\newlabel{fig:grafica25TDMA}{{\relax 12.55}{140}{TBP = 0.05 y TTDQ = 0.0025\relax }{figure.12.55}{}}
\@writefile{toc}{\contentsline {subsubsection}{TimeBetweenPackets = 0.025 y TimeToDespatchQueue = 0.0025}{140}{figure.12.55}}
\newlabel{SC@123}{{\caption@xref {??}{ on input line 608}}{140}{TimeBetweenPackets = 0.025 y TimeToDespatchQueue = 0.0025}{figure.12.55}{}}
\@writefile{lof}{\contentsline {figure}{\numberline {\relax 12.56}{\ignorespaces TBP = 0.025 y TTDQ = 0.0025\relax }}{140}{figure.12.56}}
\newlabel{fig:grafica26TDMA}{{\relax 12.56}{140}{TBP = 0.025 y TTDQ = 0.0025\relax }{figure.12.56}{}}
\@writefile{toc}{\contentsline {subsubsection}{TimeBetweenPackets = 0.01 y TimeToDespatchQueue = 0.0025}{140}{figure.12.56}}
\mph@setcol{ii:140}{\mph@nr}
\newlabel{SC@124}{{\caption@xref {??}{ on input line 619}}{141}{TimeBetweenPackets = 0.01 y TimeToDespatchQueue = 0.0025}{figure.12.56}{}}
\@writefile{lof}{\contentsline {figure}{\numberline {\relax 12.57}{\ignorespaces TBP = 0.01 y TTDQ = 0.0025\relax }}{141}{figure.12.57}}
\newlabel{fig:grafica27TDMA}{{\relax 12.57}{141}{TBP = 0.01 y TTDQ = 0.0025\relax }{figure.12.57}{}}
\@writefile{toc}{\contentsline {subsubsection}{TimeBetweenPackets = 0.005 y TimeToDespatchQueue = 0.0025}{141}{figure.12.57}}
\newlabel{SC@125}{{\caption@xref {??}{ on input line 631}}{141}{TimeBetweenPackets = 0.005 y TimeToDespatchQueue = 0.0025}{figure.12.57}{}}
\@writefile{lof}{\contentsline {figure}{\numberline {\relax 12.58}{\ignorespaces TBP = 0.005 y TTDQ = 0.0025\relax }}{141}{figure.12.58}}
\newlabel{fig:grafica28TDMA}{{\relax 12.58}{141}{TBP = 0.005 y TTDQ = 0.0025\relax }{figure.12.58}{}}
\@writefile{toc}{\contentsline {subsubsection}{TimeBetweenPackets = 0.0025 y TimeToDespatchQueue = 0.0025}{141}{figure.12.58}}
\mph@setcol{ii:141}{\mph@nr}
\newlabel{SC@126}{{\caption@xref {??}{ on input line 642}}{142}{TimeBetweenPackets = 0.0025 y TimeToDespatchQueue = 0.0025}{figure.12.58}{}}
\@writefile{lof}{\contentsline {figure}{\numberline {\relax 12.59}{\ignorespaces TBP = 0.0025 y TTDQ = 0.0025\relax }}{142}{figure.12.59}}
\newlabel{fig:grafica29TDMA}{{\relax 12.59}{142}{TBP = 0.0025 y TTDQ = 0.0025\relax }{figure.12.59}{}}
\@writefile{toc}{\contentsline {subsubsection}{TimeBetweenPackets = 0.001 y TimeToDespatchQueue = 0.0025}{142}{figure.12.59}}
\newlabel{SC@127}{{\caption@xref {??}{ on input line 653}}{142}{TimeBetweenPackets = 0.001 y TimeToDespatchQueue = 0.0025}{figure.12.59}{}}
\@writefile{lof}{\contentsline {figure}{\numberline {\relax 12.60}{\ignorespaces TBP = 0.001 y TTDQ = 0.0025\relax }}{142}{figure.12.60}}
\newlabel{fig:grafica30TDMA}{{\relax 12.60}{142}{TBP = 0.001 y TTDQ = 0.0025\relax }{figure.12.60}{}}
\@writefile{toc}{\contentsline {subsection}{\numberline {12.1.4}Conclusi\'on de las pruebas para TDMA}{142}{subsection.12.1.4}}
\mph@setcol{ii:142}{\mph@nr}
\@writefile{toc}{\contentsline {subsection}{\numberline {12.1.5}Pruebas sobre la Versi\'on con Env\IeC {\'\i }o Directo}{143}{subsection.12.1.5}}
\@writefile{toc}{\contentsline {subsubsection}{TimeBetweenPackets = 0.05}{143}{subsection.12.1.5}}
\@writefile{toc}{\contentsline {subsubsection}{TimeBetweenPackets = 0.025}{143}{figure.12.61}}
\mph@setcol{ii:143}{\mph@nr}
\newlabel{SC@128}{{\caption@xref {??}{ on input line 677}}{144}{TimeBetweenPackets = 0.05}{subsection.12.1.5}{}}
\@writefile{lof}{\contentsline {figure}{\numberline {\relax 12.61}{\ignorespaces TBP = 0.05\relax }}{144}{figure.12.61}}
\newlabel{fig:grafica1Normal}{{\relax 12.61}{144}{TBP = 0.05\relax }{figure.12.61}{}}
\newlabel{SC@129}{{\caption@xref {??}{ on input line 687}}{144}{TimeBetweenPackets = 0.025}{figure.12.61}{}}
\@writefile{lof}{\contentsline {figure}{\numberline {\relax 12.62}{\ignorespaces TBP = 0.025\relax }}{144}{figure.12.62}}
\newlabel{fig:grafica2Normal}{{\relax 12.62}{144}{TBP = 0.025\relax }{figure.12.62}{}}
\mph@setcol{ii:144}{\mph@nr}
\@writefile{toc}{\contentsline {subsubsection}{TimeBetweenPackets = 0.01}{145}{figure.12.62}}
\newlabel{SC@130}{{\caption@xref {??}{ on input line 697}}{145}{TimeBetweenPackets = 0.01}{figure.12.62}{}}
\@writefile{lof}{\contentsline {figure}{\numberline {\relax 12.63}{\ignorespaces TBP = 0.01\relax }}{145}{figure.12.63}}
\newlabel{fig:grafica3Normal}{{\relax 12.63}{145}{TBP = 0.01\relax }{figure.12.63}{}}
\@writefile{toc}{\contentsline {subsubsection}{TimeBetweenPackets = 0.005}{145}{figure.12.63}}
\newlabel{SC@131}{{\caption@xref {??}{ on input line 707}}{145}{TimeBetweenPackets = 0.005}{figure.12.63}{}}
\@writefile{lof}{\contentsline {figure}{\numberline {\relax 12.64}{\ignorespaces TBP = 0.005\relax }}{145}{figure.12.64}}
\newlabel{fig:grafica4Normal}{{\relax 12.64}{145}{TBP = 0.005\relax }{figure.12.64}{}}
\@writefile{toc}{\contentsline {subsubsection}{TimeBetweenPackets = 0.0025}{145}{figure.12.64}}
\mph@setcol{ii:145}{\mph@nr}
\newlabel{SC@132}{{\caption@xref {??}{ on input line 717}}{146}{TimeBetweenPackets = 0.0025}{figure.12.64}{}}
\@writefile{lof}{\contentsline {figure}{\numberline {\relax 12.65}{\ignorespaces TBP = 0.0025\relax }}{146}{figure.12.65}}
\newlabel{fig:grafica5Normal}{{\relax 12.65}{146}{TBP = 0.0025\relax }{figure.12.65}{}}
\@writefile{toc}{\contentsline {subsubsection}{TimeBetweenPackets = 0.001}{146}{figure.12.65}}
\newlabel{SC@133}{{\caption@xref {??}{ on input line 727}}{146}{TimeBetweenPackets = 0.001}{figure.12.65}{}}
\@writefile{lof}{\contentsline {figure}{\numberline {\relax 12.66}{\ignorespaces TBP = 0.001\relax }}{146}{figure.12.66}}
\newlabel{fig:grafica6Normal}{{\relax 12.66}{146}{TBP = 0.001\relax }{figure.12.66}{}}
\@writefile{toc}{\contentsline {subsubsection}{TimeBetweenPackets = 0.0005}{146}{figure.12.66}}
\mph@setcol{ii:146}{\mph@nr}
\newlabel{SC@134}{{\caption@xref {??}{ on input line 737}}{147}{TimeBetweenPackets = 0.0005}{figure.12.66}{}}
\@writefile{lof}{\contentsline {figure}{\numberline {\relax 12.67}{\ignorespaces TBP = 0.0005\relax }}{147}{figure.12.67}}
\newlabel{fig:grafica7Normal}{{\relax 12.67}{147}{TBP = 0.0005\relax }{figure.12.67}{}}
\@writefile{toc}{\contentsline {subsubsection}{TimeBetweenPackets = 0.00025}{147}{figure.12.67}}
\newlabel{SC@135}{{\caption@xref {??}{ on input line 747}}{147}{TimeBetweenPackets = 0.00025}{figure.12.67}{}}
\@writefile{lof}{\contentsline {figure}{\numberline {\relax 12.68}{\ignorespaces TBP = 0.00025\relax }}{147}{figure.12.68}}
\newlabel{fig:grafica8Normal}{{\relax 12.68}{147}{TBP = 0.00025\relax }{figure.12.68}{}}
\mph@setcol{ii:147}{\mph@nr}
\@writefile{toc}{\contentsline {subsubsection}{TimeBetweenPackets = 0.0001}{148}{figure.12.68}}
\newlabel{SC@136}{{\caption@xref {??}{ on input line 758}}{148}{TimeBetweenPackets = 0.0001}{figure.12.68}{}}
\@writefile{lof}{\contentsline {figure}{\numberline {\relax 12.69}{\ignorespaces TBP = 0.0001\relax }}{148}{figure.12.69}}
\newlabel{fig:grafica9Normal}{{\relax 12.69}{148}{TBP = 0.0001\relax }{figure.12.69}{}}
\@writefile{toc}{\contentsline {subsubsection}{TimeBetweenPackets = 0}{148}{figure.12.69}}
\newlabel{SC@137}{{\caption@xref {??}{ on input line 768}}{148}{TimeBetweenPackets = 0}{figure.12.69}{}}
\@writefile{lof}{\contentsline {figure}{\numberline {\relax 12.70}{\ignorespaces TBP = 0\relax }}{148}{figure.12.70}}
\newlabel{fig:grafica10Normal}{{\relax 12.70}{148}{TBP = 0\relax }{figure.12.70}{}}
\mph@setcol{ii:148}{\mph@nr}
\@writefile{toc}{\contentsline {subsection}{\numberline {12.1.6}Conclusi\'on de las pruebas para la Versi\'on con Env\IeC {\'\i }o Directo}{149}{subsection.12.1.6}}
\@writefile{toc}{\contentsline {subsection}{\numberline {12.1.7}Comparaci\'on de Resultados entre las Todas las Versiones}{149}{subsection.12.1.7}}
\@writefile{toc}{\contentsline {subsubsection}{Comparaci\'on de la Primera Configuraci\'on}{149}{subsection.12.1.7}}
\mph@setcol{ii:149}{\mph@nr}
\newlabel{SC@138}{{\caption@xref {??}{ on input line 790}}{150}{Comparación de la Primera Configuración}{subsection.12.1.7}{}}
\@writefile{lof}{\contentsline {figure}{\numberline {\relax 12.71}{\ignorespaces Combinaci\'on 1: Perdida paquetes\relax }}{150}{figure.12.71}}
\newlabel{fig:comb1perpaq}{{\relax 12.71}{150}{Combinación 1: Perdida paquetes\relax }{figure.12.71}{}}
\newlabel{SC@139}{{\caption@xref {??}{ on input line 799}}{150}{Comparación de la Primera Configuración}{figure.12.71}{}}
\@writefile{lof}{\contentsline {figure}{\numberline {\relax 12.72}{\ignorespaces Combinaci\'on 1: Tiempo de Env\IeC {\'\i }o\relax }}{150}{figure.12.72}}
\newlabel{fig:comb1time}{{\relax 12.72}{150}{Combinación 1: Tiempo de Envío\relax }{figure.12.72}{}}
\@writefile{toc}{\contentsline {subsubsection}{Comparaci\'on de la Segunda Configuraci\'on}{150}{figure.12.72}}
\mph@setcol{ii:150}{\mph@nr}
\newlabel{SC@140}{{\caption@xref {??}{ on input line 809}}{151}{Comparación de la Segunda Configuración}{figure.12.72}{}}
\@writefile{lof}{\contentsline {figure}{\numberline {\relax 12.73}{\ignorespaces Combinaci\'on 2: Perdida paquetes\relax }}{151}{figure.12.73}}
\newlabel{fig:comb2perpaq}{{\relax 12.73}{151}{Combinación 2: Perdida paquetes\relax }{figure.12.73}{}}
\newlabel{SC@141}{{\caption@xref {??}{ on input line 818}}{151}{Comparación de la Segunda Configuración}{figure.12.73}{}}
\@writefile{lof}{\contentsline {figure}{\numberline {\relax 12.74}{\ignorespaces Combinaci\'on 2: Tiempo de Env\IeC {\'\i }o\relax }}{151}{figure.12.74}}
\newlabel{fig:comb2time}{{\relax 12.74}{151}{Combinación 2: Tiempo de Envío\relax }{figure.12.74}{}}
\mph@setcol{ii:151}{\mph@nr}
\@writefile{toc}{\contentsline {subsubsection}{Comparaci\'on de la Tercera Configuraci\'on}{152}{figure.12.74}}
\newlabel{SC@142}{{\caption@xref {??}{ on input line 829}}{152}{Comparación de la Tercera Configuración}{figure.12.74}{}}
\@writefile{lof}{\contentsline {figure}{\numberline {\relax 12.75}{\ignorespaces Combinaci\'on 3: Perdida paquetes\relax }}{152}{figure.12.75}}
\newlabel{fig:comb3perpaq}{{\relax 12.75}{152}{Combinación 3: Perdida paquetes\relax }{figure.12.75}{}}
\newlabel{SC@143}{{\caption@xref {??}{ on input line 838}}{152}{Comparación de la Tercera Configuración}{figure.12.75}{}}
\@writefile{lof}{\contentsline {figure}{\numberline {\relax 12.76}{\ignorespaces Combinaci\'on 3: Tiempo de Env\IeC {\'\i }o\relax }}{152}{figure.12.76}}
\newlabel{fig:comb3time}{{\relax 12.76}{152}{Combinación 3: Tiempo de Envío\relax }{figure.12.76}{}}
\@writefile{toc}{\contentsline {section}{\numberline {12.2}Resultados de las Pruebas de Inyecci\'on de Errores}{152}{section.12.2}}
\mph@setcol{ii:152}{\mph@nr}
\@writefile{toc}{\contentsline {subsection}{\numberline {12.2.1}Pruebas sobre la Versi\'on con Round Robin}{153}{subsection.12.2.1}}
\@writefile{toc}{\contentsline {subsubsection}{TimeBetweenPackets = 0.005 y TimeToDespatchQueue = 0.05 Error = 25\%}{153}{subsection.12.2.1}}
\newlabel{SC@144}{{\caption@xref {??}{ on input line 862}}{153}{TimeBetweenPackets = 0.005 y TimeToDespatchQueue = 0.05 Error = 25\%}{subsection.12.2.1}{}}
\@writefile{lof}{\contentsline {figure}{\numberline {\relax 12.77}{\ignorespaces ERROR = 25\%\relax }}{153}{figure.12.77}}
\newlabel{fig:grafica1ErroresRR}{{\relax 12.77}{153}{ERROR = 25\%\relax }{figure.12.77}{}}
\@writefile{toc}{\contentsline {subsubsection}{TimeBetweenPackets = 0.005 y TimeToDespatchQueue = 0.05 Error = 50\%}{153}{figure.12.77}}
\mph@setcol{ii:153}{\mph@nr}
\newlabel{SC@145}{{\caption@xref {??}{ on input line 873}}{154}{TimeBetweenPackets = 0.005 y TimeToDespatchQueue = 0.05 Error = 50\%}{figure.12.77}{}}
\@writefile{lof}{\contentsline {figure}{\numberline {\relax 12.78}{\ignorespaces ERROR = 50\%\relax }}{154}{figure.12.78}}
\newlabel{fig:grafica2ErroresRR}{{\relax 12.78}{154}{ERROR = 50\%\relax }{figure.12.78}{}}
\@writefile{toc}{\contentsline {subsubsection}{TimeBetweenPackets = 0.005 y TimeToDespatchQueue = 0.05 Error = 75\%}{154}{figure.12.78}}
\newlabel{SC@146}{{\caption@xref {??}{ on input line 883}}{154}{TimeBetweenPackets = 0.005 y TimeToDespatchQueue = 0.05 Error = 75\%}{figure.12.78}{}}
\@writefile{lof}{\contentsline {figure}{\numberline {\relax 12.79}{\ignorespaces ERROR = 75\%\relax }}{154}{figure.12.79}}
\newlabel{fig:grafica3ErroresRR}{{\relax 12.79}{154}{ERROR = 75\%\relax }{figure.12.79}{}}
\@writefile{toc}{\contentsline {subsubsection}{TimeBetweenPackets = 0.0025 y TimeToDespatchQueue = 0.05 Error = 25\%}{154}{figure.12.79}}
\mph@setcol{ii:154}{\mph@nr}
\newlabel{SC@147}{{\caption@xref {??}{ on input line 893}}{155}{TimeBetweenPackets = 0.0025 y TimeToDespatchQueue = 0.05 Error = 25\%}{figure.12.79}{}}
\@writefile{lof}{\contentsline {figure}{\numberline {\relax 12.80}{\ignorespaces ERROR = 25\%\relax }}{155}{figure.12.80}}
\newlabel{fig:grafica4ErroresRR}{{\relax 12.80}{155}{ERROR = 25\%\relax }{figure.12.80}{}}
\@writefile{toc}{\contentsline {subsubsection}{TimeBetweenPackets = 0.0025 y TimeToDespatchQueue = 0.05 Error = 50\%}{155}{figure.12.80}}
\newlabel{SC@148}{{\caption@xref {??}{ on input line 903}}{155}{TimeBetweenPackets = 0.0025 y TimeToDespatchQueue = 0.05 Error = 50\%}{figure.12.80}{}}
\@writefile{lof}{\contentsline {figure}{\numberline {\relax 12.81}{\ignorespaces ERROR = 50\%\relax }}{155}{figure.12.81}}
\newlabel{fig:grafica5ErroresRR}{{\relax 12.81}{155}{ERROR = 50\%\relax }{figure.12.81}{}}
\@writefile{toc}{\contentsline {subsubsection}{TimeBetweenPackets = 0.0025 y TimeToDespatchQueue = 0.05 Error = 75\%}{155}{figure.12.81}}
\mph@setcol{ii:155}{\mph@nr}
\newlabel{SC@149}{{\caption@xref {??}{ on input line 913}}{156}{TimeBetweenPackets = 0.0025 y TimeToDespatchQueue = 0.05 Error = 75\%}{figure.12.81}{}}
\@writefile{lof}{\contentsline {figure}{\numberline {\relax 12.82}{\ignorespaces ERROR = 75\%\relax }}{156}{figure.12.82}}
\newlabel{fig:grafica6ErroresRR}{{\relax 12.82}{156}{ERROR = 75\%\relax }{figure.12.82}{}}
\@writefile{toc}{\contentsline {subsubsection}{TimeBetweenPackets = 0.0025 y TimeToDespatchQueue = 0.025 Error = 25\%}{156}{figure.12.82}}
\newlabel{SC@150}{{\caption@xref {??}{ on input line 923}}{156}{TimeBetweenPackets = 0.0025 y TimeToDespatchQueue = 0.025 Error = 25\%}{figure.12.82}{}}
\@writefile{lof}{\contentsline {figure}{\numberline {\relax 12.83}{\ignorespaces ERROR = 25\%\relax }}{156}{figure.12.83}}
\newlabel{fig:grafica7ErroresRR}{{\relax 12.83}{156}{ERROR = 25\%\relax }{figure.12.83}{}}
\@writefile{toc}{\contentsline {subsubsection}{TimeBetweenPackets = 0.0025 y TimeToDespatchQueue = 0.025 Error = 50\%}{156}{figure.12.83}}
\mph@setcol{ii:156}{\mph@nr}
\newlabel{SC@151}{{\caption@xref {??}{ on input line 933}}{157}{TimeBetweenPackets = 0.0025 y TimeToDespatchQueue = 0.025 Error = 50\%}{figure.12.83}{}}
\@writefile{lof}{\contentsline {figure}{\numberline {\relax 12.84}{\ignorespaces ERROR = 50\%\relax }}{157}{figure.12.84}}
\newlabel{fig:grafica8ErroresRR}{{\relax 12.84}{157}{ERROR = 50\%\relax }{figure.12.84}{}}
\@writefile{toc}{\contentsline {subsubsection}{TimeBetweenPackets = 0.0025 y TimeToDespatchQueue = 0.025 Error = 75\%}{157}{figure.12.84}}
\newlabel{SC@152}{{\caption@xref {??}{ on input line 943}}{157}{TimeBetweenPackets = 0.0025 y TimeToDespatchQueue = 0.025 Error = 75\%}{figure.12.84}{}}
\@writefile{lof}{\contentsline {figure}{\numberline {\relax 12.85}{\ignorespaces ERROR = 75\%\relax }}{157}{figure.12.85}}
\newlabel{fig:grafica9ErroresRR}{{\relax 12.85}{157}{ERROR = 75\%\relax }{figure.12.85}{}}
\@writefile{toc}{\contentsline {subsection}{\numberline {12.2.2}Conclusi\'on de las pruebas para la versi\'on con Round Robin}{157}{subsection.12.2.2}}
\mph@setcol{ii:157}{\mph@nr}
\@writefile{toc}{\contentsline {subsection}{\numberline {12.2.3}Pruebas sobre la Versi\'on con TDMA}{158}{subsection.12.2.3}}
\@writefile{toc}{\contentsline {subsubsection}{TimeBetweenPackets = 0.0025 y TimeToDespatchQueue = 0.05 Error = 25\%}{158}{subsection.12.2.3}}
\newlabel{SC@153}{{\caption@xref {??}{ on input line 968}}{158}{TimeBetweenPackets = 0.0025 y TimeToDespatchQueue = 0.05 Error = 25\%}{subsection.12.2.3}{}}
\@writefile{lof}{\contentsline {figure}{\numberline {\relax 12.86}{\ignorespaces ERROR = 25\%\relax }}{158}{figure.12.86}}
\newlabel{fig:grafica1ErroresTDMA}{{\relax 12.86}{158}{ERROR = 25\%\relax }{figure.12.86}{}}
\@writefile{toc}{\contentsline {subsubsection}{TimeBetweenPackets = 0.0025 y TimeToDespatchQueue = 0.05 Error = 50\%}{158}{figure.12.86}}
\mph@setcol{ii:158}{\mph@nr}
\newlabel{SC@154}{{\caption@xref {??}{ on input line 979}}{159}{TimeBetweenPackets = 0.0025 y TimeToDespatchQueue = 0.05 Error = 50\%}{figure.12.86}{}}
\@writefile{lof}{\contentsline {figure}{\numberline {\relax 12.87}{\ignorespaces ERROR = 50\%\relax }}{159}{figure.12.87}}
\newlabel{fig:grafica2ErroresTDMA}{{\relax 12.87}{159}{ERROR = 50\%\relax }{figure.12.87}{}}
\@writefile{toc}{\contentsline {subsubsection}{TimeBetweenPackets = 0.0025 y TimeToDespatchQueue = 0.05 Error = 75\%}{159}{figure.12.87}}
\newlabel{SC@155}{{\caption@xref {??}{ on input line 990}}{159}{TimeBetweenPackets = 0.0025 y TimeToDespatchQueue = 0.05 Error = 75\%}{figure.12.87}{}}
\@writefile{lof}{\contentsline {figure}{\numberline {\relax 12.88}{\ignorespaces ERROR = 75\%\relax }}{159}{figure.12.88}}
\newlabel{fig:grafica3ErroresTDMA}{{\relax 12.88}{159}{ERROR = 75\%\relax }{figure.12.88}{}}
\@writefile{toc}{\contentsline {subsubsection}{TimeBetweenPackets = 0.005 y TimeToDespatchQueue = 0.025 Error = 25\%}{159}{figure.12.88}}
\mph@setcol{ii:159}{\mph@nr}
\newlabel{SC@156}{{\caption@xref {??}{ on input line 1001}}{160}{TimeBetweenPackets = 0.005 y TimeToDespatchQueue = 0.025 Error = 25\%}{figure.12.88}{}}
\@writefile{lof}{\contentsline {figure}{\numberline {\relax 12.89}{\ignorespaces ERROR = 25\%\relax }}{160}{figure.12.89}}
\newlabel{fig:grafica4ErroresTDMA}{{\relax 12.89}{160}{ERROR = 25\%\relax }{figure.12.89}{}}
\@writefile{toc}{\contentsline {subsubsection}{TimeBetweenPackets = 0.005 y TimeToDespatchQueue = 0.025 Error = 50\%}{160}{figure.12.89}}
\newlabel{SC@157}{{\caption@xref {??}{ on input line 1012}}{160}{TimeBetweenPackets = 0.005 y TimeToDespatchQueue = 0.025 Error = 50\%}{figure.12.89}{}}
\@writefile{lof}{\contentsline {figure}{\numberline {\relax 12.90}{\ignorespaces ERROR = 50\%\relax }}{160}{figure.12.90}}
\newlabel{fig:grafica5ErroresTDMA}{{\relax 12.90}{160}{ERROR = 50\%\relax }{figure.12.90}{}}
\@writefile{toc}{\contentsline {subsubsection}{TimeBetweenPackets = 0.005 y TimeToDespatchQueue = 0.025 Error = 75\%}{160}{figure.12.90}}
\mph@setcol{ii:160}{\mph@nr}
\newlabel{SC@158}{{\caption@xref {??}{ on input line 1023}}{161}{TimeBetweenPackets = 0.005 y TimeToDespatchQueue = 0.025 Error = 75\%}{figure.12.90}{}}
\@writefile{lof}{\contentsline {figure}{\numberline {\relax 12.91}{\ignorespaces ERROR = 75\%\relax }}{161}{figure.12.91}}
\newlabel{fig:grafica6ErroresTDMA}{{\relax 12.91}{161}{ERROR = 75\%\relax }{figure.12.91}{}}
\@writefile{toc}{\contentsline {subsubsection}{TimeBetweenPackets = 0.0025 y TimeToDespatchQueue = 0.025 Error = 25\%}{161}{figure.12.91}}
\newlabel{SC@159}{{\caption@xref {??}{ on input line 1034}}{161}{TimeBetweenPackets = 0.0025 y TimeToDespatchQueue = 0.025 Error = 25\%}{figure.12.91}{}}
\@writefile{lof}{\contentsline {figure}{\numberline {\relax 12.92}{\ignorespaces ERROR = 25\%\relax }}{161}{figure.12.92}}
\newlabel{fig:grafica7ErroresTDMA}{{\relax 12.92}{161}{ERROR = 25\%\relax }{figure.12.92}{}}
\@writefile{toc}{\contentsline {subsubsection}{TimeBetweenPackets = 0.0025 y TimeToDespatchQueue = 0.025 Error = 50\%}{161}{figure.12.92}}
\mph@setcol{ii:161}{\mph@nr}
\newlabel{SC@160}{{\caption@xref {??}{ on input line 1045}}{162}{TimeBetweenPackets = 0.0025 y TimeToDespatchQueue = 0.025 Error = 50\%}{figure.12.92}{}}
\@writefile{lof}{\contentsline {figure}{\numberline {\relax 12.93}{\ignorespaces ERROR = 50\%\relax }}{162}{figure.12.93}}
\newlabel{fig:grafica8ErroresTDMA}{{\relax 12.93}{162}{ERROR = 50\%\relax }{figure.12.93}{}}
\@writefile{toc}{\contentsline {subsubsection}{TimeBetweenPackets = 0.0025 y TimeToDespatchQueue = 0.025 Error = 75\%}{162}{figure.12.93}}
\newlabel{SC@161}{{\caption@xref {??}{ on input line 1056}}{162}{TimeBetweenPackets = 0.0025 y TimeToDespatchQueue = 0.025 Error = 75\%}{figure.12.93}{}}
\@writefile{lof}{\contentsline {figure}{\numberline {\relax 12.94}{\ignorespaces ERROR = 75\%\relax }}{162}{figure.12.94}}
\newlabel{fig:grafica9ErroresTDMA}{{\relax 12.94}{162}{ERROR = 75\%\relax }{figure.12.94}{}}
\@writefile{toc}{\contentsline {subsection}{\numberline {12.2.4}Conclusi\'on de las pruebas para la versi\'on con TDMA}{162}{subsection.12.2.4}}
\mph@setcol{ii:162}{\mph@nr}
\@writefile{toc}{\contentsline {subsection}{\numberline {12.2.5}Pruebas sobre la Versi\'on con Env\IeC {\'\i }o Directo}{163}{subsection.12.2.5}}
\@writefile{toc}{\contentsline {subsubsection}{TimeBetweenPackets = 0.005 TotalTime = 55,54 Seconds Error = 25\%}{163}{subsection.12.2.5}}
\newlabel{SC@162}{{\caption@xref {??}{ on input line 1073}}{163}{TimeBetweenPackets = 0.005 TotalTime = 55,54 Seconds Error = 25\%}{subsection.12.2.5}{}}
\@writefile{lof}{\contentsline {figure}{\numberline {\relax 12.95}{\ignorespaces ERROR = 25\%\relax }}{163}{figure.12.95}}
\newlabel{fig:grafica1ErroresNormal}{{\relax 12.95}{163}{ERROR = 25\%\relax }{figure.12.95}{}}
\@writefile{toc}{\contentsline {subsubsection}{TimeBetweenPackets = 0.005 TotalTime = 55,54 Seconds Error = 50\%}{163}{figure.12.95}}
\@writefile{toc}{\contentsline {subsubsection}{TimeBetweenPackets = 0.005 TotalTime = 55,54 Seconds Error = 75\%}{163}{figure.12.96}}
\mph@setcol{ii:163}{\mph@nr}
\newlabel{SC@163}{{\caption@xref {??}{ on input line 1084}}{164}{TimeBetweenPackets = 0.005 TotalTime = 55,54 Seconds Error = 50\%}{figure.12.95}{}}
\@writefile{lof}{\contentsline {figure}{\numberline {\relax 12.96}{\ignorespaces ERROR = 50\%\relax }}{164}{figure.12.96}}
\newlabel{fig:grafica2ErroresNormal}{{\relax 12.96}{164}{ERROR = 50\%\relax }{figure.12.96}{}}
\newlabel{SC@164}{{\caption@xref {??}{ on input line 1095}}{164}{TimeBetweenPackets = 0.005 TotalTime = 55,54 Seconds Error = 75\%}{figure.12.96}{}}
\@writefile{lof}{\contentsline {figure}{\numberline {\relax 12.97}{\ignorespaces ERROR = 75\%\relax }}{164}{figure.12.97}}
\newlabel{fig:grafica3ErroresNormal}{{\relax 12.97}{164}{ERROR = 75\%\relax }{figure.12.97}{}}
\@writefile{toc}{\contentsline {subsubsection}{TimeBetweenPackets = 0.0025 TotalTime = 30,44 Seconds Error = 25\%}{164}{figure.12.97}}
\@writefile{toc}{\contentsline {subsubsection}{TimeBetweenPackets = 0.0025 TotalTime = 30,44 Seconds Error = 50\%}{164}{figure.12.98}}
\mph@setcol{ii:164}{\mph@nr}
\newlabel{SC@165}{{\caption@xref {??}{ on input line 1106}}{165}{TimeBetweenPackets = 0.0025 TotalTime = 30,44 Seconds Error = 25\%}{figure.12.97}{}}
\@writefile{lof}{\contentsline {figure}{\numberline {\relax 12.98}{\ignorespaces ERROR = 25\%\relax }}{165}{figure.12.98}}
\newlabel{fig:grafica4ErroresNormal}{{\relax 12.98}{165}{ERROR = 25\%\relax }{figure.12.98}{}}
\newlabel{SC@166}{{\caption@xref {??}{ on input line 1117}}{165}{TimeBetweenPackets = 0.0025 TotalTime = 30,44 Seconds Error = 50\%}{figure.12.98}{}}
\@writefile{lof}{\contentsline {figure}{\numberline {\relax 12.99}{\ignorespaces ERROR = 50\%\relax }}{165}{figure.12.99}}
\newlabel{fig:grafica5ErroresNormal}{{\relax 12.99}{165}{ERROR = 50\%\relax }{figure.12.99}{}}
\@writefile{toc}{\contentsline {subsubsection}{TimeBetweenPackets = 0.0025 TotalTime = 30,44 Seconds Error = 75\%}{165}{figure.12.99}}
\@writefile{toc}{\contentsline {subsubsection}{TimeBetweenPackets = 0.001 TotalTime = 15,4 Seconds Error = 25\%}{165}{figure.12.100}}
\mph@setcol{ii:165}{\mph@nr}
\newlabel{SC@167}{{\caption@xref {??}{ on input line 1128}}{166}{TimeBetweenPackets = 0.0025 TotalTime = 30,44 Seconds Error = 75\%}{figure.12.99}{}}
\@writefile{lof}{\contentsline {figure}{\numberline {\relax 12.100}{\ignorespaces ERROR = 75\%\relax }}{166}{figure.12.100}}
\newlabel{fig:grafica6ErroresNormal}{{\relax 12.100}{166}{ERROR = 75\%\relax }{figure.12.100}{}}
\newlabel{SC@168}{{\caption@xref {??}{ on input line 1139}}{166}{TimeBetweenPackets = 0.001 TotalTime = 15,4 Seconds Error = 25\%}{figure.12.100}{}}
\@writefile{lof}{\contentsline {figure}{\numberline {\relax 12.101}{\ignorespaces ERROR = 25\%\relax }}{166}{figure.12.101}}
\newlabel{fig:grafica7ErroresNormal}{{\relax 12.101}{166}{ERROR = 25\%\relax }{figure.12.101}{}}
\@writefile{toc}{\contentsline {subsubsection}{TimeBetweenPackets = 0.001 TotalTime = 15,4 Seconds Error = 50\%}{166}{figure.12.101}}
\@writefile{toc}{\contentsline {subsubsection}{TimeBetweenPackets = 0.001 TotalTime = 15,4 Seconds Error = 75\%}{166}{figure.12.102}}
\mph@setcol{ii:166}{\mph@nr}
\newlabel{SC@169}{{\caption@xref {??}{ on input line 1150}}{167}{TimeBetweenPackets = 0.001 TotalTime = 15,4 Seconds Error = 50\%}{figure.12.101}{}}
\@writefile{lof}{\contentsline {figure}{\numberline {\relax 12.102}{\ignorespaces ERROR = 50\%\relax }}{167}{figure.12.102}}
\newlabel{fig:grafica8ErroresNormal}{{\relax 12.102}{167}{ERROR = 50\%\relax }{figure.12.102}{}}
\newlabel{SC@170}{{\caption@xref {??}{ on input line 1162}}{167}{TimeBetweenPackets = 0.001 TotalTime = 15,4 Seconds Error = 75\%}{figure.12.102}{}}
\@writefile{lof}{\contentsline {figure}{\numberline {\relax 12.103}{\ignorespaces ERROR = 75\%\relax }}{167}{figure.12.103}}
\newlabel{fig:grafica9ErroresNormal}{{\relax 12.103}{167}{ERROR = 75\%\relax }{figure.12.103}{}}
\@writefile{toc}{\contentsline {subsection}{\numberline {12.2.6}Conclusi\'on de las pruebas para la versi\'on con Env\IeC {\'\i }o Directo}{167}{subsection.12.2.6}}
\mph@setcol{ii:167}{\mph@nr}
\@writefile{toc}{\contentsline {section}{\numberline {12.3}Resultados de las Pruebas de Variaci\'on de Carga}{168}{section.12.3}}
\@writefile{toc}{\contentsline {subsection}{\numberline {12.3.1}Pruebas sobre la Versi\'on con Round Robin}{168}{subsection.12.3.1}}
\@writefile{toc}{\contentsline {subsubsection}{TimeBetweenPackets = 0.005 y TimeToDespatchQueue = 0.05 Net = 15 Packets = 100000 }{168}{subsection.12.3.1}}
\newlabel{SC@171}{{\caption@xref {??}{ on input line 1189}}{168}{TimeBetweenPackets = 0.005 y TimeToDespatchQueue = 0.05 Net = 15 Packets = 100000 }{subsection.12.3.1}{}}
\@writefile{lof}{\contentsline {figure}{\numberline {\relax 12.104}{\ignorespaces Net = 15 Packets = 100000\relax }}{168}{figure.12.104}}
\newlabel{fig:grafica1CargasRR}{{\relax 12.104}{168}{Net = 15 Packets = 100000\relax }{figure.12.104}{}}
\mph@setcol{ii:168}{\mph@nr}
\@writefile{toc}{\contentsline {subsubsection}{TimeBetweenPackets = 0.005 y TimeToDespatchQueue = 0.05 Net = 5 Packets = 1000}{169}{figure.12.104}}
\newlabel{SC@172}{{\caption@xref {??}{ on input line 1199}}{169}{TimeBetweenPackets = 0.005 y TimeToDespatchQueue = 0.05 Net = 5 Packets = 1000}{figure.12.104}{}}
\@writefile{lof}{\contentsline {figure}{\numberline {\relax 12.105}{\ignorespaces Net = 5 Packets = 1000\relax }}{169}{figure.12.105}}
\newlabel{fig:grafica2CargasRR}{{\relax 12.105}{169}{Net = 5 Packets = 1000\relax }{figure.12.105}{}}
\@writefile{toc}{\contentsline {subsubsection}{TimeBetweenPackets = 0.0025 y TimeToDespatchQueue = 0.05 Net = 15 Packets = 100000}{169}{figure.12.105}}
\newlabel{SC@173}{{\caption@xref {??}{ on input line 1210}}{169}{TimeBetweenPackets = 0.0025 y TimeToDespatchQueue = 0.05 Net = 15 Packets = 100000}{figure.12.105}{}}
\@writefile{lof}{\contentsline {figure}{\numberline {\relax 12.106}{\ignorespaces Net = 15 Packets = 100000\relax }}{169}{figure.12.106}}
\newlabel{fig:grafica3CargasRR}{{\relax 12.106}{169}{Net = 15 Packets = 100000\relax }{figure.12.106}{}}
\mph@setcol{ii:169}{\mph@nr}
\@writefile{toc}{\contentsline {subsubsection}{TimeBetweenPackets = 0.0025 y TimeToDespatchQueue = 0.05 Net = 5 Packets = 1000}{170}{figure.12.106}}
\newlabel{SC@174}{{\caption@xref {??}{ on input line 1220}}{170}{TimeBetweenPackets = 0.0025 y TimeToDespatchQueue = 0.05 Net = 5 Packets = 1000}{figure.12.106}{}}
\@writefile{lof}{\contentsline {figure}{\numberline {\relax 12.107}{\ignorespaces Net = 5 Packets = 1000\relax }}{170}{figure.12.107}}
\newlabel{fig:grafica4CargasRR}{{\relax 12.107}{170}{Net = 5 Packets = 1000\relax }{figure.12.107}{}}
\@writefile{toc}{\contentsline {subsubsection}{TimeBetweenPackets = 0.001 y TimeToDespatchQueue = 0.025 Net = 15 Packets = 100000}{170}{figure.12.107}}
\newlabel{SC@175}{{\caption@xref {??}{ on input line 1232}}{170}{TimeBetweenPackets = 0.001 y TimeToDespatchQueue = 0.025 Net = 15 Packets = 100000}{figure.12.107}{}}
\@writefile{lof}{\contentsline {figure}{\numberline {\relax 12.108}{\ignorespaces Net = 15 Packets = 100000\relax }}{170}{figure.12.108}}
\newlabel{fig:grafica5CargasRR}{{\relax 12.108}{170}{Net = 15 Packets = 100000\relax }{figure.12.108}{}}
\mph@setcol{ii:170}{\mph@nr}
\@writefile{toc}{\contentsline {subsubsection}{TimeBetweenPackets = 0.001 y TimeToDespatchQueue = 0.025 Net = 5 Packets = 1000}{171}{figure.12.108}}
\newlabel{SC@176}{{\caption@xref {??}{ on input line 1242}}{171}{TimeBetweenPackets = 0.001 y TimeToDespatchQueue = 0.025 Net = 5 Packets = 1000}{figure.12.108}{}}
\@writefile{lof}{\contentsline {figure}{\numberline {\relax 12.109}{\ignorespaces Net = 5 Packets = 1000\relax }}{171}{figure.12.109}}
\newlabel{fig:grafica6CargasRR}{{\relax 12.109}{171}{Net = 5 Packets = 1000\relax }{figure.12.109}{}}
\@writefile{toc}{\contentsline {subsection}{\numberline {12.3.2}Conclusi\'on de las pruebas para la versi\'on con Round Robin}{171}{subsection.12.3.2}}
\@writefile{toc}{\contentsline {subsection}{\numberline {12.3.3}Pruebas sobre la Versi\'on con TDMA}{171}{subsection.12.3.3}}
\mph@setcol{ii:171}{\mph@nr}
\@writefile{toc}{\contentsline {subsubsection}{TimeBetweenPackets = 0.005 y TimeToDespatchQueue = 0.025 Net = 15 Packets = 100000}{172}{subsection.12.3.3}}
\newlabel{SC@177}{{\caption@xref {??}{ on input line 1266}}{172}{TimeBetweenPackets = 0.005 y TimeToDespatchQueue = 0.025 Net = 15 Packets = 100000}{subsection.12.3.3}{}}
\@writefile{lof}{\contentsline {figure}{\numberline {\relax 12.110}{\ignorespaces Net = 15 Packets = 100000\relax }}{172}{figure.12.110}}
\newlabel{fig:grafica3CargasTDMA}{{\relax 12.110}{172}{Net = 15 Packets = 100000\relax }{figure.12.110}{}}
\@writefile{toc}{\contentsline {subsubsection}{TimeBetweenPackets = 0.005 y TimeToDespatchQueue = 0.025 Net = 5 Packets = 1000}{172}{figure.12.110}}
\newlabel{SC@178}{{\caption@xref {??}{ on input line 1277}}{172}{TimeBetweenPackets = 0.005 y TimeToDespatchQueue = 0.025 Net = 5 Packets = 1000}{figure.12.110}{}}
\@writefile{lof}{\contentsline {figure}{\numberline {\relax 12.111}{\ignorespaces Net = 5 Packets = 1000\relax }}{172}{figure.12.111}}
\newlabel{fig:grafica4CargasTDMA}{{\relax 12.111}{172}{Net = 5 Packets = 1000\relax }{figure.12.111}{}}
\mph@setcol{ii:172}{\mph@nr}
\@writefile{toc}{\contentsline {subsubsection}{TimeBetweenPackets = 0.0025 y TimeToDespatchQueue = 0.05 Net = 15 Packets = 100000}{173}{figure.12.111}}
\newlabel{SC@179}{{\caption@xref {??}{ on input line 1287}}{173}{TimeBetweenPackets = 0.0025 y TimeToDespatchQueue = 0.05 Net = 15 Packets = 100000}{figure.12.111}{}}
\@writefile{lof}{\contentsline {figure}{\numberline {\relax 12.112}{\ignorespaces Net = 15 Packets = 100000\relax }}{173}{figure.12.112}}
\newlabel{fig:grafica1CargasTDMA}{{\relax 12.112}{173}{Net = 15 Packets = 100000\relax }{figure.12.112}{}}
\@writefile{toc}{\contentsline {subsubsection}{TimeBetweenPackets = 0.0025 y TimeToDespatchQueue = 0.05 Net = 5 Packets = 1000}{173}{figure.12.112}}
\newlabel{SC@180}{{\caption@xref {??}{ on input line 1297}}{173}{TimeBetweenPackets = 0.0025 y TimeToDespatchQueue = 0.05 Net = 5 Packets = 1000}{figure.12.112}{}}
\@writefile{lof}{\contentsline {figure}{\numberline {\relax 12.113}{\ignorespaces Net = 5 Packets = 1000\relax }}{173}{figure.12.113}}
\newlabel{fig:grafica2CargasTDMA}{{\relax 12.113}{173}{Net = 5 Packets = 1000\relax }{figure.12.113}{}}
\mph@setcol{ii:173}{\mph@nr}
\@writefile{toc}{\contentsline {subsubsection}{TimeBetweenPackets = 0.0025 y TimeToDespatchQueue = 0.025 Net = 15 Packets = 100000}{174}{figure.12.113}}
\newlabel{SC@181}{{\caption@xref {??}{ on input line 1310}}{174}{TimeBetweenPackets = 0.0025 y TimeToDespatchQueue = 0.025 Net = 15 Packets = 100000}{figure.12.113}{}}
\@writefile{lof}{\contentsline {figure}{\numberline {\relax 12.114}{\ignorespaces Net = 15 Packets = 100000\relax }}{174}{figure.12.114}}
\newlabel{fig:grafica5CargasTDMA}{{\relax 12.114}{174}{Net = 15 Packets = 100000\relax }{figure.12.114}{}}
\@writefile{toc}{\contentsline {subsubsection}{TimeBetweenPackets = 0.0025 y TimeToDespatchQueue = 0.025 Net = 5 Packets = 1000}{174}{figure.12.114}}
\newlabel{SC@182}{{\caption@xref {??}{ on input line 1320}}{174}{TimeBetweenPackets = 0.0025 y TimeToDespatchQueue = 0.025 Net = 5 Packets = 1000}{figure.12.114}{}}
\@writefile{lof}{\contentsline {figure}{\numberline {\relax 12.115}{\ignorespaces Net = 5 Packets = 1000\relax }}{174}{figure.12.115}}
\newlabel{fig:grafica6CargasTDMA}{{\relax 12.115}{174}{Net = 5 Packets = 1000\relax }{figure.12.115}{}}
\mph@setcol{ii:174}{\mph@nr}
\@writefile{toc}{\contentsline {subsection}{\numberline {12.3.4}Conclusi\'on de las pruebas para la versi\'on con TDMA}{175}{subsection.12.3.4}}
\@writefile{toc}{\contentsline {subsection}{\numberline {12.3.5}Pruebas sobre la Versi\'on con Env\IeC {\'\i }o Directo}{175}{subsection.12.3.5}}
\@writefile{toc}{\contentsline {subsubsection}{TimeBetweenPackets = 0.005 TotalTime = 55.54 Seconds Net = 15 Packets = 100000}{175}{subsection.12.3.5}}
\newlabel{SC@183}{{\caption@xref {??}{ on input line 1339}}{175}{TimeBetweenPackets = 0.005 TotalTime = 55.54 Seconds Net = 15 Packets = 100000}{subsection.12.3.5}{}}
\@writefile{lof}{\contentsline {figure}{\numberline {\relax 12.116}{\ignorespaces Net = 15 Packets = 100000\relax }}{175}{figure.12.116}}
\newlabel{fig:grafica1CargasNormal}{{\relax 12.116}{175}{Net = 15 Packets = 100000\relax }{figure.12.116}{}}
\mph@setcol{ii:175}{\mph@nr}
\@writefile{toc}{\contentsline {subsubsection}{TimeBetweenPackets = 0.005 TotalTime = 55.54 Seconds Net = 5 Packets = 1000}{176}{figure.12.116}}
\newlabel{SC@184}{{\caption@xref {??}{ on input line 1350}}{176}{TimeBetweenPackets = 0.005 TotalTime = 55.54 Seconds Net = 5 Packets = 1000}{figure.12.116}{}}
\@writefile{lof}{\contentsline {figure}{\numberline {\relax 12.117}{\ignorespaces Net = 5 Packets = 1000\relax }}{176}{figure.12.117}}
\newlabel{fig:grafica2CargasNormal}{{\relax 12.117}{176}{Net = 5 Packets = 1000\relax }{figure.12.117}{}}
\@writefile{toc}{\contentsline {subsubsection}{TimeBetweenPackets = 0.0025 TotalTime = 30.44 Seconds Net = 15 Packets = 100000}{176}{figure.12.117}}
\newlabel{SC@185}{{\caption@xref {??}{ on input line 1361}}{176}{TimeBetweenPackets = 0.0025 TotalTime = 30.44 Seconds Net = 15 Packets = 100000}{figure.12.117}{}}
\@writefile{lof}{\contentsline {figure}{\numberline {\relax 12.118}{\ignorespaces Net = 15 Packets = 100000\relax }}{176}{figure.12.118}}
\newlabel{fig:grafica3CargasNormal}{{\relax 12.118}{176}{Net = 15 Packets = 100000\relax }{figure.12.118}{}}
\mph@setcol{ii:176}{\mph@nr}
\@writefile{toc}{\contentsline {subsubsection}{TimeBetweenPackets = 0.0025 TotalTime = 30.44 Seconds Net = 5 Packets = 1000}{177}{figure.12.118}}
\newlabel{SC@186}{{\caption@xref {??}{ on input line 1372}}{177}{TimeBetweenPackets = 0.0025 TotalTime = 30.44 Seconds Net = 5 Packets = 1000}{figure.12.118}{}}
\@writefile{lof}{\contentsline {figure}{\numberline {\relax 12.119}{\ignorespaces Net = 5 Packets = 1000\relax }}{177}{figure.12.119}}
\newlabel{fig:grafica4CargasNormal}{{\relax 12.119}{177}{Net = 5 Packets = 1000\relax }{figure.12.119}{}}
\@writefile{toc}{\contentsline {subsubsection}{TimeBetweenPackets = 0.001 TotalTime = 15.4 Seconds Net = 15 Packets = 100000}{177}{figure.12.119}}
\newlabel{SC@187}{{\caption@xref {??}{ on input line 1383}}{177}{TimeBetweenPackets = 0.001 TotalTime = 15.4 Seconds Net = 15 Packets = 100000}{figure.12.119}{}}
\@writefile{lof}{\contentsline {figure}{\numberline {\relax 12.120}{\ignorespaces Net = 15 Packets = 100000\relax }}{177}{figure.12.120}}
\newlabel{fig:grafica5CargasNormal}{{\relax 12.120}{177}{Net = 15 Packets = 100000\relax }{figure.12.120}{}}
\mph@setcol{ii:177}{\mph@nr}
\@writefile{toc}{\contentsline {subsubsection}{TimeBetweenPackets = 0.001 TotalTime = 15.4 Seconds Net = 5 Packets = 1000}{178}{figure.12.120}}
\newlabel{SC@188}{{\caption@xref {??}{ on input line 1394}}{178}{TimeBetweenPackets = 0.001 TotalTime = 15.4 Seconds Net = 5 Packets = 1000}{figure.12.120}{}}
\@writefile{lof}{\contentsline {figure}{\numberline {\relax 12.121}{\ignorespaces Net = 5 Packets = 1000\relax }}{178}{figure.12.121}}
\newlabel{fig:grafica6CargasNormal}{{\relax 12.121}{178}{Net = 5 Packets = 1000\relax }{figure.12.121}{}}
\@writefile{toc}{\contentsline {subsection}{\numberline {12.3.6}Conclusi\'on de las pruebas para la versi\'on con Env\IeC {\'\i }o Directo}{178}{subsection.12.3.6}}
\@writefile{toc}{\contentsline {subsection}{\numberline {12.3.7}Comparaci\'on de Resultados entre las Todas las Versiones}{178}{subsection.12.3.7}}
\mph@setcol{ii:178}{\mph@nr}
\@writefile{toc}{\contentsline {subsubsection}{Comparaci\'on de la Primera Configuraci\'on}{179}{subsection.12.3.7}}
\newlabel{SC@189}{{\caption@xref {??}{ on input line 1411}}{179}{Comparación de la Primera Configuración}{subsection.12.3.7}{}}
\@writefile{lof}{\contentsline {figure}{\numberline {\relax 12.122}{\ignorespaces Combinaci\'on 1: Cargas\relax }}{179}{figure.12.122}}
\newlabel{fig:comb1carga}{{\relax 12.122}{179}{Combinación 1: Cargas\relax }{figure.12.122}{}}
\@writefile{toc}{\contentsline {subsubsection}{Comparaci\'on de la Segunda Configuraci\'on}{179}{figure.12.122}}
\newlabel{SC@190}{{\caption@xref {??}{ on input line 1421}}{179}{Comparación de la Segunda Configuración}{figure.12.122}{}}
\@writefile{lof}{\contentsline {figure}{\numberline {\relax 12.123}{\ignorespaces Combinaci\'on 2: Cargas\relax }}{179}{figure.12.123}}
\newlabel{fig:comb2carga}{{\relax 12.123}{179}{Combinación 2: Cargas\relax }{figure.12.123}{}}
\mph@setcol{ii:179}{\mph@nr}
\@writefile{toc}{\contentsline {subsubsection}{Comparaci\'on de la Tercera Configuraci\'on}{180}{figure.12.123}}
\newlabel{SC@191}{{\caption@xref {??}{ on input line 1432}}{180}{Comparación de la Tercera Configuración}{figure.12.123}{}}
\@writefile{lof}{\contentsline {figure}{\numberline {\relax 12.124}{\ignorespaces Combinaci\'on 3: Cargas\relax }}{180}{figure.12.124}}
\newlabel{fig:comb3carga}{{\relax 12.124}{180}{Combinación 3: Cargas\relax }{figure.12.124}{}}
\mph@setcol{ii:180}{\mph@nr}
\@setckpt{Chapters/12Resultados}{
\setcounter{page}{181}
\setcounter{equation}{0}
\setcounter{enumi}{2}
\setcounter{enumii}{0}
\setcounter{enumiii}{0}
\setcounter{enumiv}{0}
\setcounter{footnote}{0}
\setcounter{mpfootnote}{0}
\setcounter{part}{4}
\setcounter{chapter}{12}
\setcounter{section}{3}
\setcounter{subsection}{7}
\setcounter{subsubsection}{0}
\setcounter{paragraph}{0}
\setcounter{subparagraph}{0}
\setcounter{figure}{124}
\setcounter{table}{0}
\setcounter{NAT@ctr}{0}
\setcounter{btxromaniannumeral}{0}
\setcounter{cp@cntr}{0}
\setcounter{SC@C}{191}
\setcounter{r@tfl@t}{0}
\setcounter{DefaultLines}{2}
\setcounter{DefaultDepth}{0}
\setcounter{L@lines}{3}
\setcounter{L@depth}{0}
\setcounter{ContinuedFloat}{0}
\setcounter{mtc}{12}
\setcounter{minitocdepth}{2}
\setcounter{ptc}{0}
\setcounter{parttocdepth}{2}
\setcounter{parentequation}{0}
\setcounter{dummy}{6}
\setcounter{KVtest}{0}
\setcounter{subfigure}{0}
\setcounter{subfigure@save}{0}
\setcounter{lofdepth}{1}
\setcounter{subtable}{0}
\setcounter{subtable@save}{0}
\setcounter{lotdepth}{1}
\setcounter{lstnumber}{34}
\setcounter{Item}{45}
\setcounter{bookmark@seq@number}{174}
\setcounter{AM@survey}{0}
\setcounter{IncluyeCapitulo}{0}
\setcounter{minilofdepth}{2}
\setcounter{minilotdepth}{2}
\setcounter{partlofdepth}{2}
\setcounter{partlotdepth}{2}
\setcounter{sectlofdepth}{2}
\setcounter{sectlotdepth}{2}
\setcounter{lstlisting}{0}
\setcounter{section@level}{0}
}
