\relax 
\providecommand\hyper@newdestlabel[2]{}
\@writefile{toc}{\contentsline {chapter}{\numberline {13}\spacedlowsmallcaps  {Conclusiones}}{173}{chapter.13}}
\@writefile{lof}{\addvspace {10\p@ }}
\@writefile{lot}{\addvspace {10\p@ }}
\@writefile{lol}{\addvspace {10\p@ }}
\def\mph@nr{13}
\@writefile{lof}{\contentsline {xchapter}{\spacedlowsmallcaps  {Conclusiones}}{173}{chapter.13}}
\@writefile{lot}{\contentsline {xchapter}{\spacedlowsmallcaps  {Conclusiones}}{173}{chapter.13}}
\newlabel{chap:conclusiones}{{13}{173}{\texorpdfstring {\spacedlowsmallcaps {Conclusiones}}{Conclusiones}}{chapter.13}{}}
\@writefile{toc}{\contentsline {section}{\numberline {13.1}Consecuci\~A{^3}n de Objetivos}{173}{section.13.1}}
\@writefile{toc}{\contentsline {section}{\numberline {13.2}Conclusiones Generales}{173}{section.13.2}}
\@writefile{toc}{\contentsline {section}{\numberline {13.3}Conclusiones Personales}{173}{section.13.3}}
\@writefile{toc}{\contentsline {section}{\numberline {13.4}Futuras Mejoras}{173}{section.13.4}}
\mph@setcol{ii:173}{\mph@nr}
\@setckpt{Chapters/13Conclusiones}{
\setcounter{page}{174}
\setcounter{equation}{0}
\setcounter{enumi}{2}
\setcounter{enumii}{0}
\setcounter{enumiii}{0}
\setcounter{enumiv}{0}
\setcounter{footnote}{0}
\setcounter{mpfootnote}{0}
\setcounter{part}{5}
\setcounter{chapter}{13}
\setcounter{section}{4}
\setcounter{subsection}{0}
\setcounter{subsubsection}{0}
\setcounter{paragraph}{0}
\setcounter{subparagraph}{0}
\setcounter{figure}{0}
\setcounter{table}{0}
\setcounter{NAT@ctr}{0}
\setcounter{btxromaniannumeral}{0}
\setcounter{cp@cntr}{0}
\setcounter{SC@C}{178}
\setcounter{r@tfl@t}{0}
\setcounter{DefaultLines}{2}
\setcounter{L@lines}{3}
\setcounter{ContinuedFloat}{0}
\setcounter{mtc}{13}
\setcounter{minitocdepth}{2}
\setcounter{ptc}{0}
\setcounter{parttocdepth}{2}
\setcounter{parentequation}{0}
\setcounter{dummy}{6}
\setcounter{KVtest}{0}
\setcounter{subfigure}{0}
\setcounter{subfigure@save}{0}
\setcounter{lofdepth}{1}
\setcounter{subtable}{0}
\setcounter{subtable@save}{0}
\setcounter{lotdepth}{1}
\setcounter{lstnumber}{34}
\setcounter{Item}{45}
\setcounter{bookmark@seq@number}{177}
\setcounter{AM@survey}{0}
\setcounter{IncluyeCapitulo}{0}
\setcounter{minilofdepth}{2}
\setcounter{minilotdepth}{2}
\setcounter{partlofdepth}{2}
\setcounter{partlotdepth}{2}
\setcounter{sectlofdepth}{2}
\setcounter{sectlotdepth}{2}
\setcounter{lstlisting}{0}
\setcounter{section@level}{0}
}
