\relax 
\providecommand\hyper@newdestlabel[2]{}
\citation{problem_solving_wsn_book}
\@writefile{toc}{\contentsline {chapter}{\numberline {1}\spacedlowsmallcaps  {Introducci\'on}}{3}{chapter.1}}
\@writefile{lof}{\addvspace {10\p@ }}
\@writefile{lot}{\addvspace {10\p@ }}
\@writefile{lol}{\addvspace {10\p@ }}
\def\mph@nr{1}
\@writefile{lof}{\contentsline {xchapter}{\spacedlowsmallcaps  {Introducci\'on}}{3}{chapter.1}}
\@writefile{lot}{\contentsline {xchapter}{\spacedlowsmallcaps  {Introducci\'on}}{3}{chapter.1}}
\newlabel{chap:intro}{{1}{3}{\texorpdfstring {\spacedlowsmallcaps {Introducción}}{Introducción}}{chapter.1}{}}
\@writefile{brf}{\backcite{problem_solving_wsn_book}{{3}{1}{chapter.1}}}
\mph@setcol{ii:3}{\mph@nr}
\citation{problem_solving_wsn_book}
\citation{vehicle_safe_WSN}
\citation{coleri_traffic}
\citation{franceschinis_traffic}
\citation{pakzad_structural}
\citation{sazonov_structure}
\citation{xu_structural}
\citation{smart}
\@writefile{brf}{\backcite{problem_solving_wsn_book}{{4}{1}{chapter.1}}}
\@writefile{brf}{\backcite{vehicle_safe_WSN}{{4}{1}{chapter.1}}}
\@writefile{brf}{\backcite{coleri_traffic}{{4}{1}{chapter.1}}}
\@writefile{brf}{\backcite{franceschinis_traffic}{{4}{1}{chapter.1}}}
\@writefile{brf}{\backcite{pakzad_structural}{{4}{1}{chapter.1}}}
\@writefile{brf}{\backcite{sazonov_structure}{{4}{1}{chapter.1}}}
\@writefile{brf}{\backcite{xu_structural}{{4}{1}{chapter.1}}}
\@writefile{brf}{\backcite{smart}{{4}{1}{chapter.1}}}
\mph@setcol{ii:4}{\mph@nr}
\citation{problem_solving_wsn_book}
\@writefile{brf}{\backcite{problem_solving_wsn_book}{{5}{1}{chapter.1}}}
\mph@setcol{ii:5}{\mph@nr}
\@setckpt{Chapters/1Introduccion}{
\setcounter{page}{6}
\setcounter{equation}{0}
\setcounter{enumi}{0}
\setcounter{enumii}{0}
\setcounter{enumiii}{0}
\setcounter{enumiv}{0}
\setcounter{footnote}{0}
\setcounter{mpfootnote}{0}
\setcounter{part}{1}
\setcounter{chapter}{1}
\setcounter{section}{0}
\setcounter{subsection}{0}
\setcounter{subsubsection}{0}
\setcounter{paragraph}{0}
\setcounter{subparagraph}{0}
\setcounter{figure}{0}
\setcounter{table}{0}
\setcounter{NAT@ctr}{0}
\setcounter{btxromaniannumeral}{0}
\setcounter{cp@cntr}{0}
\setcounter{SC@C}{0}
\setcounter{r@tfl@t}{0}
\setcounter{DefaultLines}{2}
\setcounter{DefaultDepth}{0}
\setcounter{L@lines}{3}
\setcounter{L@depth}{0}
\setcounter{ContinuedFloat}{0}
\setcounter{mtc}{1}
\setcounter{minitocdepth}{2}
\setcounter{ptc}{0}
\setcounter{parttocdepth}{2}
\setcounter{parentequation}{0}
\setcounter{dummy}{6}
\setcounter{KVtest}{0}
\setcounter{subfigure}{0}
\setcounter{subfigure@save}{0}
\setcounter{lofdepth}{1}
\setcounter{subtable}{0}
\setcounter{subtable@save}{0}
\setcounter{lotdepth}{1}
\setcounter{lstnumber}{1}
\setcounter{Item}{0}
\setcounter{bookmark@seq@number}{9}
\setcounter{AM@survey}{0}
\setcounter{IncluyeCapitulo}{0}
\setcounter{minilofdepth}{2}
\setcounter{minilotdepth}{2}
\setcounter{partlofdepth}{2}
\setcounter{partlotdepth}{2}
\setcounter{sectlofdepth}{2}
\setcounter{sectlotdepth}{2}
\setcounter{lstlisting}{0}
\setcounter{section@level}{0}
}
