\relax 
\providecommand\hyper@newdestlabel[2]{}
\citation{middleware}
\@writefile{toc}{\contentsline {chapter}{\numberline {2}\spacedlowsmallcaps  {Definici\'on del Problema}}{7}{chapter.2}}
\@writefile{lof}{\addvspace {10\p@ }}
\@writefile{lot}{\addvspace {10\p@ }}
\@writefile{lol}{\addvspace {10\p@ }}
\def\mph@nr{2}
\@writefile{lof}{\contentsline {xchapter}{\spacedlowsmallcaps  {Definici\'on del Problema}}{7}{chapter.2}}
\@writefile{lot}{\contentsline {xchapter}{\spacedlowsmallcaps  {Definici\'on del Problema}}{7}{chapter.2}}
\newlabel{chap:defProblema}{{2}{7}{\texorpdfstring {\spacedlowsmallcaps {Definición del Problema}}{Definición del Problema}}{chapter.2}{}}
\@writefile{brf}{\backcite{middleware}{{7}{2}{chapter.2}}}
\mph@setcol{ii:7}{\mph@nr}
\citation{pds}
\@writefile{toc}{\contentsline {section}{\numberline {2.1}Identificaci\'on del problema real}{8}{section.2.1}}
\@writefile{toc}{\contentsline {section}{\numberline {2.2}Identificaci\'on del problema t\'ecnico}{8}{section.2.2}}
\@writefile{brf}{\backcite{pds}{{8}{2.2}{section.2.2}}}
\@writefile{toc}{\contentsline {subsection}{\numberline {2.2.1}Funcionamiento}{8}{subsection.2.2.1}}
\mph@setcol{ii:8}{\mph@nr}
\@writefile{toc}{\contentsline {subsection}{\numberline {2.2.2}Entorno}{9}{subsection.2.2.2}}
\@writefile{toc}{\contentsline {subsection}{\numberline {2.2.3}Vida Esperada}{9}{subsection.2.2.3}}
\mph@setcol{ii:9}{\mph@nr}
\citation{unix}
\@writefile{toc}{\contentsline {subsection}{\numberline {2.2.4}Ciclo de Mantenimiento}{10}{subsection.2.2.4}}
\@writefile{toc}{\contentsline {subsection}{\numberline {2.2.5}Competencia}{10}{subsection.2.2.5}}
\@writefile{toc}{\contentsline {subsection}{\numberline {2.2.6}Aspecto Externo}{10}{subsection.2.2.6}}
\@writefile{brf}{\backcite{unix}{{10}{2.2.6}{subsection.2.2.6}}}
\mph@setcol{ii:10}{\mph@nr}
\citation{omnet++}
\citation{sbr}
\@writefile{toc}{\contentsline {subsection}{\numberline {2.2.7}Estandarizaci\'on}{11}{subsection.2.2.7}}
\@writefile{toc}{\contentsline {subsection}{\numberline {2.2.8}Calidad y Fiabilidad}{11}{subsection.2.2.8}}
\@writefile{toc}{\contentsline {subsection}{\numberline {2.2.9}Programa de Tareas}{11}{subsection.2.2.9}}
\@writefile{brf}{\backcite{omnet++}{{11}{4}{Item.4}}}
\@writefile{brf}{\backcite{sbr}{{11}{6}{Item.6}}}
\mph@setcol{ii:11}{\mph@nr}
\@writefile{toc}{\contentsline {subsection}{\numberline {2.2.10}Pruebas}{12}{subsection.2.2.10}}
\@writefile{toc}{\contentsline {subsection}{\numberline {2.2.11}Seguridad}{12}{subsection.2.2.11}}
\mph@setcol{ii:12}{\mph@nr}
\@setckpt{Chapters/2DefinicionProblema}{
\setcounter{page}{13}
\setcounter{equation}{0}
\setcounter{enumi}{3}
\setcounter{enumii}{0}
\setcounter{enumiii}{0}
\setcounter{enumiv}{0}
\setcounter{footnote}{0}
\setcounter{mpfootnote}{0}
\setcounter{part}{1}
\setcounter{chapter}{2}
\setcounter{section}{2}
\setcounter{subsection}{11}
\setcounter{subsubsection}{0}
\setcounter{paragraph}{0}
\setcounter{subparagraph}{0}
\setcounter{figure}{0}
\setcounter{table}{0}
\setcounter{NAT@ctr}{0}
\setcounter{btxromaniannumeral}{0}
\setcounter{cp@cntr}{0}
\setcounter{SC@C}{0}
\setcounter{r@tfl@t}{0}
\setcounter{DefaultLines}{2}
\setcounter{DefaultDepth}{0}
\setcounter{L@lines}{3}
\setcounter{L@depth}{0}
\setcounter{ContinuedFloat}{0}
\setcounter{mtc}{2}
\setcounter{minitocdepth}{2}
\setcounter{ptc}{0}
\setcounter{parttocdepth}{2}
\setcounter{parentequation}{0}
\setcounter{dummy}{6}
\setcounter{KVtest}{0}
\setcounter{subfigure}{0}
\setcounter{subfigure@save}{0}
\setcounter{lofdepth}{1}
\setcounter{subtable}{0}
\setcounter{subtable@save}{0}
\setcounter{lotdepth}{1}
\setcounter{lstnumber}{1}
\setcounter{Item}{11}
\setcounter{bookmark@seq@number}{23}
\setcounter{AM@survey}{0}
\setcounter{IncluyeCapitulo}{0}
\setcounter{minilofdepth}{2}
\setcounter{minilotdepth}{2}
\setcounter{partlofdepth}{2}
\setcounter{partlotdepth}{2}
\setcounter{sectlofdepth}{2}
\setcounter{sectlotdepth}{2}
\setcounter{lstlisting}{0}
\setcounter{section@level}{0}
}
