\relax 
\providecommand\hyper@newdestlabel[2]{}
\@writefile{toc}{\contentsline {chapter}{\numberline {3}\spacedlowsmallcaps  {Objetivos}}{13}{chapter.3}}
\@writefile{lof}{\addvspace {10\p@ }}
\@writefile{lot}{\addvspace {10\p@ }}
\@writefile{lol}{\addvspace {10\p@ }}
\def\mph@nr{3}
\@writefile{lof}{\contentsline {xchapter}{\spacedlowsmallcaps  {Objetivos}}{13}{chapter.3}}
\@writefile{lot}{\contentsline {xchapter}{\spacedlowsmallcaps  {Objetivos}}{13}{chapter.3}}
\newlabel{chap:objetivos}{{3}{13}{\texorpdfstring {\spacedlowsmallcaps {Objetivos}}{Objetivos}}{chapter.3}{}}
\mph@setcol{ii:13}{\mph@nr}
\citation{roundrobin}
\@writefile{toc}{\contentsline {section}{\numberline {3.1}Objetivo Principal}{14}{section.3.1}}
\@writefile{toc}{\contentsline {subsection}{\numberline {3.1.1}Creaci\'on de Middleware de Comunicaciones}{14}{subsection.3.1.1}}
\@writefile{toc}{\contentsline {section}{\numberline {3.2}Objetivos secundarios}{14}{section.3.2}}
\@writefile{toc}{\contentsline {subsection}{\numberline {3.2.1}Algoritmos Round Robin y TDMA}{14}{subsection.3.2.1}}
\@writefile{brf}{\backcite{roundrobin}{{14}{3.2.1}{subsection.3.2.1}}}
\mph@setcol{ii:14}{\mph@nr}
\citation{fifo}
\@writefile{toc}{\contentsline {subsection}{\numberline {3.2.2}Conectar distintas Redes}{15}{subsection.3.2.2}}
\@writefile{toc}{\contentsline {section}{\numberline {3.3}Conclusi\'on de los Objetivos}{15}{section.3.3}}
\@writefile{brf}{\backcite{fifo}{{15}{3.3}{section.3.3}}}
\mph@setcol{ii:15}{\mph@nr}
\@setckpt{Chapters/3Objetivos1}{
\setcounter{page}{16}
\setcounter{equation}{0}
\setcounter{enumi}{3}
\setcounter{enumii}{0}
\setcounter{enumiii}{0}
\setcounter{enumiv}{0}
\setcounter{footnote}{0}
\setcounter{mpfootnote}{0}
\setcounter{part}{1}
\setcounter{chapter}{3}
\setcounter{section}{3}
\setcounter{subsection}{0}
\setcounter{subsubsection}{0}
\setcounter{paragraph}{0}
\setcounter{subparagraph}{0}
\setcounter{figure}{0}
\setcounter{table}{0}
\setcounter{NAT@ctr}{0}
\setcounter{btxromaniannumeral}{0}
\setcounter{cp@cntr}{0}
\setcounter{SC@C}{0}
\setcounter{r@tfl@t}{0}
\setcounter{DefaultLines}{2}
\setcounter{DefaultDepth}{0}
\setcounter{L@lines}{3}
\setcounter{L@depth}{0}
\setcounter{ContinuedFloat}{0}
\setcounter{mtc}{3}
\setcounter{minitocdepth}{2}
\setcounter{ptc}{0}
\setcounter{parttocdepth}{2}
\setcounter{parentequation}{0}
\setcounter{dummy}{6}
\setcounter{KVtest}{0}
\setcounter{subfigure}{0}
\setcounter{subfigure@save}{0}
\setcounter{lofdepth}{1}
\setcounter{subtable}{0}
\setcounter{subtable@save}{0}
\setcounter{lotdepth}{1}
\setcounter{lstnumber}{1}
\setcounter{Item}{11}
\setcounter{bookmark@seq@number}{30}
\setcounter{AM@survey}{0}
\setcounter{IncluyeCapitulo}{0}
\setcounter{minilofdepth}{2}
\setcounter{minilotdepth}{2}
\setcounter{partlofdepth}{2}
\setcounter{partlotdepth}{2}
\setcounter{sectlofdepth}{2}
\setcounter{sectlotdepth}{2}
\setcounter{lstlisting}{0}
\setcounter{section@level}{0}
}
