\relax 
\providecommand\hyper@newdestlabel[2]{}
\citation{rti}
\citation{ieee802154}
\citation{dds}
\citation{rticonnectdds}
\@writefile{toc}{\contentsline {chapter}{\numberline {4}\spacedlowsmallcaps  {Antecedentes}}{15}{chapter.4}}
\@writefile{lof}{\addvspace {10\p@ }}
\@writefile{lot}{\addvspace {10\p@ }}
\@writefile{lol}{\addvspace {10\p@ }}
\def\mph@nr{4}
\@writefile{lof}{\contentsline {xchapter}{\spacedlowsmallcaps  {Antecedentes}}{15}{chapter.4}}
\@writefile{lot}{\contentsline {xchapter}{\spacedlowsmallcaps  {Antecedentes}}{15}{chapter.4}}
\newlabel{chap:antecedentes}{{4}{15}{\texorpdfstring {\spacedlowsmallcaps {Antecedentes}}{Antecedentes}}{chapter.4}{}}
\@writefile{brf}{\backcite{rti}{{15}{4}{chapter.4}}}
\@writefile{brf}{\backcite{ieee802154}{{15}{4}{chapter.4}}}
\@writefile{toc}{\contentsline {section}{\numberline {4.1}DDS}{15}{section.4.1}}
\@writefile{brf}{\backcite{dds}{{15}{4.1}{section.4.1}}}
\mph@setcol{ii:15}{\mph@nr}
\citation{omnet++}
\@writefile{toc}{\contentsline {section}{\numberline {4.2}Connext DDS de RTI}{16}{section.4.2}}
\@writefile{brf}{\backcite{rticonnectdds}{{16}{4.2}{section.4.2}}}
\@writefile{toc}{\contentsline {section}{\numberline {4.3}OMNeT++}{16}{section.4.3}}
\@writefile{brf}{\backcite{omnet++}{{16}{4.3}{section.4.3}}}
\mph@setcol{ii:16}{\mph@nr}
\citation{sbr}
\newlabel{NED}{{4.1}{17}{HelloModule.ned}{lstlisting.4.1}{}}
\@writefile{lol}{\contentsline {lstlisting}{\numberline {4.1}HelloModule.ned}{17}{lstlisting.4.1}}
\@writefile{toc}{\contentsline {section}{\numberline {4.4}SBR: Sistemas Basados en Reglas}{17}{section.4.4}}
\@writefile{brf}{\backcite{sbr}{{17}{4.4}{section.4.4}}}
\@writefile{toc}{\contentsline {subsection}{\numberline {4.4.1}Modus Ponens}{17}{subsection.4.4.1}}
\@writefile{toc}{\contentsline {subsection}{\numberline {4.4.2}Modus Tollens}{17}{subsection.4.4.2}}
\@writefile{toc}{\contentsline {subsection}{\numberline {4.4.3}Estrategias de inferencia}{17}{subsection.4.4.3}}
\mph@setcol{ii:17}{\mph@nr}
\citation{whatisiot}
\citation{iotipv6ready}
\citation{doublestack}
\citation{tunneling}
\@writefile{toc}{\contentsline {section}{\numberline {4.5}Internet of Things (IoT)}{18}{section.4.5}}
\@writefile{brf}{\backcite{whatisiot}{{18}{4.5}{section.4.5}}}
\@writefile{brf}{\backcite{iotipv6ready}{{18}{4.5}{section.4.5}}}
\@writefile{toc}{\contentsline {subsection}{\numberline {4.5.1}Double Stack}{18}{subsection.4.5.1}}
\@writefile{brf}{\backcite{doublestack}{{18}{4.5.1}{subsection.4.5.1}}}
\newlabel{SC@2}{{\caption@xref {??}{ on input line 108}}{18}{Double Stack}{subsection.4.5.1}{}}
\@writefile{lof}{\contentsline {figure}{\numberline {\relax 4.2}{\ignorespaces Ejemplo m\~A\IeC {\copyright  }todo Double Stack\relax }}{18}{figure.4.2}}
\newlabel{fig:doubleStack}{{\relax 4.2}{18}{Ejemplo método Double Stack\relax }{figure.4.2}{}}
\mph@setcol{ii:18}{\mph@nr}
\citation{ipv4}
\@writefile{toc}{\contentsline {subsection}{\numberline {4.5.2}Tunelizaci\~A{^3}n IPv6}{19}{subsection.4.5.2}}
\@writefile{brf}{\backcite{tunneling}{{19}{4.5.2}{subsection.4.5.2}}}
\newlabel{SC@3}{{\caption@xref {??}{ on input line 125}}{19}{DDS}{subsection.4.5.2}{}}
\@writefile{lof}{\contentsline {figure}{\numberline {\relax 4.3}{\ignorespaces Ejemplo m\~A\IeC {\copyright  }todo Tunelizaci\~A{^3}n IPv6\relax }}{19}{figure.4.3}}
\newlabel{fig:tunneling}{{\relax 4.3}{19}{Ejemplo método Tunelización IPv6\relax }{figure.4.3}{}}
\@writefile{toc}{\contentsline {section}{\numberline {4.6}Est\~A\IeC {\textexclamdown }ndares de Comunicaci\~A{^3}n}{19}{section.4.6}}
\@writefile{toc}{\contentsline {subsection}{\numberline {4.6.1}Internet Protocol (IP)}{19}{subsection.4.6.1}}
\mph@setcol{ii:19}{\mph@nr}
\@writefile{toc}{\contentsline {subsubsection}{IPv4}{20}{figure.4.4}}
\@writefile{brf}{\backcite{ipv4}{{20}{4.6.1}{figure.4.4}}}
\newlabel{SC@4}{{\caption@xref {??}{ on input line 146}}{20}{Estándares de Comunicación}{subsection.4.6.1}{}}
\@writefile{lof}{\contentsline {figure}{\numberline {\relax 4.4}{\ignorespaces Pila de protocolos TCP/IP\relax }}{20}{figure.4.4}}
\newlabel{fig:tcpip}{{\relax 4.4}{20}{Pila de protocolos TCP/IP\relax }{figure.4.4}{}}
\mph@setcol{ii:20}{\mph@nr}
\citation{ipv6}
\@writefile{toc}{\contentsline {subsubsection}{IPv6}{21}{figure.4.5}}
\@writefile{brf}{\backcite{ipv6}{{21}{4.6}{figure.4.5}}}
\newlabel{SC@5}{{\caption@xref {??}{ on input line 167}}{21}{Estándares de Comunicación}{figure.4.4}{}}
\@writefile{lof}{\contentsline {figure}{\numberline {\relax 4.5}{\ignorespaces Cabecera IPv4\relax }}{21}{figure.4.5}}
\newlabel{fig:cabipv4}{{\relax 4.5}{21}{Cabecera IPv4\relax }{figure.4.5}{}}
\mph@setcol{ii:21}{\mph@nr}
\newlabel{SC@6}{{\caption@xref {??}{ on input line 206}}{22}{IPv6}{figure.4.5}{}}
\@writefile{lof}{\contentsline {figure}{\numberline {\relax 4.6}{\ignorespaces Cabecera IPv6\relax }}{22}{figure.4.6}}
\newlabel{fig:cabipv6}{{\relax 4.6}{22}{Cabecera IPv6\relax }{figure.4.6}{}}
\@writefile{toc}{\contentsline {subsection}{\numberline {4.6.2}Est\~A\IeC {\textexclamdown }ndar IEEE 802.15.4}{22}{subsection.4.6.2}}
\newlabel{SC@7}{{\caption@xref {??}{ on input line 230}}{22}{Estándar IEEE 802.15.4}{subsection.4.6.2}{}}
\@writefile{lof}{\contentsline {figure}{\numberline {\relax 4.7}{\ignorespaces Supertrama del protocolo 802.15.4\relax }}{22}{figure.4.7}}
\newlabel{fig:supertrama}{{\relax 4.7}{22}{Supertrama del protocolo 802.15.4\relax }{figure.4.7}{}}
\mph@setcol{ii:22}{\mph@nr}
\citation{udp}
\newlabel{SC@8}{{\caption@xref {??}{ on input line 250}}{23}{Estándar IEEE 802.15.4}{Item.14}{}}
\@writefile{lof}{\contentsline {figure}{\numberline {\relax 4.8}{\ignorespaces Representaci\~A{^3}n gr\~A\IeC {\textexclamdown }fica de la Topolog\~A\discretionary {-}{}{}a en Estrella\relax }}{23}{figure.4.8}}
\newlabel{fig:topologiaEstrella}{{\relax 4.8}{23}{Representación gráfica de la Topología en Estrella\relax }{figure.4.8}{}}
\mph@setcol{ii:23}{\mph@nr}
\citation{tcp}
\newlabel{SC@9}{{\caption@xref {??}{ on input line 260}}{24}{Estándar IEEE 802.15.4}{Item.15}{}}
\@writefile{lof}{\contentsline {figure}{\numberline {\relax 4.9}{\ignorespaces Representaci\~A{^3}n gr\~A\IeC {\textexclamdown }fica de la Topolog\~A\discretionary {-}{}{}a P2P\relax }}{24}{figure.4.9}}
\newlabel{fig:topologiaP2P}{{\relax 4.9}{24}{Representación gráfica de la Topología P2P\relax }{figure.4.9}{}}
\@writefile{toc}{\contentsline {subsection}{\numberline {4.6.3}User Datagram Protocol (UDP)}{24}{subsection.4.6.3}}
\@writefile{brf}{\backcite{udp}{{24}{4.6.3}{subsection.4.6.3}}}
\newlabel{SC@10}{{\caption@xref {??}{ on input line 279}}{24}{User Datagram Protocol (UDP)}{subsection.4.6.3}{}}
\@writefile{lof}{\contentsline {figure}{\numberline {\relax 4.10}{\ignorespaces Representaci\~A{^3}n gr\~A\IeC {\textexclamdown }fica de la cabecera de UDP\relax }}{24}{figure.4.10}}
\newlabel{fig:cabUDP}{{\relax 4.10}{24}{Representación gráfica de la cabecera de UDP\relax }{figure.4.10}{}}
\mph@setcol{ii:24}{\mph@nr}
\@writefile{toc}{\contentsline {subsection}{\numberline {4.6.4}Transmission Control Protocol (TCP)}{25}{subsection.4.6.4}}
\@writefile{brf}{\backcite{tcp}{{25}{4.6.4}{subsection.4.6.4}}}
\newlabel{SC@11}{{\caption@xref {??}{ on input line 316}}{25}{Estándar IEEE 802.15.4}{subsection.4.6.4}{}}
\@writefile{lof}{\contentsline {figure}{\numberline {\relax 4.11}{\ignorespaces Representaci\~A{^3}n gr\~A\IeC {\textexclamdown }fica de la cabecera de TCP\relax }}{25}{figure.4.11}}
\newlabel{fig:cabTCP}{{\relax 4.11}{25}{Representación gráfica de la cabecera de TCP\relax }{figure.4.11}{}}
\mph@setcol{ii:25}{\mph@nr}
\@writefile{toc}{\contentsline {section}{\numberline {4.7}Round Robin}{26}{section.4.7}}
\mph@setcol{ii:26}{\mph@nr}
\@writefile{toc}{\contentsline {section}{\numberline {4.8}Acceso m\~A\IeC {\textordmasculine }ltiple por divisi\~A{^3}n de tiempo (TDMA)}{27}{section.4.8}}
\mph@setcol{ii:27}{\mph@nr}
\@setckpt{Chapters/4Antecedentes}{
\setcounter{page}{28}
\setcounter{equation}{0}
\setcounter{enumi}{0}
\setcounter{enumii}{0}
\setcounter{enumiii}{0}
\setcounter{enumiv}{0}
\setcounter{footnote}{0}
\setcounter{mpfootnote}{0}
\setcounter{part}{1}
\setcounter{chapter}{4}
\setcounter{section}{8}
\setcounter{subsection}{0}
\setcounter{subsubsection}{0}
\setcounter{paragraph}{0}
\setcounter{subparagraph}{0}
\setcounter{figure}{11}
\setcounter{table}{0}
\setcounter{NAT@ctr}{0}
\setcounter{btxromaniannumeral}{0}
\setcounter{cp@cntr}{0}
\setcounter{SC@C}{11}
\setcounter{r@tfl@t}{0}
\setcounter{DefaultLines}{2}
\setcounter{L@lines}{3}
\setcounter{ContinuedFloat}{0}
\setcounter{mtc}{4}
\setcounter{minitocdepth}{2}
\setcounter{ptc}{0}
\setcounter{parttocdepth}{2}
\setcounter{parentequation}{0}
\setcounter{dummy}{6}
\setcounter{KVtest}{0}
\setcounter{subfigure}{0}
\setcounter{subfigure@save}{0}
\setcounter{lofdepth}{1}
\setcounter{subtable}{0}
\setcounter{subtable@save}{0}
\setcounter{lotdepth}{1}
\setcounter{lstnumber}{7}
\setcounter{Item}{15}
\setcounter{bookmark@seq@number}{47}
\setcounter{AM@survey}{0}
\setcounter{IncluyeCapitulo}{0}
\setcounter{minilofdepth}{2}
\setcounter{minilotdepth}{2}
\setcounter{partlofdepth}{2}
\setcounter{partlotdepth}{2}
\setcounter{sectlofdepth}{2}
\setcounter{sectlotdepth}{2}
\setcounter{lstlisting}{1}
\setcounter{section@level}{0}
}
