\relax 
\providecommand\hyper@newdestlabel[2]{}
\@writefile{toc}{\contentsline {chapter}{\numberline {5}\spacedlowsmallcaps  {Restricciones}}{37}{chapter.5}}
\@writefile{lof}{\addvspace {10\p@ }}
\@writefile{lot}{\addvspace {10\p@ }}
\@writefile{lol}{\addvspace {10\p@ }}
\def\mph@nr{5}
\@writefile{lof}{\contentsline {xchapter}{\spacedlowsmallcaps  {Restricciones}}{37}{chapter.5}}
\@writefile{lot}{\contentsline {xchapter}{\spacedlowsmallcaps  {Restricciones}}{37}{chapter.5}}
\newlabel{chap:restricciones}{{5}{37}{\texorpdfstring {\spacedlowsmallcaps {Restricciones}}{Restricciones}}{chapter.5}{}}
\mph@setcol{ii:37}{\mph@nr}
\@writefile{toc}{\contentsline {section}{\numberline {5.1}Factores Dato}{38}{section.5.1}}
\mph@setcol{ii:38}{\mph@nr}
\citation{contiki}
\citation{6lowpan}
\@writefile{toc}{\contentsline {section}{\numberline {5.2}Factores Estrat\'egicos}{39}{section.5.2}}
\@writefile{toc}{\contentsline {subsection}{\numberline {5.2.1}Sistema Operativo}{39}{subsection.5.2.1}}
\@writefile{brf}{\backcite{contiki}{{39}{5.2.1}{subsection.5.2.1}}}
\@writefile{brf}{\backcite{6lowpan}{{39}{5.2.1}{subsection.5.2.1}}}
\mph@setcol{ii:39}{\mph@nr}
\citation{pycharm}
\citation{spyder}
\citation{plotly}
\@writefile{toc}{\contentsline {subsection}{\numberline {5.2.2}Desarrollo de la Interfaz Gr\'afica}{40}{subsection.5.2.2}}
\@writefile{brf}{\backcite{pycharm}{{40}{5.2.2}{subsection.5.2.2}}}
\@writefile{brf}{\backcite{spyder}{{40}{5.2.2}{subsection.5.2.2}}}
\@writefile{toc}{\contentsline {subsection}{\numberline {5.2.3}Librer\IeC {\'\i }a para el dise\~no de gr\'aficas en tiempo real}{40}{subsection.5.2.3}}
\mph@setcol{ii:40}{\mph@nr}
\citation{matplotlib}
\citation{castalia}
\citation{mixim}
\citation{inet}
\@writefile{brf}{\backcite{plotly}{{41}{5.2.3}{subsection.5.2.3}}}
\@writefile{brf}{\backcite{matplotlib}{{41}{5.2.3}{subsection.5.2.3}}}
\@writefile{toc}{\contentsline {subsection}{\numberline {5.2.4}Librer\IeC {\'\i }a redes de sensores en OMNeT++}{41}{subsection.5.2.4}}
\@writefile{brf}{\backcite{castalia}{{41}{5.2.4}{subsection.5.2.4}}}
\@writefile{brf}{\backcite{mixim}{{41}{5.2.4}{subsection.5.2.4}}}
\@writefile{brf}{\backcite{inet}{{41}{5.2.4}{subsection.5.2.4}}}
\mph@setcol{ii:41}{\mph@nr}
\mph@setcol{ii:42}{\mph@nr}
\@setckpt{Chapters/5Restricciones}{
\setcounter{page}{43}
\setcounter{equation}{0}
\setcounter{enumi}{3}
\setcounter{enumii}{0}
\setcounter{enumiii}{0}
\setcounter{enumiv}{0}
\setcounter{footnote}{0}
\setcounter{mpfootnote}{0}
\setcounter{part}{1}
\setcounter{chapter}{5}
\setcounter{section}{2}
\setcounter{subsection}{4}
\setcounter{subsubsection}{0}
\setcounter{paragraph}{0}
\setcounter{subparagraph}{0}
\setcounter{figure}{0}
\setcounter{table}{0}
\setcounter{NAT@ctr}{0}
\setcounter{btxromaniannumeral}{0}
\setcounter{cp@cntr}{0}
\setcounter{SC@C}{11}
\setcounter{r@tfl@t}{0}
\setcounter{DefaultLines}{2}
\setcounter{DefaultDepth}{0}
\setcounter{L@lines}{3}
\setcounter{L@depth}{0}
\setcounter{ContinuedFloat}{0}
\setcounter{mtc}{5}
\setcounter{minitocdepth}{2}
\setcounter{ptc}{0}
\setcounter{parttocdepth}{2}
\setcounter{parentequation}{0}
\setcounter{dummy}{6}
\setcounter{KVtest}{0}
\setcounter{subfigure}{0}
\setcounter{subfigure@save}{0}
\setcounter{lofdepth}{1}
\setcounter{subtable}{0}
\setcounter{subtable@save}{0}
\setcounter{lotdepth}{1}
\setcounter{lstnumber}{7}
\setcounter{Item}{23}
\setcounter{bookmark@seq@number}{55}
\setcounter{AM@survey}{0}
\setcounter{IncluyeCapitulo}{0}
\setcounter{minilofdepth}{2}
\setcounter{minilotdepth}{2}
\setcounter{partlofdepth}{2}
\setcounter{partlotdepth}{2}
\setcounter{sectlofdepth}{2}
\setcounter{sectlotdepth}{2}
\setcounter{lstlisting}{0}
\setcounter{section@level}{0}
}
