\relax 
\providecommand\hyper@newdestlabel[2]{}
\@writefile{toc}{\contentsline {chapter}{\numberline {6}\spacedlowsmallcaps  {Recursos}}{43}{chapter.6}}
\@writefile{lof}{\addvspace {10\p@ }}
\@writefile{lot}{\addvspace {10\p@ }}
\@writefile{lol}{\addvspace {10\p@ }}
\def\mph@nr{6}
\@writefile{lof}{\contentsline {xchapter}{\spacedlowsmallcaps  {Recursos}}{43}{chapter.6}}
\@writefile{lot}{\contentsline {xchapter}{\spacedlowsmallcaps  {Recursos}}{43}{chapter.6}}
\newlabel{chap:recursos}{{6}{43}{\texorpdfstring {\spacedlowsmallcaps {Recursos}}{Recursos}}{chapter.6}{}}
\@writefile{toc}{\contentsline {section}{\numberline {6.1}Recursos Humanos}{43}{section.6.1}}
\@writefile{toc}{\contentsline {section}{\numberline {6.2}Recursos Hardware}{43}{section.6.2}}
\mph@setcol{ii:43}{\mph@nr}
\citation{numpy}
\citation{scipy}
\@writefile{toc}{\contentsline {subsection}{\numberline {6.2.1}Sistema de Desarrollo}{44}{subsection.6.2.1}}
\@writefile{toc}{\contentsline {subsection}{\numberline {6.2.2}Sistema de Explotaci\'on}{44}{subsection.6.2.2}}
\@writefile{toc}{\contentsline {section}{\numberline {6.3}Recursos Software}{44}{section.6.3}}
\@writefile{brf}{\backcite{numpy}{{44}{6.3}{section.6.3}}}
\@writefile{brf}{\backcite{scipy}{{44}{6.3}{section.6.3}}}
\mph@setcol{ii:44}{\mph@nr}
\citation{lxmltutorial}
\citation{visualparadigm}
\citation{texmaker}
\citation{jabref}
\@writefile{brf}{\backcite{lxmltutorial}{{45}{6.3}{section.6.3}}}
\@writefile{brf}{\backcite{visualparadigm}{{45}{6.3}{section.6.3}}}
\@writefile{brf}{\backcite{texmaker}{{45}{6.3}{section.6.3}}}
\mph@setcol{ii:45}{\mph@nr}
\@writefile{brf}{\backcite{jabref}{{46}{6.3}{section.6.3}}}
\mph@setcol{ii:46}{\mph@nr}
\@setckpt{Chapters/6Recursos}{
\setcounter{page}{47}
\setcounter{equation}{0}
\setcounter{enumi}{3}
\setcounter{enumii}{0}
\setcounter{enumiii}{0}
\setcounter{enumiv}{0}
\setcounter{footnote}{0}
\setcounter{mpfootnote}{0}
\setcounter{part}{1}
\setcounter{chapter}{6}
\setcounter{section}{3}
\setcounter{subsection}{0}
\setcounter{subsubsection}{0}
\setcounter{paragraph}{0}
\setcounter{subparagraph}{0}
\setcounter{figure}{0}
\setcounter{table}{0}
\setcounter{NAT@ctr}{0}
\setcounter{btxromaniannumeral}{0}
\setcounter{cp@cntr}{0}
\setcounter{SC@C}{11}
\setcounter{r@tfl@t}{0}
\setcounter{DefaultLines}{2}
\setcounter{DefaultDepth}{0}
\setcounter{L@lines}{3}
\setcounter{L@depth}{0}
\setcounter{ContinuedFloat}{0}
\setcounter{mtc}{6}
\setcounter{minitocdepth}{2}
\setcounter{ptc}{0}
\setcounter{parttocdepth}{2}
\setcounter{parentequation}{0}
\setcounter{dummy}{6}
\setcounter{KVtest}{0}
\setcounter{subfigure}{0}
\setcounter{subfigure@save}{0}
\setcounter{lofdepth}{1}
\setcounter{subtable}{0}
\setcounter{subtable@save}{0}
\setcounter{lotdepth}{1}
\setcounter{lstnumber}{7}
\setcounter{Item}{23}
\setcounter{bookmark@seq@number}{61}
\setcounter{AM@survey}{0}
\setcounter{IncluyeCapitulo}{0}
\setcounter{minilofdepth}{2}
\setcounter{minilotdepth}{2}
\setcounter{partlofdepth}{2}
\setcounter{partlotdepth}{2}
\setcounter{sectlofdepth}{2}
\setcounter{sectlotdepth}{2}
\setcounter{lstlisting}{0}
\setcounter{section@level}{0}
}
