\relax 
\providecommand\hyper@newdestlabel[2]{}
\@writefile{toc}{\contentsline {chapter}{\numberline {14}\spacedlowsmallcaps  {Anexo A}}{191}{chapter.14}}
\@writefile{lof}{\addvspace {10\p@ }}
\@writefile{lot}{\addvspace {10\p@ }}
\@writefile{lol}{\addvspace {10\p@ }}
\def\mph@nr{14}
\@writefile{lof}{\contentsline {xchapter}{\spacedlowsmallcaps  {Anexo A}}{191}{chapter.14}}
\@writefile{lot}{\contentsline {xchapter}{\spacedlowsmallcaps  {Anexo A}}{191}{chapter.14}}
\newlabel{chap:anexoa}{{14}{191}{\texorpdfstring {\spacedlowsmallcaps {Anexo A}}{Anexo A}}{chapter.14}{}}
\mph@setcol{ii:191}{\mph@nr}
\@writefile{toc}{\contentsline {section}{\numberline {14.1}Programaci\'on Concurrente}{192}{section.14.1}}
\mph@setcol{ii:192}{\mph@nr}
\@writefile{toc}{\contentsline {subsection}{\numberline {14.1.1}Concurrencia en ConNet}{193}{subsection.14.1.1}}
\newlabel{Python}{{14.1}{193}{Semaphore example on Python}{lstlisting.14.1}{}}
\@writefile{lol}{\contentsline {lstlisting}{\numberline {14.1}Semaphore example on Python}{193}{lstlisting.14.1}}
\mph@setcol{ii:193}{\mph@nr}
\@writefile{toc}{\contentsline {section}{\numberline {14.2}Uso de Sockets en Python}{194}{section.14.2}}
\mph@setcol{ii:194}{\mph@nr}
\@writefile{toc}{\contentsline {subsection}{\numberline {14.2.1}Ejemplo Sockets TCP Server Python}{195}{subsection.14.2.1}}
\newlabel{Python}{{14.2}{195}{Ejemplo Sockets TCP Server Python}{lstlisting.14.2}{}}
\@writefile{lol}{\contentsline {lstlisting}{\numberline {14.2}Ejemplo Sockets TCP Server Python}{195}{lstlisting.14.2}}
\mph@setcol{ii:195}{\mph@nr}
\@writefile{toc}{\contentsline {subsection}{\numberline {14.2.2}Ejemplo Sockets TCP Client Python}{196}{subsection.14.2.2}}
\newlabel{Python}{{14.3}{196}{Ejemplo Sockets TCP Client Python}{lstlisting.14.3}{}}
\@writefile{lol}{\contentsline {lstlisting}{\numberline {14.3}Ejemplo Sockets TCP Client Python}{196}{lstlisting.14.3}}
\@writefile{toc}{\contentsline {subsection}{\numberline {14.2.3}Ejemplo Sockets UDP Server Python}{196}{subsection.14.2.3}}
\newlabel{Python}{{14.4}{196}{Ejemplo Sockets UDP Server Python}{lstlisting.14.4}{}}
\@writefile{lol}{\contentsline {lstlisting}{\numberline {14.4}Ejemplo Sockets UDP Server Python}{196}{lstlisting.14.4}}
\mph@setcol{ii:196}{\mph@nr}
\@writefile{toc}{\contentsline {subsection}{\numberline {14.2.4}Ejemplo Sockets UDP Client Python}{197}{subsection.14.2.4}}
\newlabel{Python}{{14.5}{197}{Ejemplo Sockets UDP Client Python}{lstlisting.14.5}{}}
\@writefile{lol}{\contentsline {lstlisting}{\numberline {14.5}Ejemplo Sockets UDP Client Python}{197}{lstlisting.14.5}}
\mph@setcol{ii:197}{\mph@nr}
\@setckpt{Chapters/AnexoB1}{
\setcounter{page}{198}
\setcounter{equation}{0}
\setcounter{enumi}{3}
\setcounter{enumii}{0}
\setcounter{enumiii}{0}
\setcounter{enumiv}{0}
\setcounter{footnote}{0}
\setcounter{mpfootnote}{0}
\setcounter{part}{6}
\setcounter{chapter}{14}
\setcounter{section}{2}
\setcounter{subsection}{4}
\setcounter{subsubsection}{0}
\setcounter{paragraph}{0}
\setcounter{subparagraph}{0}
\setcounter{figure}{0}
\setcounter{table}{0}
\setcounter{NAT@ctr}{0}
\setcounter{btxromaniannumeral}{0}
\setcounter{cp@cntr}{0}
\setcounter{SC@C}{191}
\setcounter{r@tfl@t}{0}
\setcounter{DefaultLines}{2}
\setcounter{DefaultDepth}{0}
\setcounter{L@lines}{3}
\setcounter{L@depth}{0}
\setcounter{ContinuedFloat}{0}
\setcounter{mtc}{14}
\setcounter{minitocdepth}{2}
\setcounter{ptc}{0}
\setcounter{parttocdepth}{2}
\setcounter{parentequation}{0}
\setcounter{dummy}{6}
\setcounter{KVtest}{0}
\setcounter{subfigure}{0}
\setcounter{subfigure@save}{0}
\setcounter{lofdepth}{1}
\setcounter{subtable}{0}
\setcounter{subtable@save}{0}
\setcounter{lotdepth}{1}
\setcounter{lstnumber}{23}
\setcounter{Item}{54}
\setcounter{bookmark@seq@number}{195}
\setcounter{AM@survey}{0}
\setcounter{IncluyeCapitulo}{0}
\setcounter{minilofdepth}{2}
\setcounter{minilotdepth}{2}
\setcounter{partlofdepth}{2}
\setcounter{partlotdepth}{2}
\setcounter{sectlofdepth}{2}
\setcounter{sectlotdepth}{2}
\setcounter{lstlisting}{5}
\setcounter{section@level}{0}
}
