\relax 
\providecommand\hyper@newdestlabel[2]{}
\@writefile{toc}{\contentsline {chapter}{\numberline {13}\spacedlowsmallcaps  {Anexo A}}{173}{chapter.13}}
\@writefile{lof}{\addvspace {10\p@ }}
\@writefile{lot}{\addvspace {10\p@ }}
\@writefile{lol}{\addvspace {10\p@ }}
\def\mph@nr{13}
\@writefile{lof}{\contentsline {xchapter}{\spacedlowsmallcaps  {Anexo A}}{173}{chapter.13}}
\@writefile{lot}{\contentsline {xchapter}{\spacedlowsmallcaps  {Anexo A}}{173}{chapter.13}}
\newlabel{chap:anexoa}{{13}{173}{\texorpdfstring {\spacedlowsmallcaps {Anexo A}}{Anexo A}}{chapter.13}{}}
\newlabel{SC@179}{{\caption@xref {??}{ on input line 11}}{173}{\texorpdfstring {\spacedlowsmallcaps {Anexo A}}{Anexo A}}{chapter.13}{}}
\@writefile{lof}{\contentsline {figure}{\numberline {\relax 13.1}{\ignorespaces Estad\~A\discretionary {-}{}{}sticas\relax }}{173}{figure.13.1}}
\newlabel{fig:estadisticas}{{\relax 13.1}{173}{Estadísticas\relax }{figure.13.1}{}}
\mph@setcol{ii:173}{\mph@nr}
\@setckpt{Chapters/AnexoA}{
\setcounter{page}{174}
\setcounter{equation}{0}
\setcounter{enumi}{2}
\setcounter{enumii}{0}
\setcounter{enumiii}{0}
\setcounter{enumiv}{0}
\setcounter{footnote}{0}
\setcounter{mpfootnote}{0}
\setcounter{part}{6}
\setcounter{chapter}{13}
\setcounter{section}{0}
\setcounter{subsection}{4}
\setcounter{subsubsection}{0}
\setcounter{paragraph}{0}
\setcounter{subparagraph}{0}
\setcounter{figure}{1}
\setcounter{table}{0}
\setcounter{NAT@ctr}{0}
\setcounter{btxromaniannumeral}{0}
\setcounter{cp@cntr}{0}
\setcounter{SC@C}{179}
\setcounter{r@tfl@t}{0}
\setcounter{DefaultLines}{2}
\setcounter{L@lines}{3}
\setcounter{ContinuedFloat}{0}
\setcounter{mtc}{13}
\setcounter{minitocdepth}{2}
\setcounter{ptc}{0}
\setcounter{parttocdepth}{2}
\setcounter{parentequation}{0}
\setcounter{dummy}{6}
\setcounter{KVtest}{0}
\setcounter{subfigure}{0}
\setcounter{subfigure@save}{0}
\setcounter{lofdepth}{1}
\setcounter{subtable}{0}
\setcounter{subtable@save}{0}
\setcounter{lotdepth}{1}
\setcounter{lstnumber}{34}
\setcounter{Item}{45}
\setcounter{bookmark@seq@number}{165}
\setcounter{AM@survey}{0}
\setcounter{IncluyeCapitulo}{0}
\setcounter{minilofdepth}{2}
\setcounter{minilotdepth}{2}
\setcounter{partlofdepth}{2}
\setcounter{partlotdepth}{2}
\setcounter{sectlofdepth}{2}
\setcounter{sectlotdepth}{2}
\setcounter{lstlisting}{0}
\setcounter{section@level}{0}
}
