<?xml version="1.0" encoding="UTF-8"?>
<session version="1.0">
<refactoring comment="Delete resource &apos;inetmanet-2.0-baseuco/src/gatewaynodes/phantomNode.h&apos;" deleteContents="false" description="Delete resource &apos;inetmanet-2.0-baseuco/src/gatewaynodes/phantomNode.h&apos;" element1="/inetmanet-2.0-baseuco/src/gatewaynodes/phantomNode.h" flags="7" id="org.eclipse.ltk.core.refactoring.delete.resources" resources="1" stamp="1462556580056"/>
</session>